﻿Actor 001
 Name "Luka"
 Nickname "Apprentice Hero"
 Notes "<カテゴリー：人間>\r\n<初期サブクラス 151>\r\n<性別:ルカ>\r\n<TP基本値 5>\r\n<TPLv補正 30>\r\n<開始時TP 50%>\r\n<経験値曲線 386>\r\n<スキル変化 3147-3277>\r\n<誘惑時使用スキル:3285>\r\n<固有習得 1-2109,3-917>\r\n<人間時追加特徴 397>\r\n<初期装備0:47>\r\n<初期装備3:1>\r\n<スキルタイプ強化 48-30>\r\n<イラスト:frfr>"
Actor 002
 Name "**ダミー"
Actor 003
 Name "**ダミー"
Actor 004
 Name "**ダミー"
Actor 005
 Name "Alice"
 Nickname "16th Monster Lord"
 Notes "<カテゴリー：メイン>\r\n<カテゴリー：妖魔>\r\n<ナワバリ:229-48-30>\r\n<初期サブクラス 158>\r\n<TP基本値 5>\r\n<TPLv補正 30>\r\n<開始時TP 50%>\r\n<経験値曲線 386>\r\n<スキル変化 3147-3277>\r\n<誘惑時使用スキル:3555>\r\n<経験済職業 134-2,158-2,232-1,254-1,265-1,293-1,301-1>\r\n<固有習得 14-529>\r\n<人間時追加特徴 391>\r\n<初期装備0:143>\r\n<初期装備3:1>\r\n<主人格>\r\n<HPタイプ消費率 6,50%>\r\n<HPタイプ消費率 7,50%>\r\n<HPタイプ消費率 9,50%>\r\n<HPタイプ消費率 10,50%>\r\n<HPタイプ消費率 14,50%>\r\n<HPタイプ消費率 15,50%>\r\n<HPタイプ消費率 18,50%>\r\n<HPタイプ消費率 19,50%>\r\n<HPタイプ消費率 21,50%>\r\n<HPタイプ消費率 24,50%>\r\n<HPタイプ消費率 25,50%>\r\n<HPタイプ消費率 27,50%>\r\n<HPタイプ消費率 29,50%>\r\n<HPタイプ消費率 31,50%>\r\n<HPタイプ消費率 33,50%>\r\n<HPタイプ消費率 40,50%>\r\n<HPタイプ消費率 42,50%>\r\n<HPタイプ消費率 48,50%>\r\n<HPタイプ消費率 50,50%>\r\n<HPタイプ消費率 57,50%>\r\n<HPタイプ消費率 62,50%>\r\n<イラスト:人外モドキ>"
Actor 006
 Name "**ダミー"
Actor 007
 Name "**ダミー"
Actor 008
 Name "**ダミー"
Actor 009
 Name "**ダミー"
Actor 010
 Name "**ダミー"
Actor 011
 Name "**ダミー"
Actor 012
 Name "Sylph"
 Nickname "Elemental Spirit"
 Notes "<カテゴリー：メイン>\r\n<カテゴリー：妖精>\r\n<ナワバリ:227-15-14>\r\n<初期サブクラス 215>\r\n<TP基本値 5>\r\n<TPLv補正 30>\r\n<開始時TP 50%>\r\n<経験値曲線 382>\r\n<スキル変化 3147-3277>\r\n<誘惑時使用スキル:3986>\r\n<経験済職業 33-10,34-1,62-10,63-1,86-10,92-10,214-10,215-4>\r\n<固有習得 1-2084>\r\n<人間時追加特徴 395>\r\n<初期装備0:522>\r\n<初期装備2:264>\r\n<初期装備3:128>\r\n<属性強化 6-30>\r\n<トリガーステート H,0,20%,301>\r\n<トリガーステート H,3,20%,301>\r\n<イラスト:frfr>"
Actor 013
 Name "Gnome"
 Nickname "Elemental Spirit"
 Notes "<カテゴリー：メイン>\r\n<カテゴリー：妖精>\r\n<ナワバリ:230-3-5>\r\n<初期サブクラス 217>\r\n<TP基本値 5>\r\n<TPLv補正 30>\r\n<開始時TP 50%>\r\n<経験値曲線 383>\r\n<スキル変化 3147-3277>\r\n<誘惑時使用スキル:3489>\r\n<経験済職業 1-10,15-8,22-10,23-6,214-10,217-6>\r\n<固有習得 1-246>\r\n<人間時追加特徴 395>\r\n<初期装備0:417>\r\n<初期装備1:288>\r\n<初期装備2:187>\r\n<初期装備3:40>\r\n<初期アビリティ 246>\r\n<属性強化 7-30>\r\n<トリガーステート H,0,20%,303>\r\n<トリガーステート H,3,20%,303>\r\n<能力値置き換え 21,5,1>\r\n<イラスト:frfr>"
Actor 014
 Name "**ダミー"
Actor 015
 Name "**ダミー"
Actor 016
 Name "**ダミー"
Actor 017
 Name "**ダミー"
Actor 018
 Name "**ダミー"
Actor 019
 Name "**ダミー"
Actor 020
 Name "**ダミー"
Actor 021
 Name "**ダミー"
Actor 022
 Name "**ダミー"
Actor 023
 Name "**ダミー"
Actor 024
 Name "**ダミー"
Actor 025
 Name "**ダミー"
Actor 026
 Name "Ilias"
 Nickname "Goddess of Creation"
 Notes "<カテゴリー：メイン>\r\n<カテゴリー：天使>\r\n<ナワバリ:271-19-14>\r\n<初期サブクラス 362>\r\n<TP基本値 5>\r\n<TPLv補正 30>\r\n<開始時TP 50%>\r\n<経験値曲線 386>\r\n<スキル変化 3147-3277>\r\n<誘惑時使用スキル:3846>\r\n<固有習得 1-1633>\r\n<経験済職業 44-2,52-2,362-2>\r\n<人間時追加特徴 396>\r\n<初期装備0:548>\r\n<初期装備3:122>\r\n<主人格>\r\n<MPタイプ消費率 7,50%>\r\n<MPタイプ消費率 9,50%>\r\n<MPタイプ消費率 10,50%>\r\n<MPタイプ消費率 14,50%>\r\n<MPタイプ消費率 17,50%>\r\n<MPタイプ消費率 19,50%>\r\n<MPタイプ消費率 21,50%>\r\n<HPタイプ消費率 25,50%>\r\n<MPタイプ消費率 26,50%>\r\n<MPスキル消費率 1469,50%>\r\n<MPスキル消費率 1470,50%>\r\n<MPスキル消費率 1726,50%>\r\n<MPスキル消費率 2026,50%>\r\n<MPスキル消費率 2409,50%>\r\n<MPスキル消費率 2410,50%>\r\n<MPスキル消費率 2411,50%>\r\n<MPスキル消費率 2442,50%>\r\n<MPスキル消費率 2444,50%>\r\n<MPスキル消費率 2534,50%>\r\n<MPスキル消費率 2535,50%>\r\n<MPスキル消費率 2536,50%>\r\n<MPスキル消費率 3082,50%>\r\n<イラスト:あかざわRED>"
Actor 027
 Name "**ダミー"
Actor 028
 Name "**ダミー"
Actor 029
 Name "**ダミー"
Actor 030
 Name "**ダミー"
Actor 031
 Name "**ダミー"
Actor 032
 Name "**ダミー"
Actor 033
 Name "**ダミー"
Actor 034
 Name "**ダミー"
Actor 035
 Name "**ダミー"
Actor 036
 Name "**ダミー"
Actor 037
 Name "**ダミー"
Actor 038
 Name "**ダミー"
Actor 039
 Name "**ダミー"
Actor 040
 Name "**ダミー"
Actor 041
 Name "Promestein"
 Nickname "Librarian Angel"
 Notes "<カテゴリー：天使>\r\n<ナワバリ:277-9-16>\r\n<初期サブクラス 362>\r\n<TP基本値 5>\r\n<TPLv補正 30>\r\n<開始時TP 50%>\r\n<経験値曲線 388>\r\n<スキル変化 3147-3279>\r\n<誘惑時使用スキル:3846>\r\n<経験済職業 103-7,126-4,362-3>\r\n<人間時追加特徴 395>\r\n<初期装備0:868>\r\n<初期装備1:283>\r\n<初期装備2:237>\r\n<初期装備3:125>\r\n<主人格>\r\n<スキルタイプ強化 40-30>\r\n<イラスト:瀬戸内>"
Actor 042
 Name "**ダミー"
Actor 043
 Name "**ダミー"
Actor 044
 Name "**ダミー"
Actor 045
 Name "**ダミー"
Actor 046
 Name "**ダミー"
Actor 047
 Name "**ダミー"
Actor 048
 Name "**ダミー"
Actor 049
 Name "**ダミー"
Actor 050
 Name "**ダミー"
Actor 051
 Name "**ダミー"
Actor 052
 Name "**ダミー"
Actor 053
 Name "Lime"
 Nickname "Slime Girl"
 Notes "<カテゴリー：スライム>\r\n<ナワバリ:228-24-31>\r\n<初期サブクラス 223>\r\n<TP基本値 5>\r\n<TPLv補正 30>\r\n<開始時TP 50%>\r\n<経験値曲線 381>\r\n<スキル変化 3147-3279>\r\n<誘惑時使用スキル:3502>\r\n<経験済職業 62-2,223-2>\r\n<人間時追加特徴 393>\r\n<スキルタイプ強化 16-30>\r\n<イラスト:健康クロス>"
Actor 054
 Name "Bunni"
 Nickname "Bunny Slime"
 Notes "<カテゴリー：スライム>\r\n<ナワバリ:230-26-24>\r\n<初期サブクラス 223>\r\n<TP基本値 5>\r\n<TPLv補正 30>\r\n<開始時TP 50%>\r\n<経験値曲線 383>\r\n<スキル変化 3147-3280>\r\n<誘惑時使用スキル:3502>\r\n<経験済職業 22-2,223-2>\r\n<人間時追加特徴 393>\r\n<固有習得 1-2678,8-2694,21-2686>\r\n<イラスト:アレキシ>"
Actor 055
 Name "Melk"
 Nickname "Slug Girl"
 Notes "<カテゴリー：陸棲種>\r\n<ナワバリ:272-23-16>\r\n<初期サブクラス 293>\r\n<TP基本値 5>\r\n<TPLv補正 30>\r\n<開始時TP 50%>\r\n<経験値曲線 386>\r\n<スキル変化 3147-3279>\r\n<誘惑時使用スキル:3512>\r\n<経験済職業 1-2,293-2>\r\n<人間時追加特徴 392>\r\n<初期装備0:46>\r\n<初期装備2:176>\r\n<初期装備3:122>\r\n<イラスト:UN_DO>"
Actor 056
 Name "Rami"
 Nickname "Imp"
 Notes "<カテゴリー：淫魔>\r\n<ナワバリ:228-31-16>\r\n<初期サブクラス 175>\r\n<TP基本値 5>\r\n<TPLv補正 30>\r\n<開始時TP 50%>\r\n<経験値曲線 383>\r\n<スキル変化 3147-3280>\r\n<誘惑時使用スキル:3520>\r\n<経験済職業 33-2,175-2>\r\n<人間時追加特徴 395>\r\n<初期装備0:509>\r\n<初期装備3:1>\r\n<属性強化 3-30>\r\n<MPタイプ消費率 23,66%>\r\n<イラスト:アレキシ>"
Actor 057
 Name "Rumi"
 Nickname "Imp"
 Notes "<カテゴリー：淫魔>\r\n<ナワバリ:228-30-16>\r\n<初期サブクラス 175>\r\n<TP基本値 5>\r\n<TPLv補正 30>\r\n<開始時TP 50%>\r\n<経験値曲線 383>\r\n<スキル変化 3147-3277>\r\n<誘惑時使用スキル:3516>\r\n<経験済職業 22-2,175-2>\r\n<人間時追加特徴 395>\r\n<初期装備0:290>\r\n<初期装備3:1>\r\n<スキルタイプ強化 21-15>\r\n<イラスト:アレキシ>"
Actor 058
 Name "Remi"
 Nickname "Imp"
 Notes "<カテゴリー：淫魔>\r\n<ナワバリ:228-32-16>\r\n<初期サブクラス 175>\r\n<TP基本値 5>\r\n<TPLv補正 30>\r\n<開始時TP 50%>\r\n<経験値曲線 383>\r\n<スキル変化 3147-3277>\r\n<誘惑時使用スキル:3518>\r\n<経験済職業 44-2,175-2>\r\n<人間時追加特徴 395>\r\n<初期装備0:472>\r\n<初期装備3:1>\r\n<トリガーステート H,0,20%,251>\r\n<イラスト:アレキシ>"
Actor 059
 Name "Ragora"
 Nickname "Mandragora"
 Notes "<カテゴリー：植物>\r\n<ナワバリ:230-36-29>\r\n<初期サブクラス 319>\r\n<TP基本値 5>\r\n<TPLv補正 30>\r\n<開始時TP 50%>\r\n<経験値曲線 384>\r\n<スキル変化 3147-3280>\r\n<誘惑時使用スキル:3527>\r\n<経験済職業 92-3,319-3>\r\n<人間時追加特徴 393>\r\n<固有習得 1-2930>\r\n<初期装備0:589>\r\n<初期装備3:122>\r\n<ステート割合強化タイプ 38-30>\r\n<イラスト:瀬戸内>"
Actor 060
 Name "Pochi"
 Nickname "Dog Girl"
 Notes "<カテゴリー：魔獣>\r\n<ナワバリ:230-30-21>\r\n<初期サブクラス 232>\r\n<TP基本値 5>\r\n<TPLv補正 30>\r\n<開始時TP 50%>\r\n<経験値曲線 383>\r\n<スキル変化 3147-3278>\r\n<誘惑時使用スキル:3535>\r\n<経験済職業 62-3,232-3>\r\n<人間時追加特徴 393>\r\n<固有習得 1-3155>\r\n<初期装備0:1>\r\n<ターン終了時発動 3173,33%>\r\n<イラスト:海の山>"
Actor 061
 Name "Mimi"
 Nickname "Earthworm Girl"
 Notes "<カテゴリー：陸棲種>\r\n<ナワバリ:228-10-17>\r\n<初期サブクラス 293>\r\n<TP基本値 5>\r\n<TPLv補正 30>\r\n<開始時TP 50%>\r\n<経験値曲線 385>\r\n<スキル変化 3147-3279>\r\n<誘惑時使用スキル:3511>\r\n<経験済職業 52-3,293-3>\r\n<人間時追加特徴 394>\r\n<固有習得 1-2740,1-3155,1-3162,17-2744,20-2741,26-2745>\r\n<初期装備0:549>\r\n<初期装備2:176>\r\n<初期装備3:3>\r\n<ターン終了時発動 3173,33%>\r\n<イラスト:瀬戸内>"
Actor 062
 Name "Gob"
 Nickname "Goblin Girl"
 Notes "<カテゴリー：亜人>\r\n<ナワバリ:228-7-18>\r\n<初期サブクラス 167>\r\n<TP基本値 5>\r\n<TPLv補正 30>\r\n<開始時TP 50%>\r\n<経験値曲線 383>\r\n<スキル変化 3147-3277>\r\n<誘惑時使用スキル:3546>\r\n<経験済職業 1-4,62-3,167-4>\r\n<固有習得 1-1126,1-1134,15-1135,24-1136>\r\n<人間時追加特徴 392>\r\n<初期装備0:401>\r\n<初期装備1:280>\r\n<初期装備2:193>\r\n<初期装備3:3>\r\n<主人格>\r\n<拡張会心率 10%>\r\n<拡張回避率 10%>\r\n<イラスト:frfr>"
Actor 063
 Name "**ダミー"
Actor 064
 Name "Teeny"
 Nickname "Tiny Lamia"
 Notes "<カテゴリー：ラミア>\r\n<ナワバリ:228-21-26>\r\n<初期サブクラス 254>\r\n<TP基本値 5>\r\n<TPLv補正 30>\r\n<開始時TP 50%>\r\n<経験値曲線 383>\r\n<スキル変化 3147-3277>\r\n<誘惑時使用スキル:3555>\r\n<経験済職業 62-3,123-5,129-6,254-5>\r\n<人間時追加特徴 391>\r\n<初期装備0:845>\r\n<初期装備1:283>\r\n<初期装備2:179>\r\n<初期装備3:56>\r\n<スキルタイプ強化 46-15>\r\n<主人格>\r\n<イラスト:人外モドキ>"
Actor 065
 Name "**ダミー"
Actor 066
 Name "Vanilla"
 Nickname "Vampire Girl"
 Notes "<カテゴリー：吸血鬼>\r\n<ナワバリ:228-30-25>\r\n<初期サブクラス 184>\r\n<TP基本値 5>\r\n<TPLv補正 30>\r\n<開始時TP 50%>\r\n<経験値曲線 383>\r\n<スキル変化 3147-3277>\r\n<誘惑時使用スキル:3563>\r\n<経験済職業 62-3,79-3,184-4>\r\n<人間時追加特徴 391>\r\n<初期装備0:2>\r\n<初期装備1:280>\r\n<初期装備2:177>\r\n<初期装備3:2>\r\n<主人格>\r\n<獲得アイテム倍率 150%>\r\n<スティール成功率 150%>\r\n<イラスト:人外モドキ>"
Actor 067
 Name "**ダミー"
Actor 068
 Name "Papi"
 Nickname "Dragon Pup"
 Notes "<カテゴリー：竜>\r\n<ナワバリ:228-51-9>\r\n<初期サブクラス 283>\r\n<TP基本値 5>\r\n<TPLv補正 30>\r\n<開始時TP 50%>\r\n<経験値曲線 383>\r\n<スキル変化 3147-3277>\r\n<誘惑時使用スキル:4228>\r\n<経験済職業 1-4,22-5,62-3,283-4>\r\n<人間時追加特徴 391>\r\n<初期装備0:292>\r\n<初期装備2:194>\r\n<初期装備3:31>\r\n<主人格>\r\n<トリガーステート H,0,20%,221>\r\n<トリガーステート H,3,20%,221>\r\n<イラスト:人外モドキ>"
Actor 069
 Name "**ダミー"
Actor 070
 Name "Ratty"
 Nickname "Rat Girl"
 Notes "<カテゴリー：魔獣>\r\n<ナワバリ:229-44-30>\r\n<初期サブクラス 232>\r\n<TP基本値 5>\r\n<TPLv補正 30>\r\n<開始時TP 50%>\r\n<経験値曲線 382>\r\n<スキル変化 3147-3278>\r\n<誘惑時使用スキル:3535>\r\n<経験済職業 62-4,232-4>\r\n<固有習得 15-2712>\r\n<人間時追加特徴 393>\r\n<初期装備0:334>\r\n<属性強化 36-30>\r\n<イラスト:海の山>"
Actor 071
 Name "Amara"
 Nickname "Wolf Girl"
 Notes "<カテゴリー：魔獣>\r\n<ナワバリ:230-29-14>\r\n<初期サブクラス 232>\r\n<TP基本値 5>\r\n<TPLv補正 30>\r\n<開始時TP 50%>\r\n<経験値曲線 382>\r\n<スキル変化 3147-3279>\r\n<誘惑時使用スキル:3535>\r\n<経験済職業 22-4,232-4>\r\n<人間時追加特徴 393>\r\n<初期装備0:334>\r\n<スキルタイプ強化 53-15>\r\n<拡張回避率 10%>\r\n<拡張会心率 10%>\r\n<イラスト:ネコまんま>"
Actor 072
 Name "Mini"
 Nickname "Phoenix Girl"
 Notes "<カテゴリー：鳥>\r\n<ナワバリ:228-52-9>\r\n<初期サブクラス 274>\r\n<TP基本値 5>\r\n<TPLv補正 30>\r\n<開始時TP 50%>\r\n<経験値曲線 383>\r\n<スキル変化 3147-3277>\r\n<誘惑時使用スキル:3574>\r\n<経験済職業 92-4,274-4>\r\n<固有習得 1-2694,1-3068,14-3087,22-3069,30-3070>\r\n<人間時追加特徴 393>\r\n<初期装備0:589>\r\n<初期装備2:177>\r\n<初期装備3:3>\r\n<死亡時スキル 3263>\r\n<イラスト:人外モドキ>"
Actor 073
 Name "Hiru"
 Nickname "Leech Girl"
 Notes "<カテゴリー：陸棲種>\r\n<ナワバリ:272-24-22>\r\n<初期サブクラス 293>\r\n<TP基本値 5>\r\n<TPLv補正 30>\r\n<開始時TP 50%>\r\n<経験値曲線 386>\r\n<スキル変化 3147-3280>\r\n<誘惑時使用スキル:3576>\r\n<経験済職業 1-4,293-4>\r\n<固有習得 1-3159,14-3160>\r\n<人間時追加特徴 393>\r\n<初期装備0:49>\r\n<初期装備1:273>\r\n<初期装備2:177>\r\n<初期装備3:104>\r\n<スキル強化 3159-30,3160-30,3161-30>\r\n<ステート割合強化スキル 3159-30,3160-30,3161-30>\r\n<イラスト:瀬戸内>"
Actor 074
 Name "Barbun"
 Nickname "Rabbit Girl"
 Notes "<カテゴリー：魔獣>\r\n<ナワバリ:273-26-21>\r\n<初期サブクラス 232>\r\n<TP基本値 5>\r\n<TPLv補正 30>\r\n<開始時TP 50%>\r\n<経験値曲線 385>\r\n<スキル変化 3147-3280>\r\n<誘惑時使用スキル:3585>\r\n<経験済職業 52-4,92-4,232-4>\r\n<人間時追加特徴 392>\r\n<初期装備0:550>\r\n<初期装備1:273>\r\n<初期装備2:178>\r\n<初期装備3:4>\r\n<スキルタイプ強化 14-30>\r\n<イラスト:ネコまんま>"
Actor 075
 Name "Mary"
 Nickname "Sheep Girl"
 Notes "<カテゴリー：魔獣>\r\n<ナワバリ:273-28-22>\r\n<初期サブクラス 232>\r\n<TP基本値 5>\r\n<TPLv補正 30>\r\n<開始時TP 50%>\r\n<経験値曲線 384>\r\n<スキル変化 3147-3279>\r\n<誘惑時使用スキル:3592>\r\n<経験済職業 22-4,92-4,232-4>\r\n<固有習得 1-3154,1-3350>\r\n<初期アビリティ 3350>\r\n<人間時追加特徴 392>\r\n<初期装備0:591>\r\n<初期装備3:31>\r\n<イラスト:海の山>"
Actor 076
 Name "Sully"
 Nickname "Apoptosis"
 Notes "<カテゴリー：アポトーシス>\r\n<ナワバリ:269-27-9>\r\n<初期サブクラス 301>\r\n<TP基本値 5>\r\n<TPLv補正 30>\r\n<開始時TP 50%>\r\n<経験値曲線 386>\r\n<スキル変化 3147-3278>\r\n<誘惑時使用スキル:3786>\r\n<経験済職業 62-5,72-5,301-4,351-1>\r\n<固有習得 1-2624,20-2625>\r\n<人間時追加特徴 393>\r\n<初期装備0:3>\r\n<初期装備1:274>\r\n<初期装備3:105>\r\n<スキル強化 2624-30,2625-30>\r\n<ステート割合強化スキル 2624-30,2625-30>\r\n<拡張回避率 10%>\r\n<イラスト:xelvy>"
Actor 077
 Name "Jaide"
 Nickname "Apoptosis"
 Notes "<カテゴリー：アポトーシス>\r\n<ナワバリ:276-31-38>\r\n<初期サブクラス 344>\r\n<TP基本値 5>\r\n<TPLv補正 30>\r\n<開始時TP 50%>\r\n<経験値曲線 387>\r\n<スキル変化 3147-3279>\r\n<誘惑時使用スキル:3497>\r\n<経験済職業 110-5,344-4,351-1>\r\n<人間時追加特徴 392>\r\n<初期装備0:403>\r\n<初期装備1:273>\r\n<初期装備2:178>\r\n<初期装備3:123>\r\n<イラスト:xelvy>"
Actor 078
 Name "Shesta"
 Nickname "Apoptosis"
 Notes "<カテゴリー：アポトーシス>\r\n<ナワバリ:275-16-10>\r\n<初期サブクラス 309>\r\n<TP基本値 5>\r\n<TPLv補正 30>\r\n<開始時TP 50%>\r\n<経験値曲線 387>\r\n<スキル変化 3147-3279>\r\n<誘惑時使用スキル:3611>\r\n<経験済職業 33-5,79-4,123-4,309-4,351-1>\r\n<固有習得 1-2854,23-2855>\r\n<人間時追加特徴 395>\r\n<初期装備0:511>\r\n<初期装備2:178>\r\n<初期装備3:105>\r\n<スキル強化 2881-30,2882-30>\r\n<ステート割合強化スキル 2881-30,2882-30>\r\n<TPスキル消費率 2881,50%>\r\n<TPスキル消費率 2882,50%>\r\n<拡張回避率 20%>\r\n<拡張魔法回避率 25%>\r\n<イラスト:xelvy>"
Actor 079
 Name "Nuruko"
 Nickname "Mysterious Being"
 Notes "<カテゴリー：アポトーシス>\r\n<ナワバリ:228-48-25>\r\n<初期サブクラス 265>\r\n<TP基本値 5>\r\n<TPLv補正 30>\r\n<開始時TP 50%>\r\n<経験値曲線 383>\r\n<スキル変化 3147-3280>\r\n<誘惑時使用スキル:3614>\r\n<経験済職業 265-4,351-1>\r\n<人間時追加特徴 392>\r\n<初期装備0:3>\r\n<初期装備2:179>\r\n<初期装備3:4>\r\n<無効化障壁 30>\r\n<スキルタイプ強化 55-30>\r\n<イラスト:アレキシ>"
Actor 080
 Name "Hip"
 Nickname "Orc Girl"
 Notes "<カテゴリー：魔獣>\r\n<ナワバリ:270-27-27>\r\n<初期サブクラス 232>\r\n<TP基本値 5>\r\n<TPLv補正 30>\r\n<開始時TP 50%>\r\n<経験値曲線 384>\r\n<スキル変化 3147-3280>\r\n<誘惑時使用スキル:3622>\r\n<経験済職業 1-5,72-5,232-4>\r\n<固有習得 1-1126>\r\n<人間時追加特徴 392>\r\n<初期装備0:403>\r\n<初期装備1:282>\r\n<初期装備2:194>\r\n<初期装備3:55>\r\n<市街地形強化>\r\n<イラスト:すがもん>"
Actor 081
 Name "Honey"
 Nickname "Bee Girl"
 Notes "<カテゴリー：虫>\r\n<ナワバリ:227-28-9>\r\n<初期サブクラス 309>\r\n<TP基本値 5>\r\n<TPLv補正 30>\r\n<開始時TP 50%>\r\n<経験値曲線 385>\r\n<スキル変化 3147-3280>\r\n<誘惑時使用スキル:3627>\r\n<経験済職業 22-5,123-5,309-4>\r\n<人間時追加特徴 393>\r\n<初期装備0:292>\r\n<初期装備2:179>\r\n<初期装備3:105>\r\n<スキル強化 2850-30,2851-30,2852-30,2853-30>\r\n<ステート割合強化スキル 2850-30,2851-30,2852-30,2853-30>\r\n<TPスキル消費率 2850,50%>\r\n<TPスキル消費率 2851,50%>\r\n<TPスキル消費率 2852,50%>\r\n<TPスキル消費率 2853,50%>\r\n<イラスト:瀬戸内>"
Actor 082
 Name "Chirp"
 Nickname "Sparrow Girl"
 Notes "<カテゴリー：鳥>\r\n<ナワバリ:230-28-9>\r\n<初期サブクラス 274>\r\n<TP基本値 5>\r\n<TPLv補正 30>\r\n<開始時TP 50%>\r\n<経験値曲線 383>\r\n<スキル変化 3147-3278>\r\n<誘惑時使用スキル:3574>\r\n<経験済職業 62-4,92-6,120-6,274-4>\r\n<固有習得 1-2067>\r\n<人間時追加特徴 393>\r\n<初期装備0:661>\r\n<初期装備2:179>\r\n<初期装備3:4>\r\n<イラスト:ネコまんま>"
Actor 083
 Name "Reina"
 Nickname "Harpy"
 Notes "<カテゴリー：鳥>\r\n<ナワバリ:230-26-10>\r\n<初期サブクラス 274>\r\n<TP基本値 5>\r\n<TPLv補正 30>\r\n<開始時TP 50%>\r\n<経験値曲線 384>\r\n<スキル変化 3147-3279>\r\n<誘惑時使用スキル:3636>\r\n<固有習得 1-2056>\r\n<経験済職業 62-5,92-5,274-4>\r\n<人間時追加特徴 393>\r\n<初期装備0:727>\r\n<初期装備2:179>\r\n<初期装備3:4>\r\n<TPタイプ消費率 37,66%>\r\n<ステート割合強化タイプ 37-30>\r\n<イラスト:frfr>"
Actor 084
 Name "Pina & Pii"
 Nickname "Harpy Sisters"
 Notes "<カテゴリー：鳥>\r\n<ナワバリ:230-30-6>\r\n<初期サブクラス 274>\r\n<TP基本値 5>\r\n<TPLv補正 30>\r\n<開始時TP 50%>\r\n<経験値曲線 383>\r\n<スキル変化 3147-3279>\r\n<誘惑時使用スキル:3574>\r\n<経験済職業 92-5,274-4>\r\n<人間時追加特徴 393>\r\n<初期装備0:727>\r\n<初期装備2:179>\r\n<初期装備3:4>\r\n<連続発動タイプ 56-2>\r\n<イラスト:frfr>"
Actor 085
 Name "Elizabeth"
 Nickname "High Slug Girl"
 Notes "<カテゴリー：陸棲種>\r\n<ナワバリ:272-23-17>\r\n<初期サブクラス 293>\r\n<TP基本値 5>\r\n<TPLv補正 30>\r\n<開始時TP 50%>\r\n<経験値曲線 385>\r\n<スキル変化 3147-3280>\r\n<誘惑時使用スキル:3512>\r\n<経験済職業 134-6,293-5>\r\n<固有習得 15-997,22-992>\r\n<人間時追加特徴 392>\r\n<初期装備0:146>\r\n<初期装備1:274>\r\n<初期装備2:179>\r\n<初期装備3:105>\r\n<イラスト:UN_DO>"
Actor 086
 Name "Rosary"
 Nickname "Slug Nun"
 Notes "<カテゴリー：陸棲種>\r\n<ナワバリ:271-16-35>\r\n<初期サブクラス 293>\r\n<TP基本値 5>\r\n<TPLv補正 30>\r\n<開始時TP 50%>\r\n<経験値曲線 385>\r\n<スキル変化 3147-3280>\r\n<誘惑時使用スキル:3661>\r\n<固有習得 1-1477>\r\n<経験済職業 44-6,293-5>\r\n<人間時追加特徴 395>\r\n<初期装備0:476>\r\n<初期装備1:274>\r\n<初期装備2:179>\r\n<初期装備3:124>\r\n<イラスト:いろどり>"
Actor 087
 Name "Melty"
 Nickname "Sluggy Stars"
 Notes "<カテゴリー：陸棲種>\r\n<ナワバリ:272-24-14>\r\n<初期サブクラス 293>\r\n<TP基本値 5>\r\n<TPLv補正 30>\r\n<開始時TP 50%>\r\n<経験値曲線 386>\r\n<スキル変化 3147-3279>\r\n<誘惑時使用スキル:3658>\r\n<固有習得 1-2643>\r\n<経験済職業 1-5,22-6,293-5>\r\n<人間時追加特徴 392>\r\n<初期装備0:293>\r\n<初期装備1:274>\r\n<初期装備2:259>\r\n<初期装備3:32>\r\n<連続発動タイプ 52-2>\r\n<イラスト:D_AM>"
Actor 088
 Name "Pumpkin"
 Nickname "Jack O Lantern"
 Notes "<カテゴリー：妖精>\r\n<ナワバリ:227-15-25>\r\n<初期サブクラス 214>\r\n<TP基本値 5>\r\n<TPLv補正 30>\r\n<開始時TP 50%>\r\n<経験値曲線 382>\r\n<スキル変化 3147-3277>\r\n<誘惑時使用スキル:4140>\r\n<固有習得 1-1536>\r\n<経験済職業 33-6,86-6,214-5>\r\n<人間時追加特徴 395>\r\n<初期装備0:512>\r\n<初期装備2:259>\r\n<初期装備3:124>\r\n<スキルタイプ強化 23-15>\r\n<トリガーステート H,0,20%,34>\r\n<トリガーステート H,0,20%,37>\r\n<トリガーステート H,0,20%,40>\r\n<イラスト:UN_DO>"
Actor 089
 Name "Cindy"
 Nickname "Roper Girl"
 Notes "<カテゴリー：陸棲種>\r\n<ナワバリ:272-47-22>\r\n<初期サブクラス 293>\r\n<TP基本値 5>\r\n<TPLv補正 30>\r\n<開始時TP 50%>\r\n<経験値曲線 384>\r\n<スキル変化 3147-3279>\r\n<誘惑時使用スキル:3614>\r\n<固有習得 1-2775,1-2783,1-2788,19-2776,22-2784,26-2789>\r\n<経験済職業 52-5,92-6,265-5,293-5>\r\n<人間時追加特徴 393>\r\n<初期装備0:592>\r\n<初期装備2:259>\r\n<初期装備3:124>\r\n<スキル強化 2645-30,2646-30,2647-30>\r\n<ステート割合強化スキル 2645-30,2646-30,2647-30>\r\n<イラスト:瀬戸内>"
Actor 090
 Name "Meru Meru"
 Nickname "Meda"
 Notes "<カテゴリー：虫>\r\n<ナワバリ:272-37-32>\r\n<初期サブクラス 309>\r\n<TP基本値 5>\r\n<TPLv補正 30>\r\n<開始時TP 50%>\r\n<経験値曲線 383>\r\n<スキル変化 3147-3279>\r\n<誘惑時使用スキル:3614>\r\n<固有習得 1-2775,1-2783,1-2788,1-2810,1-3159,14-3160,19-2776,22-2784,26-2789>\r\n<経験済職業 72-6,92-6,309-5>\r\n<人間時追加特徴 393>\r\n<初期装備0:52>\r\n<初期装備2:259>\r\n<初期装備3:105>\r\n<洞窟地形強化>\r\n<イラスト:瀬戸内>"
Actor 091
 Name "Chandra"
 Nickname "Candle Girl"
 Notes "<カテゴリー：ゴースト>\r\n<ナワバリ:272-18-35>\r\n<初期サブクラス 336>\r\n<TP基本値 5>\r\n<TPLv補正 30>\r\n<開始時TP 50%>\r\n<経験値曲線 386>\r\n<スキル変化 3147-3279>\r\n<誘惑時使用スキル:3679>\r\n<経験済職業 33-6,86-5,336-5>\r\n<人間時追加特徴 395>\r\n<初期装備0:513>\r\n<初期装備2:236>\r\n<初期装備3:124>\r\n<属性強化 3-30>\r\n<踏みとどまり 30%>\r\n<イラスト:日下部>"
Actor 092
 Name "Eater"
 Nickname "Apoptosis"
 Notes "<カテゴリー：アポトーシス>\r\n<ナワバリ:229-43-15>\r\n<初期サブクラス 319>\r\n<TP基本値 5>\r\n<TPLv補正 30>\r\n<開始時TP 50%>\r\n<経験値曲線 386>\r\n<スキル変化 3147-3279>\r\n<誘惑時使用スキル:3685>\r\n<経験済職業 72-7,319-6,351-1>\r\n<固有習得 1-3165>\r\n<人間時追加特徴 393>\r\n<固有習得 1-3165>\r\n<初期装備0:194>\r\n<初期装備1:274>\r\n<初期装備2:237>\r\n<初期装備3:33>\r\n<ターン終了時発動 3165,50%>\r\n<イラスト:xelvy>"
Actor 093
 Name "Riot"
 Nickname "Apoptosis"
 Notes "<カテゴリー：アポトーシス>\r\n<ナワバリ:270-14-17>\r\n<初期サブクラス 283>\r\n<TP基本値 5>\r\n<TPLv補正 30>\r\n<開始時TP 50%>\r\n<経験値曲線 385>\r\n<スキル変化 3147-3279>\r\n<誘惑時使用スキル:3535>\r\n<固有習得 1-2686,1-2687>\r\n<経験済職業 22-7,232-6,283-6,351-1>\r\n<人間時追加特徴 393>\r\n<初期装備0:294>\r\n<初期装備2:203>\r\n<初期装備3:33>\r\n<スキルタイプ強化 53-30>\r\n<イラスト:xelvy>"
Actor 094
 Name "Luxuru"
 Nickname "Apoptosis"
 Notes "<カテゴリー：アポトーシス>\r\n<ナワバリ:276-31-46>\r\n<初期サブクラス 344>\r\n<TP基本値 5>\r\n<TPLv補正 30>\r\n<開始時TP 50%>\r\n<経験値曲線 387>\r\n<スキル変化 3147-3279>\r\n<誘惑時使用スキル:3496>\r\n<経験済職業 110-7,344-6,351-1>\r\n<人間時追加特徴 392>\r\n<初期装備0:891>\r\n<初期装備1:274>\r\n<初期装備2:259>\r\n<初期装備3:124>\r\n<イラスト:デルフィナス>"
Actor 095
 Name "Lona"
 Nickname "Dark Elf"
 Notes "<カテゴリー：エルフ>\r\n<ナワバリ:270-15-13>\r\n<初期サブクラス 203>\r\n<TP基本値 5>\r\n<TPLv補正 30>\r\n<開始時TP 50%>\r\n<経験値曲線 385>\r\n<スキル変化 3147-3279>\r\n<誘惑時使用スキル:3706>\r\n<経験済職業 1-7,52-5,203-6>\r\n<人間時追加特徴 391>\r\n<初期装備0:56>\r\n<初期装備2:259>\r\n<初期装備3:5>\r\n<トリガーステート H,0,75%,40>\r\n<トリガーステート H,3,75%,40>\r\n<イラスト:鰯の頭>"
Actor 096
 Name "Marion"
 Nickname "Dark Elf"
 Notes "<カテゴリー：エルフ>\r\n<ナワバリ:270-14-9>\r\n<初期サブクラス 203>\r\n<TP基本値 5>\r\n<TPLv補正 30>\r\n<開始時TP 50%>\r\n<経験値曲線 386>\r\n<スキル変化 3147-3279>\r\n<誘惑時使用スキル:3614>\r\n<固有習得 1-1536,1-2775,1-2783,1-2788,1-2799,19-2776,22-2784,26-2789>\r\n<経験済職業 33-7,52-5,203-6>\r\n<人間時追加特徴 394>\r\n<初期装備0:515>\r\n<初期装備2:259>\r\n<初期装備3:125>\r\n<属性強化 4-30>\r\n<スキルタイプ強化 55-15>\r\n<イラスト:デルフィナス>"
Actor 097
 Name "Fell"
 Nickname "Fairy"
 Notes "<カテゴリー：妖精>\r\n<ナワバリ:227-22-24>\r\n<初期サブクラス 214>\r\n<TP基本値 5>\r\n<TPLv補正 30>\r\n<開始時TP 50%>\r\n<経験値曲線 381>\r\n<スキル変化 3147-3277>\r\n<誘惑時使用スキル:3716>\r\n<経験済職業 33-7,92-7,214-6>\r\n<人間時追加特徴 395>\r\n<初期装備0:729>\r\n<初期装備2:259>\r\n<初期装備3:124>\r\n<スキルタイプ強化 61-30>\r\n<イラスト:デルフィナス>"
Actor 098
 Name "Amy"
 Nickname "Mini Crab Girl"
 Notes "<カテゴリー：海棲種>\r\n<ナワバリ:269-24-6>\r\n<初期サブクラス 301>\r\n<TP基本値 5>\r\n<TPLv補正 30>\r\n<開始時TP 50%>\r\n<経験値曲線 382>\r\n<スキル変化 3147-3278>\r\n<誘惑時使用スキル:3719>\r\n<経験済職業 86-6,92-7,301-6>\r\n<固有習得 1-2624,14-3156,20-3157>\r\n<人間時追加特徴 393>\r\n<初期装備0:824>\r\n<初期装備1:274>\r\n<初期装備2:259>\r\n<初期装備3:106>\r\n<スキル強化 2624-30,2625-30>\r\n<ステート割合強化スキル 2624-30,2625-30>\r\n<TPスキル消費率 2624,50%>\r\n<TPスキル消費率 2625,50%>\r\n<イラスト:kupala>"
Actor 099
 Name "Gigi"
 Nickname "Catfish Girl"
 Notes "<カテゴリー：人魚>\r\n<ナワバリ:269-24-12>\r\n<初期サブクラス 194>\r\n<TP基本値 5>\r\n<TPLv補正 30>\r\n<開始時TP 50%>\r\n<経験値曲線 385>\r\n<スキル変化 3147-3279>\r\n<誘惑時使用スキル:3511>\r\n<経験済職業 22-7,79-6,120-6,194-6>\r\n<固有習得 1-2612,1-3043>\r\n<人間時追加特徴 395>\r\n<初期装備0:294>\r\n<初期装備1:274>\r\n<初期装備2:182>\r\n<初期装備3:33>\r\n<属性強化 5-30,7-30>\r\n<能力値置き換え 61,3,4>\r\n<イラスト:海の山>"
Actor 100
 Name "Fleesia"
 Nickname "Rafflesia Girl"
 Notes "<カテゴリー：植物>\r\n<ナワバリ:227-24-7>\r\n<初期サブクラス 319>\r\n<TP基本値 5>\r\n<TPLv補正 30>\r\n<開始時TP 50%>\r\n<経験値曲線 386>\r\n<スキル変化 3147-3279>\r\n<誘惑時使用スキル:3726>\r\n<固有習得 1-2921>\r\n<経験済職業 44-5,120-7,319-6>\r\n<人間時追加特徴 393>\r\n<初期装備0:662>\r\n<初期装備1:274>\r\n<初期装備2:237>\r\n<初期装備3:125>\r\n<ステート割合強化スキル 2921-30,2922-30,2923-30,2924-30,2925-30,2926-30,2927-30>\r\n<戦闘開始時発動 2921,33%>\r\n<イラスト:瀬戸内>"
Actor 101
 Name "Lihitinu"
 Nickname "Centaur"
 Notes "<カテゴリー：魔獣>\r\n<ナワバリ:273-8-8>\r\n<初期サブクラス 232>\r\n<TP基本値 5>\r\n<TPLv補正 30>\r\n<開始時TP 50%>\r\n<経験値曲線 385>\r\n<スキル変化 3147-3279>\r\n<誘惑時使用スキル:3735>\r\n<固有習得 1-1041,1-1042,18-1043>\r\n<経験済職業 1-7,232-6>\r\n<人間時追加特徴 391>\r\n<初期装備0:193>\r\n<初期装備2:259>\r\n<初期装備3:33>\r\n<スキルタイプ強化 10-15>\r\n<イラスト:すがもん>"
Actor 102
 Name "Kitsu"
 Nickname "Two-Tail Silver Kitsune"
 Notes "<カテゴリー：妖狐>\r\n<ナワバリ:228-18-16>\r\n<初期サブクラス 245>\r\n<TP基本値 5>\r\n<TPLv補正 30>\r\n<開始時TP 50%>\r\n<経験値曲線 382>\r\n<スキル変化 3147-3278>\r\n<誘惑時使用スキル:3740>\r\n<固有習得 1-1794>\r\n<経験済職業 33-10,42-1,62-10,65-1,245-6>\r\n<人間時追加特徴 394>\r\n<初期装備0:5>\r\n<初期装備1:5>\r\n<初期装備2:237>\r\n<初期装備3:124>\r\n<拡張会心率 10%>\r\n<スキルタイプ強化 31-30>\r\n<イラスト:人外モドキ>"
Actor 103
 Name "Kamuro"
 Nickname "Two-Tail Geisha Kitsune"
 Notes "<カテゴリー：妖狐>\r\n<ナワバリ:228-19-16>\r\n<初期サブクラス 245>\r\n<TP基本値 5>\r\n<TPLv補正 30>\r\n<開始時TP 50%>\r\n<経験値曲線 382>\r\n<スキル変化 3147-3278>\r\n<誘惑時使用スキル:3740>\r\n<固有習得 1-1734>\r\n<経験済職業 33-10,42-1,62-10,65-1,245-5>\r\n<人間時追加特徴 394>\r\n<初期装備0:513>\r\n<初期装備1:283>\r\n<初期装備2:237>\r\n<初期装備3:125>\r\n<スキルタイプ強化 29-30>\r\n<イラスト:人外モドキ>"
Actor 104
 Name "Rachnee"
 Nickname "Spider Girl"
 Notes "<カテゴリー：虫>\r\n<ナワバリ:272-20-37>\r\n<初期サブクラス 309>\r\n<TP基本値 5>\r\n<TPLv補正 30>\r\n<開始時TP 50%>\r\n<経験値曲線 384>\r\n<スキル変化 3147-3278>\r\n<誘惑時使用スキル:3748>\r\n<経験済職業 33-10,38-2,309-10,314-2>\r\n<人間時追加特徴 391>\r\n<初期装備0:518>\r\n<初期装備2:183>\r\n<初期装備3:106>\r\n<ステート割合強化タイプ 24-15>\r\n<TPスキル消費率 2867,50%>\r\n<TPスキル消費率 2868,50%>\r\n<TPスキル消費率 2869,50%>\r\n<イラスト:UN_DO>"
Actor 105
 Name "Minelli"
 Nickname "Mimic"
 Notes "<カテゴリー：ゴースト>\r\n<ナワバリ:272-11-29>\r\n<初期サブクラス 341>\r\n<TP基本値 5>\r\n<TPLv補正 30>\r\n<開始時TP 50%>\r\n<経験値曲線 387>\r\n<スキル変化 3147-3278>\r\n<誘惑時使用スキル:3655>\r\n<経験済職業 33-10,34-2,336-10,341-3>\r\n<人間時追加特徴 395>\r\n<初期装備0:519>\r\n<初期装備2:237>\r\n<初期装備3:127>\r\n<スキル強化 2645-30,2646-30,2647-30>\r\n<ステート割合強化スキル 2645-30,2646-30,2647-30,2969-30>\r\n<イラスト:瀬戸内>"
Actor 106
 Name "Nanabi"
 Nickname "Seven-Tail Kitsune"
 Notes "<カテゴリー：妖狐>\r\n<ナワバリ:270-26-10>\r\n<初期サブクラス 248>\r\n<TP基本値 5>\r\n<TPLv補正 30>\r\n<開始時TP 50%>\r\n<経験値曲線 388>\r\n<スキル変化 3147-3280>\r\n<誘惑時使用スキル:3755>\r\n<固有習得 1-2561,1-2706>\r\n<経験済職業 33-10,42-10,62-10,65-10,232-10,235-2,245-10,246-10,248-10>\r\n<人間時追加特徴 394>\r\n<初期装備0:450>\r\n<初期装備2:264>\r\n<初期装備3:40>\r\n<スキルタイプ強化 29-30,53-30>\r\n<トリガーステート H,0,50%,38>\r\n<イラスト:瀬戸内>"
Actor 107
 Name "Yume"
 Nickname "Sea Cucumber Girl"
 Notes "<カテゴリー：海棲種>\r\n<ナワバリ:269-18-17>\r\n<初期サブクラス 301>\r\n<TP基本値 5>\r\n<TPLv補正 30>\r\n<開始時TP 50%>\r\n<経験値曲線 385>\r\n<スキル変化 3147-3279>\r\n<誘惑時使用スキル:3495>\r\n<固有習得 1-3159,1-3160>\r\n<経験済職業 86-8,92-7,301-7>\r\n<人間時追加特徴 393>\r\n<初期装備0:823>\r\n<初期装備1:274>\r\n<初期装備2:260>\r\n<初期装備3:129>\r\n<スキル強化 3159-30,3160-30,3161-30>\r\n<ステート割合強化スキル 3159-30,3160-30,3161-30>\r\n<イラスト:瀬戸内>"
Actor 108
 Name "Shelly"
 Nickname "Shellfish Girl"
 Notes "<カテゴリー：海棲種>\r\n<ナワバリ:269-16-15>\r\n<初期サブクラス 301>\r\n<TP基本値 5>\r\n<TPLv補正 30>\r\n<開始時TP 50%>\r\n<経験値曲線 385>\r\n<スキル変化 3147-3279>\r\n<誘惑時使用スキル:3778>\r\n<経験済職業 123-8,129-7,301-7>\r\n<固有習得 1-566,25-567>\r\n<人間時追加特徴 393>\r\n<初期装備0:756>\r\n<初期装備1:274>\r\n<初期装備2:260>\r\n<初期装備3:35>\r\n<TPタイプ消費率 46,66%>\r\n<イラスト:瀬戸内>"
Actor 109
 Name "Soapy"
 Nickname "Crab Girl"
 Notes "<カテゴリー：海棲種>\r\n<ナワバリ:269-25-5>\r\n<初期サブクラス 301>\r\n<TP基本値 5>\r\n<TPLv補正 30>\r\n<開始時TP 50%>\r\n<経験値曲線 381>\r\n<スキル変化 3147-3279>\r\n<誘惑時使用スキル:3786>\r\n<経験済職業 92-7,129-8,301-7>\r\n<固有習得 1-2624,1-2625,1-3156,20-3157>\r\n<人間時追加特徴 393>\r\n<初期装備0:846>\r\n<初期装備1:274>\r\n<初期装備2:260>\r\n<初期装備3:107>\r\n<スキル強化 2624-50,2625-50>\r\n<ステート割合強化スキル 2624-50,2625-50>\r\n<TPスキル消費率 2624,66%>\r\n<TPスキル消費率 2625,66%>\r\n<イラスト:瀬戸内>"
Actor 110
 Name "Beth"
 Nickname "Slime Bess"
 Notes "<カテゴリー：スライム>\r\n<ナワバリ:272-35-28>\r\n<初期サブクラス 223>\r\n<TP基本値 5>\r\n<TPLv補正 30>\r\n<開始時TP 50%>\r\n<経験値曲線 382>\r\n<スキル変化 3147-3280>\r\n<誘惑時使用スキル:3793>\r\n<経験済職業 62-9,223-7>\r\n<人間時追加特徴 393>\r\n<初期装備0:661>\r\n<初期装備2:261>\r\n<初期装備3:107>\r\n<スキルタイプ強化 52-30>\r\n<イラスト:frfr>"
Actor 111
 Name "Melon"
 Nickname "Watermelon Girl"
 Notes "<カテゴリー：植物>\r\n<ナワバリ:227-32-23>\r\n<初期サブクラス 319>\r\n<TP基本値 5>\r\n<TPLv補正 30>\r\n<開始時TP 50%>\r\n<経験値曲線 384>\r\n<スキル変化 3147-3278>\r\n<誘惑時使用スキル:3800>\r\n<固有習得 1-2922>\r\n<経験済職業 33-9,86-6,319-7>\r\n<人間時追加特徴 393>\r\n<初期装備0:518>\r\n<初期装備1:274>\r\n<初期装備2:239>\r\n<初期装備3:129>\r\n<スキル強化 2934-50,2935-50,2938-50>\r\n<イラスト:日下部>"
Actor 112
 Name "Kazura"
 Nickname "Pitcher Plant Girl"
 Notes "<カテゴリー：植物>\r\n<ナワバリ:227-14-8>\r\n<初期サブクラス 324>\r\n<TP基本値 5>\r\n<TPLv補正 30>\r\n<開始時TP 50%>\r\n<経験値曲線 384>\r\n<スキル変化 3147-3279>\r\n<誘惑時使用スキル:3685>\r\n<経験済職業 52-9,319-10,324-3>\r\n<人間時追加特徴 395>\r\n<初期装備0:556>\r\n<初期装備1:274>\r\n<初期装備2:183>\r\n<初期装備3:21>\r\n<スキル強化 2645-30,2646-30,2647-30>\r\n<ステート割合強化スキル 2645-30,2646-30,2647-30>\r\n<イラスト:ネコまんま>"
Actor 113
 Name "Anastasia"
 Nickname "Lamia"
 Notes "<カテゴリー：ラミア>\r\n<ナワバリ:229-44-23>\r\n<初期サブクラス 254>\r\n<TP基本値 5>\r\n<TPLv補正 30>\r\n<開始時TP 50%>\r\n<経験値曲線 385>\r\n<スキル変化 3147-3279>\r\n<誘惑時使用スキル:3802>\r\n<経験済職業 1-9,33-6,254-7>\r\n<人間時追加特徴 391>\r\n<初期装備0:702>\r\n<初期装備1:283>\r\n<初期装備2:195>\r\n<初期装備3:35>\r\n<スキルタイプ強化 54-15>\r\n<TPタイプ消費率 17,66%>\r\n<TPタイプ消費率 54,66%>\r\n<イラスト:frfr>"
Actor 114
 Name "Wakame"
 Nickname "Seaweed Girl"
 Notes "<カテゴリー：植物>\r\n<ナワバリ:269-15-13>\r\n<初期サブクラス 319>\r\n<TP基本値 5>\r\n<TPLv補正 30>\r\n<開始時TP 50%>\r\n<経験値曲線 384>\r\n<スキル変化 3147-3278>\r\n<誘惑時使用スキル:3814>\r\n<経験済職業 92-10,93-2,319-7>\r\n<固有習得 1-2066,1-2602,30-2603>\r\n<人間時追加特徴 393>\r\n<初期装備0:730>\r\n<初期装備1:274>\r\n<初期装備2:183>\r\n<初期装備3:21>\r\n<ステート割合強化タイプ 37-30>\r\n<イラスト:日下部>"
Actor 115
 Name "Kurage"
 Nickname "Jellyfish Girl"
 Notes "<カテゴリー：海棲種>\r\n<ナワバリ:269-22-16>\r\n<初期サブクラス 301>\r\n<TP基本値 5>\r\n<TPLv補正 30>\r\n<開始時TP 50%>\r\n<経験値曲線 384>\r\n<スキル変化 3147-3279>\r\n<誘惑時使用スキル:3614>\r\n<固有習得 1-2618,1-2810>\r\n<経験済職業 1-8,62-6,301-7>\r\n<人間時追加特徴 393>\r\n<初期装備0:408>\r\n<初期装備1:274>\r\n<初期装備2:261>\r\n<初期装備3:35>\r\n<拡張回避率 10%>\r\n<スキル強化 2810-30,2811-30,2812-30,2813-30,2814-30>\r\n<ステート割合強化スキル 2810-30,2811-30,2812-30,2813-30,2814-30>\r\n<イラスト:瀬戸内>"
Actor 116
 Name "Isabelle"
 Nickname "Sea Anemone Girl"
 Notes "<カテゴリー：海棲種>\r\n<ナワバリ:269-12-16>\r\n<初期サブクラス 301>\r\n<TP基本値 5>\r\n<TPLv補正 30>\r\n<開始時TP 50%>\r\n<経験値曲線 386>\r\n<スキル変化 3147-3279>\r\n<誘惑時使用スキル:3614>\r\n<経験済職業 22-6,33-8,301-7>\r\n<固有習得 1-2810,1-3159,1-3160>\r\n<人間時追加特徴 393>\r\n<初期装備0:518>\r\n<初期装備1:274>\r\n<初期装備2:261>\r\n<初期装備3:130>\r\n<スキル強化 2810-30,2811-30,2812-30,2813-30,2814-30>\r\n<ステート割合強化スキル 2810-30,2811-30,2812-30,2813-30,2814-30>\r\n<連続発動タイプ 55-2>\r\n<イラスト:瀬戸内>"
Actor 117
 Name "Anko"
 Nickname "Anglerfish Girl"
 Notes "<カテゴリー：人魚>\r\n<ナワバリ:126-9-16>\r\n<初期サブクラス 194>\r\n<TP基本値 5>\r\n<TPLv補正 30>\r\n<開始時TP 50%>\r\n<経験値曲線 387>\r\n<スキル変化 3147-3279>\r\n<誘惑時使用スキル:3494>\r\n<経験済職業 22-8,194-7>\r\n<固有習得 1-3169>\r\n<人間時追加特徴 393>\r\n<初期装備0:299>\r\n<初期装備1:274>\r\n<初期装備2:261>\r\n<初期装備3:35>\r\n<イラスト:瀬戸内>"
Actor 118
 Name "Meia"
 Nickname "Mermaid"
 Notes "<カテゴリー：人魚>\r\n<ナワバリ:269-30-13>\r\n<初期サブクラス 194>\r\n<TP基本値 5>\r\n<TPLv補正 30>\r\n<開始時TP 50%>\r\n<経験値曲線 384>\r\n<スキル変化 3147-3279>\r\n<誘惑時使用スキル:3843>\r\n<経験済職業 33-8,44-8,92-10,95-2,194-7>\r\n<人間時追加特徴 395>\r\n<初期装備0:628>\r\n<初期装備1:274>\r\n<初期装備2:240>\r\n<初期装備3:126>\r\n<スキルタイプ強化 22-15,38-15,51-15>\r\n<イラスト:鰯の頭>"
Actor 119
 Name "Annie"
 Nickname "Page 17"
 Notes "<カテゴリー：ゴースト>\r\n<ナワバリ:276-19-32>\r\n<初期サブクラス 339>\r\n<TP基本値 5>\r\n<TPLv補正 30>\r\n<開始時TP 50%>\r\n<経験値曲線 382>\r\n<スキル変化 3147-3279>\r\n<誘惑時使用スキル:3846>\r\n<経験済職業 33-10,103-10,108-2,336-10,339-1>\r\n<人間時追加特徴 395>\r\n<初期装備0:519>\r\n<初期装備2:239>\r\n<初期装備3:126>\r\n<消費アイテム節約 109-50>\r\n<拡張回避率 20%>\r\n<拡張魔法回避率 25%>\r\n<イラスト:瀬戸内>"
Actor 120
 Name "Yoko"
 Nickname "Page 257"
 Notes "<カテゴリー：ゴースト>\r\n<ナワバリ:276-18-32>\r\n<初期サブクラス 339>\r\n<TP基本値 5>\r\n<TPLv補正 30>\r\n<開始時TP 50%>\r\n<経験値曲線 383>\r\n<スキル変化 3147-3278>\r\n<誘惑時使用スキル:4140>\r\n<経験済職業 22-10,44-5,103-10,108-3,336-10,339-1>\r\n<人間時追加特徴 395>\r\n<初期装備0:481>\r\n<初期装備2:239>\r\n<初期装備3:126>\r\n<消費アイテム節約 109-50>\r\n<イラスト:瀬戸内>"
Actor 121
 Name "Cornelia"
 Nickname "Page 65537"
 Notes "<カテゴリー：ゴースト>\r\n<ナワバリ:276-22-32>\r\n<初期サブクラス 339>\r\n<TP基本値 5>\r\n<TPLv補正 30>\r\n<開始時TP 50%>\r\n<経験値曲線 388>\r\n<スキル変化 3147-3279>\r\n<誘惑時使用スキル:3614>\r\n<固有習得 1-2775,19-2776,1-2783,1-2788,1-2810,1-3159,1-3160,22-2784,26-2789>\r\n<経験済職業 103-10,108-6,120-10,158-10,265-10,336-10,339-4>\r\n<人間時追加特徴 394>\r\n<初期装備0:870>\r\n<初期装備2:241>\r\n<初期装備3:127>\r\n<スキルタイプ強化 42-30>\r\n<消費アイテム節約 109-50>\r\n<イラスト:瀬戸内>"
Actor 122
 Name "Sofia"
 Nickname "Sister Lamia"
 Notes "<カテゴリー：ラミア>\r\n<ナワバリ:271-25-35>\r\n<初期サブクラス 254>\r\n<TP基本値 5>\r\n<TPLv補正 30>\r\n<開始時TP 50%>\r\n<経験値曲線 386>\r\n<スキル変化 3147-3280>\r\n<誘惑時使用スキル:3869>\r\n<経験済職業 1-7,44-9,254-8>\r\n<人間時追加特徴 391>\r\n<初期装備0:481>\r\n<初期装備1:284>\r\n<初期装備2:262>\r\n<初期装備3:126>\r\n<スキルタイプ強化 22-30>\r\n<イラスト:frfr>"
Actor 123
 Name "Christie"
 Nickname "Succubus Nun"
 Notes "<カテゴリー：淫魔>\r\n<ナワバリ:271-13-35>\r\n<初期サブクラス 175>\r\n<TP基本値 5>\r\n<TPLv補正 30>\r\n<開始時TP 50%>\r\n<経験値曲線 383>\r\n<スキル変化 3147-3279>\r\n<誘惑時使用スキル:3873>\r\n<経験済職業 44-9,92-10,97-3,175-8>\r\n<人間時追加特徴 395>\r\n<初期装備0:481>\r\n<初期装備1:274>\r\n<初期装備2:262>\r\n<初期装備3:126>\r\n<スキルタイプ強化 22-30>\r\n<イラスト:ネコまんま>"
Actor 124
 Name "Kyona"
 Nickname "Anteater Girl"
 Notes "<カテゴリー：魔獣>\r\n<ナワバリ:227-8-8>\r\n<初期サブクラス 232>\r\n<TP基本値 5>\r\n<TPLv補正 30>\r\n<開始時TP 50%>\r\n<経験値曲線 384>\r\n<スキル変化 3147-3280>\r\n<誘惑時使用スキル:3878>\r\n<経験済職業 22-9,62-7,232-8>\r\n<固有習得 1-2571,1-2574,20-2572,25-2575>\r\n<人間時追加特徴 393>\r\n<初期装備0:300>\r\n<初期装備2:261>\r\n<初期装備3:35>\r\n<スキル強化 2571-30,2572-30,2573-30,2574-30,2575-30,2576-30>\r\n<TPスキル消費率 2571,50%>\r\n<TPスキル消費率 2572,50%>\r\n<TPスキル消費率 2573,50%>\r\n<TPスキル消費率 2574,50%>\r\n<TPスキル消費率 2575,50%>\r\n<TPスキル消費率 2576,50%>\r\n<イラスト:瀬戸内>"
Actor 125
 Name "Aisha"
 Nickname "Grizzly Bear Girl"
 Notes "<カテゴリー：魔獣>\r\n<ナワバリ:230-34-16>\r\n<初期サブクラス 233>\r\n<TP基本値 5>\r\n<TPLv補正 30>\r\n<開始時TP 50%>\r\n<経験値曲線 383>\r\n<スキル変化 3147-3279>\r\n<誘惑時使用スキル:3535>\r\n<経験済職業 1-9,22-7,232-10,233-4>\r\n<人間時追加特徴 393>\r\n<初期装備0:409>\r\n<初期装備2:261>\r\n<初期装備3:35>\r\n<拡張会心率 10%>\r\n<スキルタイプ強化 53-30>\r\n<イラスト:すがもん>"
Actor 126
 Name "Robin"
 Nickname "Experiment XX-7"
 Notes "<カテゴリー：ロイド>\r\n<ナワバリ:276-31-28>\r\n<初期サブクラス 344>\r\n<TP基本値 5>\r\n<TPLv補正 30>\r\n<開始時TP 50%>\r\n<経験値曲線 386>\r\n<スキル変化 3147-3279>\r\n<誘惑時使用スキル:3892>\r\n<経験済職業 52-10,56-2,344-8,354-5>\r\n<人間時追加特徴 392>\r\n<初期装備0:892>\r\n<初期装備1:274>\r\n<初期装備2:185>\r\n<初期装備3:7>\r\n<スキル強化 3008-30,3010-30,3013-30,3014-30,3015-30>\r\n<TPスキル消費率 3008,50%>\r\n<TPスキル消費率 3010,50%>\r\n<TPスキル消費率 3013,50%>\r\n<TPスキル消費率 3014,50%>\r\n<TPスキル消費率 3015,50%>\r\n<イラスト:瀬戸内>"
Actor 127
 Name "Lippy"
 Nickname "Little Bug"
 Notes "<カテゴリー：キメラ>\r\n<ナワバリ:227-33-11>\r\n<初期サブクラス 309>\r\n<TP基本値 5>\r\n<TPLv補正 30>\r\n<開始時TP 50%>\r\n<経験値曲線 382>\r\n<スキル変化 3147-3278>\r\n<誘惑時使用スキル:3896>\r\n<固有習得 1-2867>\r\n<経験済職業 1-5,72-9,309-8,354-5>\r\n<人間時追加特徴 393>\r\n<初期装備0:194>\r\n<初期装備2:185>\r\n<初期装備3:108>\r\n<スキル強化 3132-30,3133-30,3134-30,3135-30,3136-30,3137-30,3138-30,3139-30,3140-30,3141-30,3142-30,3143-30>\r\n<TPスキル消費率 3132,50%>\r\n<TPスキル消費率 3133,50%>\r\n<TPスキル消費率 3134,50%>\r\n<TPスキル消費率 3135,50%>\r\n<TPスキル消費率 3136,50%>\r\n<TPスキル消費率 3137,50%>\r\n<TPスキル消費率 3138,50%>\r\n<TPスキル消費率 3139,50%>\r\n<TPスキル消費率 3140,50%>\r\n<TPスキル消費率 3141,50%>\r\n<TPスキル消費率 3142,50%>\r\n<TPスキル消費率 3143,50%>\r\n<イラスト:xelvy>"
Actor 128
 Name "Jillian"
 Nickname "Canceroid"
 Notes "<カテゴリー：ロイド>\r\n<ナワバリ:276-31-42>\r\n<初期サブクラス 359>\r\n<TP基本値 5>\r\n<TPLv補正 30>\r\n<開始時TP 50%>\r\n<経験値曲線 387>\r\n<スキル変化 3147-3279>\r\n<誘惑時使用スキル:3493>\r\n<固有習得 1-3156,1-3159,1-3160,20-3157>\r\n<経験済職業 52-10,56-6,110-10,344-10,354-10,359-2>\r\n<人間時追加特徴 392>\r\n<初期装備0:892>\r\n<初期装備1:284>\r\n<初期装備2:196>\r\n<初期装備3:108>\r\n<スキルタイプ強化 19-15,60-15>\r\n<戦闘開始時発動 1350,25%>\r\n<イラスト:シルク>"
Actor 129
 Name "Hild"
 Nickname "Brynhildr"
 Notes "<カテゴリー：ロイド>\r\n<ナワバリ:228-48-27>\r\n<初期サブクラス 359>\r\n<TP基本値 5>\r\n<TPLv補正 30>\r\n<開始時TP 50%>\r\n<経験値曲線 387>\r\n<スキル変化 3147-3279>\r\n<誘惑時使用スキル:4141>\r\n<経験済職業 52-10,56-3,110-10,111-3,344-10,351-6,354-10,359-6>\r\n<人間時追加特徴 391>\r\n<初期装備0:892>\r\n<初期装備1:286>\r\n<初期装備2:197>\r\n<初期装備3:37>\r\n<スキルタイプ強化 19-30,43-30>\r\n<必要アイテム無視 703,705,706,707,708,709,712,713,714,715,716,717,720>\r\n<イラスト:xelvy>"
Actor 130
 Name "Carrie"
 Nickname "Ghost Girl"
 Notes "<カテゴリー：ゴースト>\r\n<ナワバリ:272-13-32>\r\n<初期サブクラス 336>\r\n<TP基本値 5>\r\n<TPLv補正 30>\r\n<開始時TP 50%>\r\n<経験値曲線 385>\r\n<スキル変化 3147-3280>\r\n<誘惑時使用スキル:3913>\r\n<経験済職業 33-10,34-4,336-8>\r\n<人間時追加特徴 395>\r\n<初期装備0:519>\r\n<初期装備2:241>\r\n<初期装備3:126>\r\n<拡張回避率 25%>\r\n<スキルタイプ強化 59-30>\r\n<イラスト:瀬戸内>"
Actor 131
 Name "Miyabi"
 Nickname "Cursed Doll"
 Notes "<カテゴリー：ドール>\r\n<ナワバリ:275-11-21>\r\n<初期サブクラス 344>\r\n<TP基本値 5>\r\n<TPLv補正 30>\r\n<開始時TP 50%>\r\n<経験値曲線 385>\r\n<スキル変化 3147-3278>\r\n<誘惑時使用スキル:3920>\r\n<経験済職業 92-10,93-4,129-10,344-8>\r\n<人間時追加特徴 393>\r\n<初期装備0:733>\r\n<初期装備1:274>\r\n<初期装備2:261>\r\n<初期装備3:149>\r\n<スキル強化 2578-30,2579-30,2580-30>\r\n<ステート割合強化スキル 2578-30,2579-30,2580-30>\r\n<TPスキル消費率 2578,50%>\r\n<TPスキル消費率 2579,50%>\r\n<TPスキル消費率 2580,50%>\r\n<イラスト:UN_DO>"
Actor 132
 Name "Ellie"
 Nickname "Zombie Swordsman"
 Notes "<カテゴリー：ゾンビ>\r\n<ナワバリ:270-8-11>\r\n<初期サブクラス 328>\r\n<TP基本値 5>\r\n<TPLv補正 30>\r\n<開始時TP 50%>\r\n<経験値曲線 386>\r\n<スキル変化 3147-3279>\r\n<誘惑時使用スキル:3933>\r\n<固有習得 1-931>\r\n<経験済職業 1-10,2-4,328-8>\r\n<人間時追加特徴 391>\r\n<初期装備0:61>\r\n<初期装備2:197>\r\n<初期装備3:60>\r\n<初期アビリティ 742>\r\n<スキルタイプ強化 7-15,59-15>\r\n<戦闘開始時発動 918,50%>\r\n<イラスト:UN_DO>"
Actor 133
 Name "Zombies"
 Nickname "Zombie Girls"
 Notes "<カテゴリー：ゾンビ>\r\n<ナワバリ:272-28-40>\r\n<初期サブクラス 328>\r\n<TP基本値 5>\r\n<TPLv補正 30>\r\n<開始時TP 50%>\r\n<経験値曲線 387>\r\n<スキル変化 3147-3279>\r\n<誘惑時使用スキル:3933>\r\n<経験済職業 1-6,22-10,23-3,328-8>\r\n<人間時追加特徴 392>\r\n<初期装備0:302>\r\n<初期装備2:186>\r\n<初期装備3:7>\r\n<初期アビリティ 742>\r\n<通常攻撃 3>\r\n<連続発動タイプ 59-2>\r\n<イラスト:UN_DO>"
Actor 134
 Name "Chrome"
 Nickname "Necromancer"
 Notes "<カテゴリー：淫魔>\r\n<ナワバリ:277-5-31>\r\n<初期サブクラス 175>\r\n<TP基本値 5>\r\n<TPLv補正 30>\r\n<開始時TP 50%>\r\n<経験値曲線 381>\r\n<スキル変化 3147-3277>\r\n<誘惑時使用スキル:4019>\r\n<経験済職業 103-6,110-10,111-4,113-10,114-5,126-10,175-4>\r\n<固有習得 1-2357,1-2358>\r\n<人間時追加特徴 395>\r\n<初期装備0:522>\r\n<初期装備1:274>\r\n<初期装備2:242>\r\n<初期装備3:128>\r\n<スキルタイプ強化 25-30>\r\n<イラスト:UN_DO>"
Actor 135
 Name "Frederica"
 Nickname "Ultimate Zombie"
 Notes "<カテゴリー：ゾンビ>\r\n<ナワバリ:277-6-31>\r\n<初期サブクラス 328>\r\n<TP基本値 5>\r\n<TPLv補正 30>\r\n<開始時TP 50%>\r\n<経験値曲線 387>\r\n<スキル変化 3147-3281>\r\n<誘惑時使用スキル:3942>\r\n<経験済職業 22-10,23-7,328-9>\r\n<固有習得 1-522>\r\n<人間時追加特徴 391>\r\n<初期装備0:302>\r\n<初期装備2:205>\r\n<初期装備3:72>\r\n<初期アビリティ 522,742>\r\n<反撃強化 100%>\r\n<スキルタイプ強化 21-30,59-30>\r\n<能力値置き換え 21,5,1>\r\n<イラスト:UN_DO>"
Actor 136
 Name "Claudia"
 Nickname "Elf"
 Notes "<カテゴリー：エルフ>\r\n<ナワバリ:227-18-24>\r\n<初期サブクラス 204>\r\n<TP基本値 5>\r\n<TPLv補正 30>\r\n<開始時TP 50%>\r\n<経験値曲線 385>\r\n<スキル変化 3147-3279>\r\n<誘惑時使用スキル:3962>\r\n<経験済職業 52-10,53-5,92-10,97-3,203-10,204-2>\r\n<人間時追加特徴 393>\r\n<初期装備0:558>\r\n<初期装備2:262>\r\n<初期装備3:22>\r\n<スキルタイプ強化 14-30>\r\n<TPタイプ消費率 14,66%>\r\n<イラスト:鰯の頭>"
Actor 137
 Name "Love & Lamb"
 Nickname "Brownies"
 Notes "<カテゴリー：妖精>\r\n<ナワバリ:227-11-25>\r\n<初期サブクラス 217>\r\n<TP基本値 5>\r\n<TPLv補正 30>\r\n<開始時TP 50%>\r\n<経験値曲線 382>\r\n<スキル変化 3147-3278>\r\n<誘惑時使用スキル:3970>\r\n<固有習得 1-1106,1-1126>\r\n<経験済職業 1-10,15-5,110-10,214-10,217-2>\r\n<人間時追加特徴 392>\r\n<初期装備0:369>\r\n<初期装備1:285>\r\n<初期装備2:197>\r\n<初期装備3:22>\r\n<連続発動タイプ 12-2>\r\n<イラスト:海の山>"
Actor 138
 Name "Milly & Liru"
 Nickname "Twin Fairies"
 Notes "<カテゴリー：妖精>\r\n<ナワバリ:227-19-28>\r\n<初期サブクラス 214>\r\n<TP基本値 5>\r\n<TPLv補正 30>\r\n<開始時TP 50%>\r\n<経験値曲線 381>\r\n<スキル変化 3147-3277>\r\n<誘惑時使用スキル:3972>\r\n<経験済職業 44-10,86-9,214-9>\r\n<人間時追加特徴 395>\r\n<初期装備0:826>\r\n<初期装備2:262>\r\n<初期装備3:128>\r\n<連続発動タイプ 36-2>\r\n<イラスト:デルフィナス>"
Actor 139
 Name "Fairies"
 Nickname "Fairies"
 Notes "<カテゴリー：妖精>\r\n<ナワバリ:227-13-28>\r\n<初期サブクラス 214>\r\n<TP基本値 5>\r\n<TPLv補正 30>\r\n<開始時TP 50%>\r\n<経験値曲線 381>\r\n<スキル変化 3147-3278>\r\n<誘惑時使用スキル:3972>\r\n<経験済職業 33-10,44-10,214-9>\r\n<人間時追加特徴 395>\r\n<初期装備0:520>\r\n<初期装備2:262>\r\n<初期装備3:128>\r\n<連続発動タイプ 61-2>\r\n<通常攻撃 3>\r\n<イラスト:UN_DO>"
Actor 140
 Name "Rachura"
 Nickname "Tarantula Girl"
 Notes "<カテゴリー：虫>\r\n<ナワバリ:275-25-11>\r\n<初期サブクラス 314>\r\n<TP基本値 5>\r\n<TPLv補正 30>\r\n<開始時TP 50%>\r\n<経験値曲線 386>\r\n<スキル変化 3147-3280>\r\n<誘惑時使用スキル:3994>\r\n<経験済職業 1-10,15-6,129-8,309-10,314-2>\r\n<人間時追加特徴 393>\r\n<初期装備0:705>\r\n<初期装備2:185>\r\n<初期装備3:37>\r\n<スキル強化 2867-30,2868-30,2869-30>\r\n<ステート割合強化スキル 2867-30,2868-30,2869-30>\r\n<TPスキル消費率 2867,50%>\r\n<TPスキル消費率 2868,50%>\r\n<TPスキル消費率 2869,50%>\r\n<イラスト:瀬戸内>"
Actor 141
 Name "Mina"
 Nickname "Minotauros"
 Notes "<カテゴリー：魔獣>\r\n<ナワバリ:229-46-10>\r\n<初期サブクラス 237>\r\n<TP基本値 5>\r\n<TPLv補正 30>\r\n<開始時TP 50%>\r\n<経験値曲線 386>\r\n<スキル変化 3147-3280>\r\n<誘惑時使用スキル:4005>\r\n<経験済職業 1-10,17-6,232-10,237-2>\r\n<人間時追加特徴 391>\r\n<初期装備0:371>\r\n<初期装備2:262>\r\n<初期装備3:37>\r\n<スキルタイプ強化 11-30>\r\n<イラスト:frfr>"
Actor 142
 Name "Banachi"
 Nickname "Bandersnatch Girl"
 Notes "<カテゴリー：ドール>\r\n<ナワバリ:230-6-29>\r\n<初期サブクラス 344>\r\n<TP基本値 5>\r\n<TPLv補正 30>\r\n<開始時TP 50%>\r\n<経験値曲線 386>\r\n<スキル変化 3147-3280>\r\n<誘惑時使用スキル:3492>\r\n<固有習得 1-522,1-3170>\r\n<経験済職業 22-10,23-6,33-10,344-10,349-2>\r\n<人間時追加特徴 392>\r\n<初期装備0:302>\r\n<初期装備1:274>\r\n<初期装備2:185>\r\n<初期装備3:7>\r\n<初期アビリティ 522>\r\n<スキルタイプ強化 21-30>\r\n<能力値置き換え 21,5,1>\r\n<イラスト:クール教信者>"
Actor 143
 Name "Eva"
 Nickname "Succubus"
 Notes "<カテゴリー：淫魔>\r\n<ナワバリ:229-46-34>\r\n<初期サブクラス 176>\r\n<TP基本値 5>\r\n<TPLv補正 30>\r\n<開始時TP 50%>\r\n<経験値曲線 382>\r\n<スキル変化 3147-3279>\r\n<誘惑時使用スキル:4019>\r\n<固有習得 1-2490,1-3351>\r\n<初期アビリティ 3351>\r\n<経験済職業 62-10,79-4,86-10,87-6,92-10,97-6,120-3,123-2,126-5,129-4,149-10,175-10,176-2>\r\n<人間時追加特徴 395>\r\n<初期装備0:2>\r\n<初期装備1:273>\r\n<初期装備2:176>\r\n<初期装備3:2>\r\n<イラスト:鰯の頭>"
Actor 144
 Name "Sunny"
 Nickname "Sables"
 Notes "<カテゴリー：スキュラ>\r\n<ナワバリ:229-42-18>\r\n<初期サブクラス 265>\r\n<TP基本値 5>\r\n<TPLv補正 30>\r\n<開始時TP 50%>\r\n<経験値曲線 385>\r\n<スキル変化 3147-3279>\r\n<誘惑時使用スキル:3878>\r\n<固有習得 1-2571,1-2574,20-2572,25-2575>\r\n<経験済職業 62-10,79-10,80-4,265-9,309-8>\r\n<人間時追加特徴 393>\r\n<初期装備0:779>\r\n<初期装備2:185>\r\n<初期装備3:37>\r\n<スキル強化 2571-30,2572-30,2573-30,2574-30,2575-30,2576-30>\r\n<TPスキル消費率 2571,50%>\r\n<TPスキル消費率 2572,50%>\r\n<TPスキル消費率 2573,50%>\r\n<TPスキル消費率 2574,50%>\r\n<TPスキル消費率 2575,50%>\r\n<TPスキル消費率 2576,50%>\r\n<イラスト:すがもん>"
Actor 145
 Name "Vanessa"
 Nickname "Centipede Girl"
 Notes "<カテゴリー：虫>\r\n<ナワバリ:272-21-25>\r\n<初期サブクラス 310>\r\n<TP基本値 5>\r\n<TPLv補正 30>\r\n<開始時TP 50%>\r\n<経験値曲線 385>\r\n<スキル変化 3147-3279>\r\n<誘惑時使用スキル:4036>\r\n<経験済職業 1-10,15-6,309-9>\r\n<人間時追加特徴 393>\r\n<初期装備0:705>\r\n<初期装備2:185>\r\n<初期装備3:108>\r\n<スキルタイプ強化 57-15>\r\n<イラスト:瀬戸内>"
Actor 146
 Name "Scarlet"
 Nickname "Scorpion Girl"
 Notes "<カテゴリー：虫>\r\n<ナワバリ:230-15-32>\r\n<初期サブクラス 309>\r\n<TP基本値 5>\r\n<TPLv補正 30>\r\n<開始時TP 50%>\r\n<経験値曲線 386>\r\n<スキル変化 3147-3279>\r\n<誘惑時使用スキル:4043>\r\n<経験済職業 1-10,2-7,72-5,309-9>\r\n<人間時追加特徴 393>\r\n<初期装備0:61>\r\n<初期装備2:185>\r\n<初期装備3:108>\r\n<スキル強化 2850-30,2851-30,2852-30,2853-30>\r\n<ステート割合強化スキル 2850-30,2851-30,2852-30,2853-30>\r\n<イラスト:瀬戸内>"
Actor 147
 Name "Casta"
 Nickname "Cactus Girl"
 Notes "<カテゴリー：植物>\r\n<ナワバリ:230-15-28>\r\n<初期サブクラス 319>\r\n<TP基本値 5>\r\n<TPLv補正 30>\r\n<開始時TP 50%>\r\n<経験値曲線 385>\r\n<スキル変化 3147-3280>\r\n<誘惑時使用スキル:4049>\r\n<経験済職業 52-10,59-7,319-9>\r\n<人間時追加特徴 393>\r\n<初期装備0:597>\r\n<初期装備1:274>\r\n<初期装備2:262>\r\n<初期装備3:22>\r\n<スキル強化 2919-30,2920-30>\r\n<ステート割合強化スキル 2919-30,2920-30>\r\n<TPスキル消費率 2919,50%>\r\n<TPスキル消費率 2920,50%>\r\n<イラスト:瀬戸内>"
Actor 148
 Name "Miu"
 Nickname "Ostrich Girl"
 Notes "<カテゴリー：鳥>\r\n<ナワバリ:230-11-31>\r\n<初期サブクラス 274>\r\n<TP基本値 5>\r\n<TPLv補正 30>\r\n<開始時TP 50%>\r\n<経験値曲線 384>\r\n<スキル変化 3147-3279>\r\n<誘惑時使用スキル:4057>\r\n<経験済職業 22-10,23-7,92-10,93-4,274-9>\r\n<人間時追加特徴 393>\r\n<初期装備0:302>\r\n<初期装備2:185>\r\n<初期装備3:22>\r\n<スキルタイプ強化 21-30>\r\n<能力値置き換え 21,1,5>\r\n<イラスト:ステルス改行>"
Actor 149
 Name "Jeannie"
 Nickname "Lamp Genie"
 Notes "<カテゴリー：妖魔>\r\n<ナワバリ:230-13-24>\r\n<初期サブクラス 158>\r\n<TP基本値 5>\r\n<TPLv補正 30>\r\n<開始時TP 50%>\r\n<経験値曲線 387>\r\n<スキル変化 3147-3280>\r\n<誘惑時使用スキル:4066>\r\n<経験済職業 33-10,34-5,40-3,86-10,158-9>\r\n<人間時追加特徴 395>\r\n<初期装備0:520>\r\n<初期装備1:286>\r\n<初期装備2:262>\r\n<初期装備3:126>\r\n<属性強化 5-30>\r\n<MPタイプ消費率 25,66%>\r\n<イラスト:瀬戸内>"
Actor 150
 Name "Patra"
 Nickname "Mummy Girl"
 Notes "<カテゴリー：ゾンビ>\r\n<ナワバリ:230-8-17>\r\n<初期サブクラス 331>\r\n<TP基本値 5>\r\n<TPLv補正 30>\r\n<開始時TP 50%>\r\n<経験値曲線 387>\r\n<スキル変化 3147-3279>\r\n<誘惑時使用スキル:4079>\r\n<固有習得 1-2957,15-997,22-992>\r\n<経験済職業 33-10,34-7,134-10,328-10,331-2>\r\n<人間時追加特徴 395>\r\n<初期装備0:520>\r\n<初期装備2:242>\r\n<初期装備3:127>\r\n<初期アビリティ 742>\r\n<スキルタイプ強化 8-15,23-15>\r\n<スキル強化 2951-30,2952-30>\r\n<ステート割合強化スキル 2951-30,2952-30>\r\n<イラスト:瀬戸内>"
Actor 151
 Name "Lila"
 Nickname "Cobra Girl"
 Notes "<カテゴリー：ラミア>\r\n<ナワバリ:230-6-17>\r\n<初期サブクラス 254>\r\n<TP基本値 5>\r\n<TPLv補正 30>\r\n<開始時TP 50%>\r\n<経験値曲線 385>\r\n<スキル変化 3147-3279>\r\n<誘惑時使用スキル:4089>\r\n<経験済職業 22-10,23-7,79-10,254-9>\r\n<固有習得 1-2686,1-2687,1-2689,1-2770>\r\n<人間時追加特徴 393>\r\n<初期装備0:304>\r\n<初期装備1:286>\r\n<初期装備2:198>\r\n<初期装備3:38>\r\n<スキル強化 2686-30,2687-30,2688-30,2689-30,2690-30,2691-30,2692-30,2693-30,2770-30>\r\n<ステート割合強化スキル 2686-30,2687-30,2688-30,2689-30,2690-30,2691-30,2692-30,2693-30,2770-30>\r\n<イラスト:瀬戸内>"
Actor 152
 Name "Nefertiti Lamias"
 Nickname "Nefertiti Lamias"
 Notes "<カテゴリー：ラミア>\r\n<ナワバリ:230-7-20>\r\n<初期サブクラス 254>\r\n<TP基本値 5>\r\n<TPLv補正 30>\r\n<開始時TP 50%>\r\n<経験値曲線 385>\r\n<スキル変化 3147-3280>\r\n<誘惑時使用スキル:4099>\r\n<経験済職業 1-10,15-7,120-10,254-9>\r\n<人間時追加特徴 393>\r\n<初期装備0:705>\r\n<初期装備1:286>\r\n<初期装備2:198>\r\n<初期装備3:61>\r\n<通常攻撃 3>\r\n<連続発動タイプ 54-2>\r\n<イラスト:UN_DO>"
Actor 153
 Name "**ダミー"
Actor 154
 Name "Gaa"
 Nickname "Crocodile Girl"
 Notes "<カテゴリー：陸棲種>\r\n<ナワバリ:230-12-16>\r\n<初期サブクラス 293>\r\n<TP基本値 5>\r\n<TPLv補正 30>\r\n<開始時TP 50%>\r\n<経験値曲線 386>\r\n<スキル変化 3147-3279>\r\n<誘惑時使用スキル:4141>\r\n<経験済職業 1-10,15-7,22-6,293-9>\r\n<固有習得 1-2686,1-2687,1-2689,1-3087,1-3165>\r\n<人間時追加特徴 393>\r\n<初期装備0:412>\r\n<初期装備1:274>\r\n<初期装備2:185>\r\n<初期装備3:109>\r\n<スキル強化 2686-30,2687-30,2688-30,2689-30,2690-30,2691-30,2692-30,2693-30>\r\n<ステート割合強化スキル 2686-30,2687-30,2688-30,2689-30,2690-30,2691-30,2692-30,2693-30>\r\n<ターン終了時発動 3165,33%>\r\n<イラスト:海の山>"
Actor 155
 Name "Saki"
 Nickname "Succubus Idol"
 Notes "<カテゴリー：淫魔>\r\n<ナワバリ:273-29-39>\r\n<初期サブクラス 176>\r\n<TP基本値 5>\r\n<TPLv補正 30>\r\n<開始時TP 50%>\r\n<経験値曲線 382>\r\n<スキル変化 3147-3279>\r\n<誘惑時使用スキル:4136>\r\n<固有習得 1-1437,1-2034,1-2081>\r\n<経験済職業 92-10,93-10,95-10,100-2,175-10,176-4>\r\n<人間時追加特徴 395>\r\n<初期装備0:733>\r\n<初期装備1:274>\r\n<初期装備2:264>\r\n<初期装備3:167>\r\n<ステート割合強化タイプ 37-30,38-30>\r\n<イラスト:UN_DO>"
Actor 156
 Name "Regina"
 Nickname "Devil Fighter"
 Notes "<カテゴリー：妖魔>\r\n<ナワバリ:270-5-22>\r\n<初期サブクラス 159>\r\n<TP基本値 5>\r\n<TPLv補正 30>\r\n<開始時TP 50%>\r\n<経験値曲線 385>\r\n<スキル変化 3147-3278>\r\n<誘惑時使用スキル:4141>\r\n<経験済職業 1-10,2-7,158-10,159-4>\r\n<人間時追加特徴 391>\r\n<初期装備0:91>\r\n<初期装備1:302>\r\n<初期装備2:206>\r\n<初期装備3:166>\r\n<スキルタイプ強化 7-15>\r\n<TPタイプ消費率 7,66%>\r\n<イラスト:ネコまんま>"
Actor 157
 Name "Ashidaka"
 Nickname "Large Spider"
 Notes "<カテゴリー：亜人>\r\n<カテゴリー：虫>\r\n<ナワバリ:272-23-44>\r\n<初期サブクラス 314>\r\n<TP基本値 5>\r\n<TPLv補正 30>\r\n<開始時TP 50%>\r\n<経験値曲線 384>\r\n<スキル変化 3147-3279>\r\n<誘惑時使用スキル:3747>\r\n<経験済職業 22-8,33-10,38-7,167-10,309-10,314-4>\r\n<人間時追加特徴 393>\r\n<初期装備0:522>\r\n<初期装備2:187>\r\n<初期装備3:39>\r\n<スキル強化 2867-30,2868-30,2869-30>\r\n<ステート割合強化スキル 2867-30,2868-30,2869-30>\r\n<TPスキル消費率 2867,50%>\r\n<TPスキル消費率 2868,50%>\r\n<TPスキル消費率 2869,50%>\r\n<イラスト:すがもん>"
Actor 158
 Name "Anna"
 Nickname "Suck Vore"
 Notes "<カテゴリー：人間>\r\n<ナワバリ:276-4-5>\r\n<初期サブクラス 155>\r\n<TP基本値 5>\r\n<TPLv補正 30>\r\n<開始時TP 50%>\r\n<経験値曲線 383>\r\n<スキル変化 3147-3277>\r\n<誘惑時使用スキル:4146>\r\n<経験済職業 33-10,34-7,123-7,151-10,155-4>\r\n<人間時追加特徴 395>\r\n<初期装備0:522>\r\n<初期装備1:274>\r\n<初期装備2:243>\r\n<初期装備3:127>\r\n<スキル強化 2799-50,2800-50>\r\n<ステート割合強化スキル 2799-30,2800-30>\r\n<TPスキル消費率 2799,50%>\r\n<TPスキル消費率 2800,50%>\r\n<イラスト:瀬戸内>"
Actor 159
 Name "Maiden"
 Nickname "Iron Maiden"
 Notes "<カテゴリー：ドール>\r\n<ナワバリ:277-9-33>\r\n<初期サブクラス 345>\r\n<TP基本値 5>\r\n<TPLv補正 30>\r\n<開始時TP 50%>\r\n<経験値曲線 386>\r\n<スキル変化 3147-3277>\r\n<誘惑時使用スキル:3491>\r\n<経験済職業 33-10,34-7,344-10,345-4>\r\n<固有習得 1-2549,1-3009>\r\n<人間時追加特徴 395>\r\n<初期装備0:871>\r\n<初期装備1:274>\r\n<初期装備2:187>\r\n<初期装備3:127>\r\n<スキル強化 3009-30>\r\n<ステート割合強化スキル 3009-50>\r\n<戦闘開始時発動 3009,33%>\r\n<イラスト:瀬戸内>"
Actor 160
 Name "Julia"
 Nickname "Worm Villager"
 Notes "<カテゴリー：人間>\r\n<ナワバリ:273-23-32>\r\n<初期サブクラス 155>\r\n<TP基本値 5>\r\n<TPLv補正 30>\r\n<開始時TP 50%>\r\n<経験値曲線 385>\r\n<スキル変化 3147-3279>\r\n<誘惑時使用スキル:4159>\r\n<固有習得 26-2799>\r\n<経験済職業 33-10,40-7,151-10,155-4>\r\n<人間時追加特徴 395>\r\n<初期装備0:522>\r\n<初期装備1:274>\r\n<初期装備2:243>\r\n<初期装備3:127>\r\n<属性強化 4-30>\r\n<スキルタイプ強化 55-15>\r\n<イラスト:瀬戸内>"
Actor 161
 Name "Lemon"
 Nickname "Ustrel"
 Notes "<カテゴリー：スキュラ>\r\n<ナワバリ:229-45-30>\r\n<初期サブクラス 266>\r\n<TP基本値 5>\r\n<TPLv補正 30>\r\n<開始時TP 50%>\r\n<経験値曲線 384>\r\n<スキル変化 3147-3280>\r\n<誘惑時使用スキル:3878>\r\n<固有習得 1-2686,1-2687,1-2691,26-2799>\r\n<経験済職業 103-10,123-10,124-7,265-10,266-4>\r\n<人間時追加特徴 395>\r\n<初期装備0:758>\r\n<初期装備2:187>\r\n<初期装備3:127>\r\n<スキルタイプ強化 44-30>\r\n<イラスト:すがもん>"
Actor 162
 Name "Mitsuko"
 Nickname "Honey Pot"
 Notes "<カテゴリー：ゴースト>\r\n<ナワバリ:276-18-22>\r\n<初期サブクラス 341>\r\n<TP基本値 5>\r\n<TPLv補正 30>\r\n<開始時TP 50%>\r\n<経験値曲線 386>\r\n<スキル変化 3147-3279>\r\n<誘惑時使用スキル:3502>\r\n<経験済職業 33-10,40-7,223-10,265-10,336-10,341-10>\r\n<固有習得 1-2780,1-2784,1-2789>\r\n<人間時追加特徴 395>\r\n<初期装備0:522>\r\n<初期装備2:243>\r\n<初期装備3:127>\r\n<連続発動タイプ 52-2,55-2>\r\n<イラスト:瀬戸内>"
Actor 163
 Name "Lily"
 Nickname "Sorceress"
 Notes "<カテゴリー：人間>\r\n<ナワバリ:277-12-32>\r\n<初期サブクラス 155>\r\n<TP基本値 5>\r\n<TPLv補正 30>\r\n<開始時TP 50%>\r\n<経験値曲線 386>\r\n<スキル変化 3147-3280>\r\n<誘惑時使用スキル:4159>\r\n<経験済職業 33-10,40-5,103-10,104-8,151-10,155-5>\r\n<人間時追加特徴 395>\r\n<初期装備0:872>\r\n<初期装備1:275>\r\n<初期装備2:244>\r\n<初期装備3:133>\r\n<スキルタイプ強化 25-15,40-15,55-15>\r\n<イラスト:瀬戸内>"
Actor 164
 Name "Shizuku"
 Nickname "Oni"
 Notes "<カテゴリー：亜人>\r\n<ナワバリ:273-32-26>\r\n<初期サブクラス 170>\r\n<TP基本値 5>\r\n<TPLv補正 30>\r\n<開始時TP 50%>\r\n<経験値曲線 382>\r\n<スキル変化 3147-3278>\r\n<誘惑時使用スキル:4183>\r\n<経験済職業 1-10,15-7,167-10,170-6>\r\n<人間時追加特徴 392>\r\n<初期装備0:412>\r\n<初期装備1:287>\r\n<初期装備2:199>\r\n<初期装備3:23>\r\n<スキルタイプ強化 12-15>\r\n<イラスト:ネコまんま>"
Actor 165
 Name "Naho"
 Nickname "Fleshlight Girl"
 Notes "<カテゴリー：スライム>\r\n<ナワバリ:276-8-34>\r\n<初期サブクラス 345>\r\n<TP基本値 5>\r\n<TPLv補正 30>\r\n<開始時TP 50%>\r\n<経験値曲線 386>\r\n<スキル変化 3147-3280>\r\n<誘惑時使用スキル:4188>\r\n<経験済職業 92-10,97-7,129-10,223-10,224-7,344-10,345-5>\r\n<人間時追加特徴 395>\r\n<初期装備0:922>\r\n<初期装備1:274>\r\n<初期装備2:187>\r\n<初期装備3:167>\r\n<スキル強化 2460-50,2461-50,2462-50,2463-50,2464-50>\r\n<ステート割合強化スキル 2460-30,2461-30,2462-30,2463-30,2464-30>\r\n<イラスト:kupala>"
Actor 166
 Name "Nabisu"
 Nickname "Naccubus"
 Notes "<カテゴリー：淫魔>\r\n<ナワバリ:275-20-20>\r\n<初期サブクラス 176>\r\n<TP基本値 5>\r\n<TPLv補正 30>\r\n<開始時TP 50%>\r\n<経験値曲線 383>\r\n<スキル変化 3147-3279>\r\n<誘惑時使用スキル:4196>\r\n<経験済職業 126-10,127-7,175-10,176-4>\r\n<人間時追加特徴 395>\r\n<初期装備0:802>\r\n<初期装備1:274>\r\n<初期装備2:187>\r\n<初期装備3:127>\r\n<スキルタイプ強化 45-30>\r\n<イラスト:frfr>"
Actor 167
 Name "Lucia"
 Nickname "Sorceress"
 Notes "<カテゴリー：人間>\r\n<ナワバリ:277-9-39>\r\n<初期サブクラス 155>\r\n<TP基本値 5>\r\n<TPLv補正 30>\r\n<開始時TP 50%>\r\n<経験値曲線 386>\r\n<スキル変化 3147-3280>\r\n<誘惑時使用スキル:4159>\r\n<経験済職業 33-10,40-5,103-10,106-8,151-10,155-5>\r\n<人間時追加特徴 395>\r\n<初期装備0:872>\r\n<初期装備1:275>\r\n<初期装備2:244>\r\n<初期装備3:133>\r\n<スキルタイプ強化 25-15,41-15,55-15>\r\n<イラスト:瀬戸内>"
Actor 168
 Name "Manako"
 Nickname "Dodomeki"
 Notes "<カテゴリー：亜人>\r\n<ナワバリ:273-27-25>\r\n<初期サブクラス 168>\r\n<TP基本値 5>\r\n<TPLv補正 30>\r\n<開始時TP 50%>\r\n<経験値曲線 383>\r\n<スキル変化 3147-3279>\r\n<誘惑時使用スキル:4216>\r\n<経験済職業 52-10,79-10,82-6,158-10,161-6,167-10,168-5>\r\n<固有習得 1-2549,1-2555>\r\n<人間時追加特徴 395>\r\n<初期装備0:672>\r\n<初期装備1:286>\r\n<初期装備2:187>\r\n<初期装備3:39>\r\n<スキル強化 2559-30,2565-30>\r\n<ステート割合強化スキル 2546-30,2547-30,2548-30,2549-30,2550-30,2551-30,2552-30,2553-30,2554-30,2555-30,2556-30,2557-30,2558-30,2559-30,2560-30,2561-30,2562-30,2563-30,2564-30,2565-30,2566-30,2567-30,2568-30>\r\n<戦闘開始時発動 2546,5%>\r\n<戦闘開始時発動 2547,5%>\r\n<戦闘開始時発動 2548,5%>\r\n<戦闘開始時発動 2549,5%>\r\n<戦闘開始時発動 2550,5%>\r\n<戦闘開始時発動 2551,5%>\r\n<戦闘開始時発動 2557,5%>\r\n<イラスト:すがもん>"
Actor 169
 Name "Liru"
 Nickname "Lizard Thief"
 Notes "<カテゴリー：竜>\r\n<ナワバリ:272-18-6>\r\n<初期サブクラス 284>\r\n<TP基本値 5>\r\n<TPLv補正 30>\r\n<開始時TP 50%>\r\n<経験値曲線 385>\r\n<スキル変化 3147-3279>\r\n<誘惑時使用スキル:4228>\r\n<経験済職業 52-10,62-10,63-8,283-10,284-5>\r\n<人間時追加特徴 392>\r\n<初期装備0:14>\r\n<初期装備1:275>\r\n<初期装備2:187>\r\n<初期装備3:39>\r\n<獲得金額倍率 150%>\r\n<イラスト:ステルス改行>"
Actor 170
 Name "Len"
 Nickname "Lizard Thief"
 Notes "<カテゴリー：竜>\r\n<ナワバリ:272-18-8>\r\n<初期サブクラス 284>\r\n<TP基本値 5>\r\n<TPLv補正 30>\r\n<開始時TP 50%>\r\n<経験値曲線 386>\r\n<スキル変化 3147-3280>\r\n<誘惑時使用スキル:4229>\r\n<経験済職業 1-10,7-5,33-10,62-10,283-10,284-5>\r\n<人間時追加特徴 391>\r\n<初期装備0:61>\r\n<初期装備1:288>\r\n<初期装備2:199>\r\n<初期装備3:62>\r\n<スキルタイプ強化 7-15>\r\n<トリガーステート H,0,50%,165>\r\n<トリガーステート H,3,50%,165>\r\n<イラスト:ステルス改行>"
Actor 171
 Name "Miranda"
 Nickname "Lizard Boss"
 Notes "<カテゴリー：竜>\r\n<ナワバリ:272-18-8>\r\n<初期サブクラス 284>\r\n<TP基本値 5>\r\n<TPLv補正 30>\r\n<開始時TP 50%>\r\n<経験値曲線 386>\r\n<スキル変化 3147-3279>\r\n<誘惑時使用スキル:4228>\r\n<経験済職業 1-10,2-8,7-4,33-10,62-10,63-8,283-10,284-10>\r\n<固有習得 1-941>\r\n<人間時追加特徴 391>\r\n<初期装備0:94>\r\n<初期装備1:304>\r\n<初期装備2:208>\r\n<初期装備3:78>\r\n<スキルタイプ強化 7-15>\r\n<トリガーステート H,0,20%,323>\r\n<トリガーステート H,3,20%,323>\r\n<イラスト:ステルス改行>"
Actor 172
 Name "Mirage"
 Nickname "Mirage Girl"
 Notes "<カテゴリー：ゴースト>\r\n<ナワバリ:230-9-6>\r\n<初期サブクラス 337>\r\n<TP基本値 5>\r\n<TPLv補正 30>\r\n<開始時TP 50%>\r\n<経験値曲線 386>\r\n<スキル変化 3147-3279>\r\n<誘惑時使用スキル:4233>\r\n<経験済職業 44-10,92-10,93-8,97-5,336-10,337-6>\r\n<人間時追加特徴 395>\r\n<初期装備0:735>\r\n<初期装備2:243>\r\n<初期装備3:127>\r\n<拡張回避率 10%>\r\n<拡張魔法回避率 15%>\r\n<砂漠地形強化>\r\n<イラスト:ステルス改行>"
Actor 173
 Name "Helen"
 Nickname "Antlion Girl"
 Notes "<カテゴリー：虫>\r\n<ナワバリ:230-18-6>\r\n<初期サブクラス 310>\r\n<TP基本値 5>\r\n<TPLv補正 30>\r\n<開始時TP 50%>\r\n<経験値曲線 386>\r\n<スキル変化 3147-3280>\r\n<誘惑時使用スキル:3896>\r\n<経験済職業 52-10,53-8,309-10,310-6>\r\n<固有習得 1-3159,1-3160,1-3171>\r\n<人間時追加特徴 393>\r\n<初期装備0:563>\r\n<初期装備2:187>\r\n<初期装備3:110>\r\n<スキルタイプ強化 57-15>\r\n<砂漠地形強化>\r\n<イラスト:瀬戸内>"
Actor 174
 Name "Dahlia"
 Nickname "Sandworm"
 Notes "<カテゴリー：虫>\r\n<ナワバリ:230-18-27>\r\n<初期サブクラス 310>\r\n<TP基本値 5>\r\n<TPLv補正 30>\r\n<開始時TP 50%>\r\n<経験値曲線 387>\r\n<スキル変化 3147-3280>\r\n<誘惑時使用スキル:3490>\r\n<経験済職業 1-10,15-8,309-10,310-6>\r\n<固有習得 1-2990,1-2991,1-2993,1-3158,1-3171,1-3172>\r\n<人間時追加特徴 393>\r\n<初期装備0:705>\r\n<初期装備2:187>\r\n<初期装備3:110>\r\n<スキル強化 2990-30,2991-30,2992-30,2993-30>\r\n<ステート割合強化スキル 2990-30,2991-30,2992-30,2993-30>\r\n<TPスキル消費率 2990,50%>\r\n<TPスキル消費率 2991,50%>\r\n<TPスキル消費率 2992,50%>\r\n<TPスキル消費率 2993,50%>\r\n<砂漠地形強化>\r\n<イラスト:瀬戸内>"
Actor 175
 Name "Deiji"
 Nickname "Desert Scylla"
 Notes "<カテゴリー：スキュラ>\r\n<ナワバリ:230-12-8>\r\n<初期サブクラス 266>\r\n<TP基本値 5>\r\n<TPLv補正 30>\r\n<開始時TP 50%>\r\n<経験値曲線 386>\r\n<スキル変化 3147-3279>\r\n<誘惑時使用スキル:3614>\r\n<経験済職業 33-10,52-10,59-8,120-10,265-10,266-6>\r\n<固有習得 1-3171>\r\n<人間時追加特徴 393>\r\n<初期装備0:15>\r\n<初期装備2:187>\r\n<初期装備3:23>\r\n<スキルタイプ強化 15-30>\r\n<砂漠地形強化>\r\n<イラスト:xelvy>"
Actor 176
 Name "Vitae"
 Nickname "Apoptosis"
 Notes "<カテゴリー：アポトーシス>\r\n<ナワバリ:276-31-34>\r\n<初期サブクラス 224>\r\n<TP基本値 5>\r\n<TPLv補正 30>\r\n<開始時TP 50%>\r\n<経験値曲線 387>\r\n<スキル変化 3147-3279>\r\n<誘惑時使用スキル:4258>\r\n<経験済職業 62-10,63-8,110-10,111-5,223-10,224-7,344-10,351-4>\r\n<固有習得 1-2651>\r\n<人間時追加特徴 392>\r\n<初期装備0:15>\r\n<初期装備2:264>\r\n<初期装備3:133>\r\n<スキルタイプ強化 52-30>\r\n<属性強化 8-30>\r\n<イラスト:デルフィナス>"
Actor 177
 Name "Vetala"
 Nickname "Apoptosis"
 Notes "<カテゴリー：アポトーシス>\r\n<ナワバリ:276-8-16>\r\n<初期サブクラス 351>\r\n<TP基本値 5>\r\n<TPLv補正 30>\r\n<開始時TP 50%>\r\n<経験値曲線 387>\r\n<スキル変化 3147-3279>\r\n<誘惑時使用スキル:4261>\r\n<固有習得 1-2686,1-2687,1-2691,1-3165,1-3172>\r\n<経験済職業 22-10,23-8,92-10,97-5,158-10,344-10,351-5>\r\n<人間時追加特徴 392>\r\n<初期装備0:307>\r\n<初期装備1:274>\r\n<初期装備2:187>\r\n<初期装備3:7>\r\n<スキル強化 2686-15,2687-15,2688-15,2689-15,2690-15,2691-15,2692-15,2693-15>\r\n<イラスト:xelvy>"
Actor 178
 Name "Valto"
 Nickname "Apoptosis"
 Notes "<カテゴリー：アポトーシス>\r\n<ナワバリ:276-31-32>\r\n<初期サブクラス 359>\r\n<TP基本値 5>\r\n<TPLv補正 30>\r\n<開始時TP 50%>\r\n<経験値曲線 388>\r\n<スキル変化 3147-3279>\r\n<誘惑時使用スキル:3892>\r\n<経験済職業 52-10,56-8,72-10,110-10,111-5,344-10,345-6,351-3,354-10,359-6>\r\n<人間時追加特徴 392>\r\n<初期装備0:897>\r\n<初期装備1:288>\r\n<初期装備2:199>\r\n<初期装備3:40>\r\n<スキルタイプ強化 43-30>\r\n<イラスト:xelvy>"
Actor 179
 Name "Shinifa"
 Nickname "Apoptosis"
 Notes "<カテゴリー：アポトーシス>\r\n<ナワバリ:276-10-16>\r\n<初期サブクラス 329>\r\n<TP基本値 5>\r\n<TPLv補正 30>\r\n<開始時TP 50%>\r\n<経験値曲線 387>\r\n<スキル変化 3147-3279>\r\n<誘惑時使用スキル:4275>\r\n<経験済職業 33-10,38-8,62-10,92-10,95-4,293-10,296-4,328-10,329-6,344-10,351-3>\r\n<固有習得 1-3169>\r\n<人間時追加特徴 393>\r\n<初期装備0:524>\r\n<初期装備2:208>\r\n<初期装備3:40>\r\n<初期アビリティ 742>\r\n<拡張回避率 5%>\r\n<拡張会心率 5%>\r\n<拡張魔法回避率 10%>\r\n<ステート割合強化タイプ 38-15>\r\n<イラスト:xelvy>"
Actor 180
 Name "Shadow"
 Nickname "Shadow Girl"
 Notes "<カテゴリー：ゴースト>\r\n<ナワバリ:272-11-36>\r\n<初期サブクラス 337>\r\n<TP基本値 5>\r\n<TPLv補正 30>\r\n<開始時TP 50%>\r\n<経験値曲線 387>\r\n<スキル変化 3147-3279>\r\n<誘惑時使用スキル:4279>\r\n<経験済職業 33-10,34-9,72-10,336-10,337-8>\r\n<人間時追加特徴 395>\r\n<初期装備0:524>\r\n<初期装備2:244>\r\n<初期装備3:133>\r\n<拡張回避率 15%>\r\n<拡張魔法回避率 20%>\r\n<スキルタイプ強化 13-30,23-30>\r\n<イラスト:frfr>"
Actor 181
 Name "Lisa"
 Nickname "Paintgeist"
 Notes "<カテゴリー：ゴースト>\r\n<ナワバリ:276-9-43>\r\n<初期サブクラス 337>\r\n<TP基本値 5>\r\n<TPLv補正 30>\r\n<開始時TP 50%>\r\n<経験値曲線 386>\r\n<スキル変化 3147-3280>\r\n<誘惑時使用スキル:3940>\r\n<経験済職業 33-10,38-10,120-10,121-3,158-10,336-10,337-6>\r\n<固有習得 1-2561,1-2946>\r\n<人間時追加特徴 395>\r\n<初期装備0:674>\r\n<初期装備2:244>\r\n<初期装備3:133>\r\n<ステート割合強化タイプ 39-30>\r\n<イラスト:frfr>"
Actor 182
 Name "Crowley"
 Nickname "Chimera Homonculus"
 Notes "<カテゴリー：キメラ>\r\n<ナワバリ:277-11-36>\r\n<初期サブクラス 355>\r\n<TP基本値 5>\r\n<TPLv補正 30>\r\n<開始時TP 50%>\r\n<経験値曲線 382>\r\n<スキル変化 3147-3280>\r\n<誘惑時使用スキル:4299>\r\n<経験済職業 33-10,34-5,103-10,106-9,151-10,155-6,354-10,355-6>\r\n<人間時追加特徴 395>\r\n<初期装備0:873>\r\n<初期装備1:274>\r\n<初期装備2:187>\r\n<初期装備3:110>\r\n<TPタイプ消費率 41,50%>\r\n<イラスト:瀬戸内>"
Actor 183
 Name "Torture"
 Nickname "Iron Maiden v2"
 Notes "<カテゴリー：ドール>\r\n<ナワバリ:277-10-33>\r\n<初期サブクラス 345>\r\n<TP基本値 5>\r\n<TPLv補正 30>\r\n<開始時TP 50%>\r\n<経験値曲線 386>\r\n<スキル変化 3147-3279>\r\n<誘惑時使用スキル:3491>\r\n<経験済職業 33-10,34-9,126-10,344-10,345-6,354-10>\r\n<固有習得 1-2549,1-3009>\r\n<人間時追加特徴 395>\r\n<初期装備0:524>\r\n<初期装備1:274>\r\n<初期装備2:264>\r\n<初期装備3:133>\r\n<スキル強化 3009-30>\r\n<ステート割合強化スキル 3009-30>\r\n<イラスト:瀬戸内>"
Actor 184
 Name "Francesca"
 Nickname "Junk Doll"
 Notes "<カテゴリー：ドール>\r\n<ナワバリ:276-13-31>\r\n<初期サブクラス 345>\r\n<TP基本値 5>\r\n<TPLv補正 30>\r\n<開始時TP 50%>\r\n<経験値曲線 384>\r\n<スキル変化 3147-3279>\r\n<誘惑時使用スキル:4313>\r\n<経験済職業 33-10,34-5,38-8,129-10,130-9,328-10,344-10,345-10>\r\n<人間時追加特徴 393>\r\n<初期装備0:851>\r\n<初期装備1:274>\r\n<初期装備2:264>\r\n<初期装備3:152>\r\n<連続発動タイプ 60-2>\r\n<通常攻撃 3>\r\n<イラスト:UN_DO>"
Actor 185
 Name "Radio"
 Nickname "Experiment RD-0"
 Notes "<カテゴリー：ロイド>\r\n<ナワバリ:277-7-13>\r\n<初期サブクラス 359>\r\n<TP基本値 5>\r\n<TPLv補正 30>\r\n<開始時TP 50%>\r\n<経験値曲線 385>\r\n<スキル変化 3147-3278>\r\n<誘惑時使用スキル:4141>\r\n<経験済職業 52-10,56-9,110-10,111-5,129-10,130-5,344-10,345-6,354-10,359-2>\r\n<人間時追加特徴 393>\r\n<初期装備0:897>\r\n<初期装備1:288>\r\n<初期装備2:199>\r\n<初期装備3:40>\r\n<スキルタイプ強化 46-30>\r\n<イラスト:xelvy>"
Actor 186
 Name "**ダミー"
Actor 187
 Name "**ダミー"
Actor 188
 Name "**ダミー"
Actor 189
 Name "**ダミー"
Actor 190
 Name "**ダミー"
Actor 191
 Name "**ダミー"
Actor 192
 Name "**ダミー"
Actor 193
 Name "**ダミー"
Actor 194
 Name "**ダミー"
Actor 195
 Name "**ダミー"
Actor 196
 Name "**ダミー"
Actor 197
 Name "**ダミー"
Actor 198
 Name "**ダミー"
Actor 199
 Name "**ダミー"
Actor 200
 Name "**ダミー"
Actor 201
 Name "**ダミー"
Actor 202
 Name "**ダミー"
Actor 203
 Name "**ダミー"
Actor 204
 Name "**ダミー"
Actor 205
 Name "**ダミー"
Actor 206
 Name "**ダミー"
Actor 207
 Name "**ダミー"
Actor 208
 Name "**ダミー"
Actor 209
 Name "**ダミー"
Actor 210
 Name "**ダミー"
Actor 211
 Name "**ダミー"
Actor 212
 Name "**ダミー"
Actor 213
 Name "**ダミー"
Actor 214
 Name "**ダミー"
Actor 215
 Name "**ダミー"
Actor 216
 Name "**ダミー"
Actor 217
 Name "**ダミー"
Actor 218
 Name "**ダミー"
Actor 219
 Name "**ダミー"
Actor 220
 Name "**ダミー"
Actor 221
 Name "**ダミー"
Actor 222
 Name "**ダミー"
Actor 223
 Name "**ダミー"
Actor 224
 Name "**ダミー"
Actor 225
 Name "**ダミー"
Actor 226
 Name "**ダミー"
Actor 227
 Name "**ダミー"
Actor 228
 Name "**ダミー"
Actor 229
 Name "**ダミー"
Actor 230
 Name "**ダミー"
Actor 231
 Name "**ダミー"
Actor 232
 Name "**ダミー"
Actor 233
 Name "**ダミー"
Actor 234
 Name "**ダミー"
Actor 235
 Name "**ダミー"
Actor 236
 Name "**ダミー"
Actor 237
 Name "**ダミー"
Actor 238
 Name "**ダミー"
Actor 239
 Name "**ダミー"
Actor 240
 Name "**ダミー"
Actor 241
 Name "**ダミー"
Actor 242
 Name "**ダミー"
Actor 243
 Name "**ダミー"
Actor 244
 Name "**ダミー"
Actor 245
 Name "**ダミー"
Actor 246
 Name "**ダミー"
Actor 247
 Name "**ダミー"
Actor 248
 Name "**ダミー"
Actor 249
 Name "**ダミー"
Actor 250
 Name "**ダミー"
Actor 251
 Name "**ダミー"
Actor 252
 Name "**ダミー"
Actor 253
 Name "**ダミー"
Actor 254
 Name "**ダミー"
Actor 255
 Name "**ダミー"
Actor 256
 Name "**ダミー"
Actor 257
 Name "**ダミー"
Actor 258
 Name "**ダミー"
Actor 259
 Name "**ダミー"
Actor 260
 Name "**ダミー"
Actor 261
 Name "**ダミー"
Actor 262
 Name "**ダミー"
Actor 263
 Name "**ダミー"
Actor 264
 Name "**ダミー"
Actor 265
 Name "**ダミー"
Actor 266
 Name "**ダミー"
Actor 267
 Name "**ダミー"
Actor 268
 Name "**ダミー"
Actor 269
 Name "**ダミー"
Actor 270
 Name "**ダミー"
Actor 271
 Name "**ダミー"
Actor 272
 Name "**ダミー"
Actor 273
 Name "**ダミー"
Actor 274
 Name "**ダミー"
Actor 275
 Name "**ダミー"
Actor 276
 Name "**ダミー"
Actor 277
 Name "**ダミー"
Actor 278
 Name "**ダミー"
Actor 279
 Name "**ダミー"
Actor 280
 Name "**ダミー"
Actor 281
 Name "**ダミー"
Actor 282
 Name "**ダミー"
Actor 283
 Name "**ダミー"
Actor 284
 Name "**ダミー"
Actor 285
 Name "**ダミー"
Actor 286
 Name "**ダミー"
Actor 287
 Name "**ダミー"
Actor 288
 Name "**ダミー"
Actor 289
 Name "**ダミー"
Actor 290
 Name "**ダミー"
Actor 291
 Name "**ダミー"
Actor 292
 Name "**ダミー"
Actor 293
 Name "**ダミー"
Actor 294
 Name "**ダミー"
Actor 295
 Name "**ダミー"
Actor 296
 Name "**ダミー"
Actor 297
 Name "**ダミー"
Actor 298
 Name "**ダミー"
Actor 299
 Name "**ダミー"
Actor 300
 Name "**ダミー"
Actor 301
 Name "**ダミー"
Actor 302
 Name "**ダミー"
Actor 303
 Name "**ダミー"
Actor 304
 Name "**ダミー"
Actor 305
 Name "**ダミー"
Actor 306
 Name "**ダミー"
Actor 307
 Name "**ダミー"
Actor 308
 Name "**ダミー"
Actor 309
 Name "**ダミー"
Actor 310
 Name "**ダミー"
Actor 311
 Name "**ダミー"
Actor 312
 Name "**ダミー"
Actor 313
 Name "**ダミー"
Actor 314
 Name "**ダミー"
Actor 315
 Name "**ダミー"
Actor 316
 Name "**ダミー"
Actor 317
 Name "**ダミー"
Actor 318
 Name "**ダミー"
Actor 319
 Name "**ダミー"
Actor 320
 Name "**ダミー"
Actor 321
 Name "**ダミー"
Actor 322
 Name "**ダミー"
Actor 323
 Name "**ダミー"
Actor 324
 Name "**ダミー"
Actor 325
 Name "**ダミー"
Actor 326
 Name "**ダミー"
Actor 327
 Name "**ダミー"
Actor 328
 Name "**ダミー"
Actor 329
 Name "**ダミー"
Actor 330
 Name "**ダミー"
Actor 331
 Name "**ダミー"
Actor 332
 Name "**ダミー"
Actor 333
 Name "**ダミー"
Actor 334
 Name "**ダミー"
Actor 335
 Name "**ダミー"
Actor 336
 Name "**ダミー"
Actor 337
 Name "**ダミー"
Actor 338
 Name "**ダミー"
Actor 339
 Name "**ダミー"
Actor 340
 Name "**ダミー"
Actor 341
 Name "**ダミー"
Actor 342
 Name "**ダミー"
Actor 343
 Name "**ダミー"
Actor 344
 Name "**ダミー"
Actor 345
 Name "**ダミー"
Actor 346
 Name "**ダミー"
Actor 347
 Name "**ダミー"
Actor 348
 Name "**ダミー"
Actor 349
 Name "**ダミー"
Actor 350
 Name "**ダミー"
Actor 351
 Name "**ダミー"
Actor 352
 Name "**ダミー"
Actor 353
 Name "**ダミー"
Actor 354
 Name "**ダミー"
Actor 355
 Name "**ダミー"
Actor 356
 Name "**ダミー"
Actor 357
 Name "**ダミー"
Actor 358
 Name "**ダミー"
Actor 359
 Name "**ダミー"
Actor 360
 Name "**ダミー"
Actor 361
 Name "**ダミー"
Actor 362
 Name "**ダミー"
Actor 363
 Name "**ダミー"
Actor 364
 Name "**ダミー"
Actor 365
 Name "**ダミー"
Actor 366
 Name "**ダミー"
Actor 367
 Name "**ダミー"
Actor 368
 Name "**ダミー"
Actor 369
 Name "**ダミー"
Actor 370
 Name "**ダミー"
Actor 371
 Name "**ダミー"
Actor 372
 Name "**ダミー"
Actor 373
 Name "**ダミー"
Actor 374
 Name "**ダミー"
Actor 375
 Name "**ダミー"
Actor 376
 Name "**ダミー"
Actor 377
 Name "**ダミー"
Actor 378
 Name "**ダミー"
Actor 379
 Name "**ダミー"
Actor 380
 Name "**ダミー"
Actor 381
 Name "**ダミー"
Actor 382
 Name "**ダミー"
Actor 383
 Name "**ダミー"
Actor 384
 Name "**ダミー"
Actor 385
 Name "**ダミー"
Actor 386
 Name "**ダミー"
Actor 387
 Name "**ダミー"
Actor 388
 Name "**ダミー"
Actor 389
 Name "**ダミー"
Actor 390
 Name "**ダミー"
Actor 391
 Name "**ダミー"
Actor 392
 Name "**ダミー"
Actor 393
 Name "**ダミー"
Actor 394
 Name "**ダミー"
Actor 395
 Name "**ダミー"
Actor 396
 Name "**ダミー"
Actor 397
 Name "**ダミー"
Actor 398
 Name "**ダミー"
Actor 399
 Name "**ダミー"
Actor 400
 Name "**ダミー"
Actor 401
 Name "**ダミー"
Actor 402
 Name "**ダミー"
Actor 403
 Name "**ダミー"
Actor 404
 Name "**ダミー"
Actor 405
 Name "**ダミー"
Actor 406
 Name "**ダミー"
Actor 407
 Name "**ダミー"
Actor 408
 Name "**ダミー"
Actor 409
 Name "**ダミー"
Actor 410
 Name "**ダミー"
Actor 411
 Name "**ダミー"
Actor 412
 Name "**ダミー"
Actor 413
 Name "**ダミー"
Actor 414
 Name "**ダミー"
Actor 415
 Name "**ダミー"
Actor 416
 Name "**ダミー"
Actor 417
 Name "**ダミー"
Actor 418
 Name "**ダミー"
Actor 419
 Name "**ダミー"
Actor 420
 Name "**ダミー"
Actor 421
 Name "**ダミー"
Actor 422
 Name "**ダミー"
Actor 423
 Name "**ダミー"
Actor 424
 Name "**ダミー"
Actor 425
 Name "**ダミー"
Actor 426
 Name "**ダミー"
Actor 427
 Name "**ダミー"
Actor 428
 Name "**ダミー"
Actor 429
 Name "**ダミー"
Actor 430
 Name "**ダミー"
Actor 431
 Name "**ダミー"
Actor 432
 Name "**ダミー"
Actor 433
 Name "**ダミー"
Actor 434
 Name "**ダミー"
Actor 435
 Name "**ダミー"
Actor 436
 Name "**ダミー"
Actor 437
 Name "**ダミー"
Actor 438
 Name "**ダミー"
Actor 439
 Name "**ダミー"
Actor 440
 Name "**ダミー"
Actor 441
 Name "**ダミー"
Actor 442
 Name "**ダミー"
Actor 443
 Name "**ダミー"
Actor 444
 Name "**ダミー"
Actor 445
 Name "**ダミー"
Actor 446
 Name "**ダミー"
Actor 447
 Name "**ダミー"
Actor 448
 Name "**ダミー"
Actor 449
 Name "**ダミー"
Actor 450
 Name "**ダミー"
Actor 451
 Name "**ダミー"
Actor 452
 Name "**ダミー"
Actor 453
 Name "**ダミー"
Actor 454
 Name "**ダミー"
Actor 455
 Name "**ダミー"
Actor 456
 Name "**ダミー"
Actor 457
 Name "**ダミー"
Actor 458
 Name "**ダミー"
Actor 459
 Name "**ダミー"
Actor 460
 Name "**ダミー"
Actor 461
 Name "**ダミー"
Actor 462
 Name "**ダミー"
Actor 463
 Name "**ダミー"
Actor 464
 Name "**ダミー"
Actor 465
 Name "**ダミー"
Actor 466
 Name "**ダミー"
Actor 467
 Name "**ダミー"
Actor 468
 Name "**ダミー"
Actor 469
 Name "**ダミー"
Actor 470
 Name "**ダミー"
Actor 471
 Name "**ダミー"
Actor 472
 Name "**ダミー"
Actor 473
 Name "**ダミー"
Actor 474
 Name "**ダミー"
Actor 475
 Name "**ダミー"
Actor 476
 Name "**ダミー"
Actor 477
 Name "**ダミー"
Actor 478
 Name "**ダミー"
Actor 479
 Name "**ダミー"
Actor 480
 Name "**ダミー"
Actor 481
 Name "**ダミー"
Actor 482
 Name "**ダミー"
Actor 483
 Name "**ダミー"
Actor 484
 Name "**ダミー"
Actor 485
 Name "**ダミー"
Actor 486
 Name "**ダミー"
Actor 487
 Name "**ダミー"
Actor 488
 Name "**ダミー"
Actor 489
 Name "**ダミー"
Actor 490
 Name "**ダミー"
Actor 491
 Name "**ダミー"
Actor 492
 Name "**ダミー"
Actor 493
 Name "**ダミー"
Actor 494
 Name "**ダミー"
Actor 495
 Name "**ダミー"
Actor 496
 Name "**ダミー"
Actor 497
 Name "**ダミー"
Actor 498
 Name "**ダミー"
Actor 499
 Name "**ダミー"
Actor 500
 Name "**ダミー"
Actor 501
 Name "**ダミー"
Actor 502
 Name "**ダミー"
Actor 503
 Name "**ダミー"
Actor 504
 Name "**ダミー"
Actor 505
 Name "**ダミー"
Actor 506
 Name "**ダミー"
Actor 507
 Name "**ダミー"
Actor 508
 Name "**ダミー"
Actor 509
 Name "**ダミー"
Actor 510
 Name "**ダミー"
Actor 511
 Name "**ダミー"
Actor 512
 Name "**ダミー"
Actor 513
 Name "**ダミー"
Actor 514
 Name "**ダミー"
Actor 515
 Name "**ダミー"
Actor 516
 Name "**ダミー"
Actor 517
 Name "**ダミー"
Actor 518
 Name "**ダミー"
Actor 519
 Name "**ダミー"
Actor 520
 Name "**ダミー"
Actor 521
 Name "**ダミー"
Actor 522
 Name "**ダミー"
Actor 523
 Name "**ダミー"
Actor 524
 Name "**ダミー"
Actor 525
 Name "Sonya"
 Nickname "Temple Priestess"
 Notes "<カテゴリー：メイン>\r\n<カテゴリー：人間>\r\n<ナワバリ:228-49-27>\r\n<初期サブクラス 151>\r\n<TP基本値 5>\r\n<TPLv補正 30>\r\n<開始時TP 50%>\r\n<経験値曲線 385>\r\n<スキル変化 3147-3280>\r\n<誘惑時使用スキル:3487>\r\n<固有習得 1-1137,5-3096,8-1130,15-1125,18-3097,21-1144>\r\n<経験済職業 44-2,151-2>\r\n<人間時追加特徴 394>\r\n<初期装備0:400>\r\n<初期装備3:122>\r\n<主人格>\r\n<通常攻撃強化 12-30>\r\n<スキルタイプ強化 12-30,22-30>\r\n<イラスト:xelvy>"
Actor 526
 Name "**ダミー"
Actor 527
 Name "**ダミー"
Actor 528
 Name "**ダミー"
Actor 529
 Name "Sara"
 Nickname "Princess of Sabasa"
 Notes "<カテゴリー：人間>\r\n<ナワバリ:270-5-7>\r\n<初期サブクラス 151>\r\n<TP基本値 5>\r\n<TPLv補正 30>\r\n<開始時TP 50%>\r\n<経験値曲線 383>\r\n<スキル変化 3147-3279>\r\n<誘惑時使用スキル:3487>\r\n<経験済職業 1-10,2-7,129-10,134-10,151-10>\r\n<人間時追加特徴 392>\r\n<初期装備0:94>\r\n<初期装備1:288>\r\n<初期装備2:197>\r\n<初期装備3:62>\r\n<主人格>\r\n<スキルタイプ強化 7-30,47-30>\r\n<イラスト:えぺ>"
Actor 530
 Name "**ダミー"
Actor 531
 Name "King of San Ilia"
 Nickname "King of San Ilia"
 Notes "<カテゴリー：人間>\r\n<ナワバリ:278-17-13>\r\n<初期サブクラス 151>\r\n<性別:男>\r\n<TP基本値 5>\r\n<TPLv補正 30>\r\n<開始時TP 50%>\r\n<経験値曲線 388>\r\n<スキル変化 3147-3277>\r\n<誘惑時使用スキル:3286>\r\n<経験済職業 44-10,110-10,134-10,138-2,151-7>\r\n<初期アビリティ 278,549,568,708,752>\r\n<人間時追加特徴 398>\r\n<初期装備0:892>\r\n<初期装備1:287>\r\n<初期装備2:241>\r\n<初期装備3:131>\r\n<必要アイテム無視 703,706,708,710,711>\r\n<イラスト:瀬戸内>"
Actor 532
 Name "**ダミー"
Actor 533
 Name "Queen of Grand Noah"
 Nickname "Queen of Grand Noah"
 Notes "<カテゴリー：人間>\r\n<ナワバリ:278-19-11>\r\n<初期サブクラス 151>\r\n<TP基本値 5>\r\n<TPLv補正 30>\r\n<開始時TP 50%>\r\n<経験値曲線 387>\r\n<スキル変化 3147-3279>\r\n<誘惑時使用スキル:3487>\r\n<経験済職業 1-10,52-10,59-10,134-10,135-2,151-10>\r\n<人間時追加特徴 394>\r\n<初期装備0:598>\r\n<初期装備1:277>\r\n<初期装備2:269>\r\n<初期装備3:10>\r\n<スキルタイプ強化 15-30,47-30>\r\n<イラスト:えぺ>"
Actor 534
 Name "**ダミー"
Actor 535
 Name "**ダミー"
Actor 536
 Name "**ダミー"
Actor 537
 Name "**ダミー"
Actor 538
 Name "**ダミー"
Actor 539
 Name "**ダミー"
Actor 540
 Name "Amira"
 Nickname "Unfortunate Lamia"
 Notes "<カテゴリー：その他>\r\n<ナワバリ:228-25-34>\r\n<初期サブクラス 254>\r\n<性別:男>\r\n<TP基本値 5>\r\n<TPLv補正 30>\r\n<開始時TP 50%>\r\n<経験値曲線 381>\r\n<スキル変化 3147-3277>\r\n<誘惑時使用スキル:3290>\r\n<固有習得 1-424>\r\n<経験済職業 120-10,92-6,254-3>\r\n<人間時追加特徴 393>\r\n<初期装備0:661>\r\n<初期装備1:282>\r\n<初期装備2:194>\r\n<初期装備3:31>\r\n<ステート割合強化タイプ 39-50>\r\n<イラスト:frfr>"
Actor 541
 Name "Pyhar"
 Nickname "Unfortunate Harpy"
 Notes "<カテゴリー：その他>\r\n<ナワバリ:227-20-9>\r\n<初期サブクラス 274>\r\n<性別:男>\r\n<TP基本値 5>\r\n<TPLv補正 30>\r\n<開始時TP 50%>\r\n<経験値曲線 381>\r\n<スキル変化 3147-3277>\r\n<誘惑時使用スキル:3288>\r\n<経験済職業 86-8,92-8,274-4>\r\n<人間時追加特徴 393>\r\n<初期装備0:823>\r\n<初期装備2:180>\r\n<初期装備3:163>\r\n<拡張回避率 30%>\r\n<拡張魔法回避率 30%>\r\n<イラスト:frfr>"
Actor 542
 Name "Domaimer"
 Nickname "Unfortunate Mermaid"
 Notes "<カテゴリー：その他>\r\n<ナワバリ:269-18-12>\r\n<初期サブクラス 194>\r\n<性別:男>\r\n<TP基本値 5>\r\n<TPLv補正 30>\r\n<開始時TP 50%>\r\n<経験値曲線 381>\r\n<スキル変化 3147-3277>\r\n<誘惑時使用スキル:3290>\r\n<経験済職業 79-8,194-6>\r\n<固有習得 1-3352>\r\n<初期アビリティ 3352>\r\n<人間時追加特徴 393>\r\n<初期装備0:777>\r\n<初期装備1:273>\r\n<初期装備2:183>\r\n<初期装備3:34>\r\n<イラスト:瀬戸内>"
Actor 543
 Name "**ダミー"
Actor 544
 Name "Marie"
 Nickname "Maid"
 Notes "<カテゴリー：人間>\r\n<ナワバリ:275-14-15>\r\n<初期サブクラス 151>\r\n<TP基本値 5>\r\n<TPLv補正 30>\r\n<開始時TP 50%>\r\n<経験値曲線 387>\r\n<スキル変化 3147-3279>\r\n<誘惑時使用スキル:4064>\r\n<経験済職業 92-10,97-6,129-10,151-7>\r\n<人間時追加特徴 393>\r\n<初期装備0:922>\r\n<初期装備1:274>\r\n<初期装備2:262>\r\n<初期装備3:150>\r\n<イラスト:frfr>"
Actor 545
 Name "Eri"
 Nickname "Iliasburg Citizen"
 Notes "<カテゴリー：人間>\r\n<ナワバリ:275-20-13>\r\n<初期サブクラス 151>\r\n<TP基本値 5>\r\n<TPLv補正 30>\r\n<開始時TP 50%>\r\n<経験値曲線 385>\r\n<スキル変化 3147-3279>\r\n<誘惑時使用スキル:3846>\r\n<経験済職業 79-3,151-3>\r\n<人間時追加特徴 393>\r\n<初期装備0:774>\r\n<初期装備2:177>\r\n<初期装備3:148>\r\n<市街地形強化>\r\n<トリガーステート H,0,20%,46>\r\n<トリガーステート H,3,20%,46>\r\n<イラスト:frfr>"
Actor 546
 Name "Stella"
 Nickname "Bum"
 Notes "<カテゴリー：人間>\r\n<ナワバリ:275-6-10>\r\n<初期サブクラス 151>\r\n<TP基本値 5>\r\n<TPLv補正 30>\r\n<開始時TP 50%>\r\n<経験値曲線 384>\r\n<スキル変化 3147-3279>\r\n<誘惑時使用スキル:3487>\r\n<経験済職業 149-1,151-4>\r\n<人間時追加特徴 393>\r\n<初期装備0:1>\r\n<初期装備3:1>\r\n<ダメージゴールド回収 100%>\r\n<イラスト:ステルス改行>"
Actor 547
 Name "Don Dahlia"
 Nickname "Don Dahlia"
 Notes "<カテゴリー：人間>\r\n<ナワバリ:228-45-28>\r\n<初期サブクラス 151>\r\n<TP基本値 5>\r\n<TPLv補正 30>\r\n<開始時TP 50%>\r\n<経験値曲線 387>\r\n<スキル変化 3147-3280>\r\n<誘惑時使用スキル:4004>\r\n<経験済職業 52-10,56-5,79-10,80-7,1-10,151-9>\r\n<人間時追加特徴 392>\r\n<初期装備0:896>\r\n<初期装備1:275>\r\n<初期装備2:199>\r\n<初期装備3:23>\r\n<スキルタイプ強化 19-30>\r\n<イラスト:frfr>"
Actor 548
 Name "Bunny-Chan"
 Nickname "Bunny"
 Notes "<カテゴリー：人間>\r\n<ナワバリ:273-22-40>\r\n<初期サブクラス 151>\r\n<TP基本値 5>\r\n<TPLv補正 30>\r\n<開始時TP 50%>\r\n<経験値曲線 382>\r\n<スキル変化 3147-3280>\r\n<誘惑時使用スキル:3846>\r\n<経験済職業 92-4,151-4>\r\n<人間時追加特徴 393>\r\n<初期装備0:726>\r\n<初期装備2:259>\r\n<初期装備3:164>\r\n<獲得金額倍率 150%>\r\n<仲間加入倍率 150%>\r\n<イラスト:frfr>"
Actor 549
 Name "Louise"
 Nickname "Thief"
 Notes "<カテゴリー：人間>\r\n<ナワバリ:273-24-27>\r\n<初期サブクラス 151>\r\n<TP基本値 5>\r\n<TPLv補正 30>\r\n<開始時TP 50%>\r\n<経験値曲線 384>\r\n<スキル変化 3147-3278>\r\n<誘惑時使用スキル:3487>\r\n<経験済職業 62-5,151-4>\r\n<人間時追加特徴 393>\r\n<初期装備0:4>\r\n<初期装備1:274>\r\n<初期装備2:179>\r\n<初期装備3:4>\r\n<スティール成功率 150%>\r\n<獲得アイテム倍率 150%>\r\n<イラスト:frfr>"
Actor 550
 Name "Mei-Lin"
 Nickname "Martial Artist"
 Notes "<カテゴリー：人間>\r\n<ナワバリ:270-9-25>\r\n<初期サブクラス 151>\r\n<TP基本値 5>\r\n<TPLv補正 30>\r\n<開始時TP 50%>\r\n<経験値曲線 385>\r\n<スキル変化 3147-3280>\r\n<誘惑時使用スキル:3848>\r\n<経験済職業 22-6,151-5>\r\n<人間時追加特徴 393>\r\n<初期装備0:295>\r\n<初期装備1:274>\r\n<初期装備2:181>\r\n<初期装備3:20>\r\n<トリガーステート H,0,20%,46>\r\n<トリガーステート H,3,20%,46>\r\n<トリガーステート H,0,20%,53>\r\n<トリガーステート H,3,20%,53>\r\n<イラスト:frfr>"
Actor 551
 Name "Kate"
 Nickname "Maid"
 Notes "<カテゴリー：人間>\r\n<ナワバリ:275-29-18>\r\n<初期サブクラス 151>\r\n<TP基本値 5>\r\n<TPLv補正 30>\r\n<開始時TP 50%>\r\n<経験値曲線 383>\r\n<スキル変化 3147-3279>\r\n<誘惑時使用スキル:3846>\r\n<経験済職業 123-8,129-10,130-3,151-5>\r\n<人間時追加特徴 393>\r\n<初期装備0:845>\r\n<初期装備1:274>\r\n<初期装備2:259>\r\n<初期装備3:149>\r\n<スキルタイプ強化 46-30>\r\n<トリガーステート H,0,20%,154>\r\n<トリガーステート H,3,20%,154>\r\n<イラスト:ステルス改行>"
Actor 552
 Name "Elise"
 Nickname "Elf"
 Notes "<カテゴリー：エルフ>\r\n<ナワバリ:227-17-24>\r\n<初期サブクラス 203>\r\n<TP基本値 5>\r\n<TPLv補正 30>\r\n<開始時TP 50%>\r\n<経験値曲線 386>\r\n<スキル変化 3147-3279>\r\n<誘惑時使用スキル:3706>\r\n<経験済職業 52-7,203-6>\r\n<人間時追加特徴 393>\r\n<初期装備0:554>\r\n<初期装備2:260>\r\n<初期装備3:5>\r\n<スキルタイプ強化 14-30>\r\n<イラスト:frfr>"
Actor 553
 Name "Fizz"
 Nickname "Schoolgirl"
 Notes "<カテゴリー：人間>\r\n<ナワバリ:277-14-39>\r\n<初期サブクラス 151>\r\n<TP基本値 5>\r\n<TPLv補正 30>\r\n<開始時TP 50%>\r\n<経験値曲線 384>\r\n<スキル変化 3147-3278>\r\n<誘惑時使用スキル:4140>\r\n<経験済職業 103-7,151-6>\r\n<人間時追加特徴 395>\r\n<初期装備0:868>\r\n<初期装備2:239>\r\n<初期装備3:129>\r\n<スキルタイプ強化 40-15>\r\n<イラスト:frfr>"
Actor 554
 Name "Nightingale"
 Nickname "Nurse"
 Notes "<カテゴリー：人間>\r\n<ナワバリ:275-18-23>\r\n<初期サブクラス 151>\r\n<TP基本値 5>\r\n<TPLv補正 30>\r\n<開始時TP 50%>\r\n<経験値曲線 386>\r\n<スキル変化 3147-3279>\r\n<誘惑時使用スキル:4196>\r\n<経験済職業 126-7,151-6>\r\n<人間時追加特徴 395>\r\n<初期装備0:799>\r\n<初期装備2:261>\r\n<初期装備3:125>\r\n<スキルタイプ強化 45-15,49-15>\r\n<イラスト:frfr>"
Actor 555
 Name "Teresa"
 Nickname "Natalia Port Citizen"
 Notes "<カテゴリー：人間>\r\n<ナワバリ:275-18-15>\r\n<初期サブクラス 151>\r\n<TP基本値 5>\r\n<TPLv補正 30>\r\n<開始時TP 50%>\r\n<経験値曲線 386>\r\n<スキル変化 3147-3279>\r\n<誘惑時使用スキル:3487>\r\n<経験済職業 123-4,151-4>\r\n<人間時追加特徴 393>\r\n<初期装備0:757>\r\n<初期装備1:274>\r\n<初期装備2:261>\r\n<初期装備3:150>\r\n<ダメージMP吸収 10%>\r\n<イラスト:frfr>"
Actor 556
 Name "Maria"
 Nickname "Nun"
 Notes "<カテゴリー：人間>\r\n<ナワバリ:271-14-32>\r\n<初期サブクラス 151>\r\n<TP基本値 5>\r\n<TPLv補正 30>\r\n<開始時TP 50%>\r\n<経験値曲線 386>\r\n<スキル変化 3147-3279>\r\n<誘惑時使用スキル:3873>\r\n<経験済職業 44-9,151-7>\r\n<人間時追加特徴 395>\r\n<初期装備0:481>\r\n<初期装備2:262>\r\n<初期装備3:126>\r\n<MPタイプ消費率 22,66%>\r\n<イラスト:frfr>"
Actor 557
 Name "Juska"
 Nickname "Hero of Justice"
 Notes "<カテゴリー：人間>\r\n<ナワバリ:270-25-14>\r\n<初期サブクラス 151>\r\n<TP基本値 5>\r\n<TPLv補正 30>\r\n<開始時TP 50%>\r\n<経験値曲線 382>\r\n<スキル変化 3147-3280>\r\n<誘惑時使用スキル:3487>\r\n<経験済職業 72-10,77-10,151-10>\r\n<人間時追加特徴 392>\r\n<初期装備0:307>\r\n<初期装備1:288>\r\n<初期装備2:199>\r\n<初期装備3:40>\r\n<戦闘開始時発動 3126,50%>\r\n<イラスト:frfr>"
Actor 558
 Name "Naia"
 Nickname "Fortune Teller"
 Notes "<カテゴリー：人間>\r\n<ナワバリ:275-8-10>\r\n<初期サブクラス 151>\r\n<TP基本値 5>\r\n<TPLv補正 30>\r\n<開始時TP 50%>\r\n<経験値曲線 383>\r\n<スキル変化 3147-3279>\r\n<誘惑時使用スキル:3846>\r\n<経験済職業 86-9,120-8,151-9>\r\n<人間時追加特徴 393>\r\n<初期装備0:828>\r\n<初期装備1:275>\r\n<初期装備2:263>\r\n<初期装備3:8>\r\n<ターン終了時発動 1993,100%>\r\n<イラスト:frfr>"
Actor 559
 Name "Salaan"
 Nickname "Assassin Boss"
 Notes "<カテゴリー：人間>\r\n<ナワバリ:270-7-16>\r\n<初期サブクラス 151>\r\n<TP基本値 5>\r\n<TPLv補正 30>\r\n<開始時TP 50%>\r\n<経験値曲線 386>\r\n<スキル変化 3147-3279>\r\n<誘惑時使用スキル:3487>\r\n<経験済職業 62-10,63-10,65-10,151-10>\r\n<人間時追加特徴 393>\r\n<初期装備0:15>\r\n<初期装備1:17>\r\n<初期装備2:187>\r\n<初期装備3:23>\r\n<イラスト:frfr>"
Actor 560
 Name "Melody"
 Nickname "Dancer"
 Notes "<カテゴリー：人間>\r\n<ナワバリ:273-27-38>\r\n<初期サブクラス 151>\r\n<TP基本値 5>\r\n<TPLv補正 30>\r\n<開始時TP 50%>\r\n<経験値曲線 384>\r\n<スキル変化 3147-3279>\r\n<誘惑時使用スキル:3848>\r\n<経験済職業 92-10,93-7,151-10>\r\n<人間時追加特徴 393>\r\n<初期装備0:734>\r\n<初期装備1:275>\r\n<初期装備2:263>\r\n<初期装備3:167>\r\n<戦闘開始時発動 2035,50%>\r\n<イラスト:frfr>"
Actor 561
 Name "Witchy"
 Nickname "Witch"
 Notes "<カテゴリー：人間>\r\n<ナワバリ:277-14-35>\r\n<初期サブクラス 151>\r\n<TP基本値 5>\r\n<TPLv補正 30>\r\n<開始時TP 50%>\r\n<経験値曲線 387>\r\n<スキル変化 3147-3278>\r\n<誘惑時使用スキル:3487>\r\n<経験済職業 33-10,34-7,151-10>\r\n<人間時追加特徴 395>\r\n<初期装備0:523>\r\n<初期装備2:243>\r\n<初期装備3:133>\r\n<トリガーステート H,0,20%,37>\r\n<トリガーステート H,3,20%,37>\r\n<イラスト:frfr>"
Actor 562
 Name "Olan"
 Nickname "Blacksmith"
 Notes "<カテゴリー：人間>\r\n<ナワバリ:228-52-6>\r\n<初期サブクラス 151>\r\n<TP基本値 5>\r\n<TPLv補正 30>\r\n<開始時TP 50%>\r\n<経験値曲線 386>\r\n<スキル変化 3147-3279>\r\n<誘惑時使用スキル:4002>\r\n<経験済職業 1-10,15-8,151-10>\r\n<人間時追加特徴 391>\r\n<初期装備0:416>\r\n<初期装備1:304>\r\n<初期装備2:208>\r\n<初期装備3:78>\r\n<トリガーステート H,0,20%,40>\r\n<トリガーステート H,3,20%,40>\r\n<通常攻撃 55>\r\n<イラスト:frfr>"
Actor 563
 Name "Pilate"
 Nickname "Ilias Temple Soldier"
 Notes "<カテゴリー：人間>\r\n<ナワバリ:278-16-23>\r\n<初期サブクラス 151>\r\n<性別:男>\r\n<TP基本値 5>\r\n<TPLv補正 30>\r\n<開始時TP 50%>\r\n<経験値曲線 382>\r\n<スキル変化 3147-3277>\r\n<誘惑時使用スキル:3284>\r\n<経験済職業 72-3,151-2>\r\n<人間時追加特徴 397>\r\n<初期装備0:190>\r\n<初期装備1:280>\r\n<初期装備2:193>\r\n<初期装備3:53>\r\n<トリガーステート H,0,20%,306>\r\n<トリガーステート H,3,20%,306>\r\n<トリガーステート H,0,20%,307>\r\n<トリガーステート H,3,20%,307>\r\n<イラスト:RPGツクール>\r\n"
Actor 564
 Name "John"
 Nickname "San Ilia Knight Leader"
 Notes "<カテゴリー：人間>\r\n<ナワバリ:278-21-14>\r\n<初期サブクラス 151>\r\n<性別:男>\r\n<TP基本値 5>\r\n<TPLv補正 30>\r\n<開始時TP 50%>\r\n<経験値曲線 385>\r\n<スキル変化 3147-3277>\r\n<誘惑時使用スキル:3284>\r\n<経験済職業 1-10,5-5,44-10,72-10,151-8>\r\n<人間時追加特徴 397>\r\n<初期装備0:197>\r\n<初期装備1:286>\r\n<初期装備2:197>\r\n<初期装備3:60>\r\n<トリガーステート H,0,20%,324>\r\n<トリガーステート H,3,20%,324>\r\n<イラスト:RPGツクール>\r\n"
Actor 565
 Name "Samon"
 Nickname "Sabasa Army General"
 Notes "<カテゴリー：人間>\r\n<ナワバリ:278-18-14>\r\n<初期サブクラス 151>\r\n<性別:男>\r\n<TP基本値 5>\r\n<TPLv補正 30>\r\n<開始時TP 50%>\r\n<経験値曲線 388>\r\n<スキル変化 3147-3277>\r\n<誘惑時使用スキル:3287>\r\n<経験済職業 1-10,2-5,15-7,72-10,73-5,151-10>\r\n<人間時追加特徴 397>\r\n<初期装備0:416>\r\n<初期装備1:304>\r\n<初期装備2:208>\r\n<初期装備3:78>\r\n<戦闘開始時発動 1129,25%>\r\n<イラスト:RPGツクール>\r\n"
Actor 566
 Name "Scat Captain"
 Nickname "Pervert"
 Notes "<カテゴリー：人間>\r\n<ナワバリ:272-4-6>\r\n<初期サブクラス 151>\r\n<性別:男>\r\n<TP基本値 5>\r\n<TPLv補正 30>\r\n<開始時TP 50%>\r\n<経験値曲線 384>\r\n<スキル変化 3147-3277>\r\n<誘惑時使用スキル:3284>\r\n<経験済職業 110-4,151-4>\r\n<人間時追加特徴 400>\r\n<初期装備0:892>\r\n<初期装備1:272>\r\n<初期装備2:177>\r\n<初期装備3:19>\r\n<拡張回避率 30%>\r\n<拡張命中率 20%>\r\n<行動変化 28-20>\r\n<イラスト:xelvy>\r\n"
Actor 567
 Name "Panty Sensei"
 Nickname "Pervert"
 Notes "<カテゴリー：人間>\r\n<ナワバリ:272-7-6>\r\n<初期サブクラス 151>\r\n<性別:男>\r\n<TP基本値 5>\r\n<TPLv補正 30>\r\n<開始時TP 50%>\r\n<経験値曲線 383>\r\n<スキル変化 3147-3277>\r\n<誘惑時使用スキル:3285>\r\n<経験済職業 72-10,77-2,92-10,151-4>\r\n<人間時追加特徴 400>\r\n<通常攻撃 56>\r\n<戦闘開始時発動 3148,50%>\r\n<ターン終了時発動 3148,25%>\r\n<イラスト:xelvy>"
Actor 701
 Name "Nero"
 Nickname "Unemployed"
 Notes "<カテゴリー：メイン>\r\n<カテゴリー：人間>\r\n<カテゴリー：妖魔>\r\n<ナワバリ:228-0-0>\r\n<初期サブクラス 153>\r\n<性別:男>\r\n<TP基本値 5>\r\n<TPLv補正 30>\r\n<開始時TP 50%>\r\n<経験値曲線 386>\r\n<スキル変化 3147-3279>\r\n<誘惑時使用スキル:3500>\r\n<固有習得 1-971,1-1645,1-1671,1-1684>\r\n<経験済職業 1-10,2-10,19-10,20-10,33-10,34-10,38-10,42-10,43-10,45-10,47-10,48-10,151-10,152-10,153-4,158-10,159-10,160-10,362-10,363-10,365-10>\r\n<初期アビリティ 62,66,138,151,190,268,446,454,488,492,544,552,590,598,713,808>\r\n<人間時追加特徴 399>\r\n<初期装備0:464>\r\n<初期装備1:319>\r\n<初期装備2:256>\r\n<初期装備3:143>\r\n<時間停止無視>\r\n<HPタイプ消費率 6,0%>\r\n<HPタイプ消費率 7,0%>\r\n<HPタイプ消費率 9,0%>\r\n<HPタイプ消費率 10,0%>\r\n<HPタイプ消費率 14,0%>\r\n<HPタイプ消費率 18,0%>\r\n<HPタイプ消費率 19,0%>\r\n<HPタイプ消費率 21,0%>\r\n<HPタイプ消費率 25,0%>\r\n<HPタイプ消費率 27,0%>\r\n<HPタイプ消費率 29,0%>\r\n<HPタイプ消費率 31,0%>\r\n<HPタイプ消費率 33,0%>\r\n<HPタイプ消費率 40,0%>\r\n<HPタイプ消費率 42,0%>\r\n<HPタイプ消費率 48,0%>\r\n<HPタイプ消費率 50,0%>\r\n<HPタイプ消費率 57,0%>\r\n<HPタイプ消費率 62,0%>\r\n<図鑑除外>"
