﻿
DisplayName "Pocket Castle Forest"



EVENT   1
 PAGE   1
  0()



EVENT   2
 PAGE   1
  0()



EVENT   3
 PAGE   1
  0()



EVENT   4
 PAGE   1
  0()



EVENT   5
 PAGE   1
  0()



EVENT   6
 PAGE   1
  0()



EVENT   7
 PAGE   1
  0()



EVENT   8
 PAGE   1
  0()



EVENT   9
 PAGE   1
  281(0)
  250(bytes(0x04,0x08,0x6f,0x3a,0x0c,0x52,0x50,0x47,0x3a,0x3a,0x53,0x45,0x08,0x3a,0x0a,0x40,0x6e,0x61,0x6d,0x65,0x49,0x22,0x09,0x4d,0x6f,0x76,0x65,0x06,0x3a,0x06,0x45,0x54,0x3a,0x0b,0x40,0x70,0x69,0x74,0x63,0x68,0x69,0x69,0x3a,0x0c,0x40,0x76,0x6f,0x6c,0x75,0x6d,0x65,0x69,0x55))
  TeleportPlayer(0,126,1,15,6,0)
  0()



EVENT   14
 PAGE   1
  281(0)
  250(bytes(0x04,0x08,0x6f,0x3a,0x0c,0x52,0x50,0x47,0x3a,0x3a,0x53,0x45,0x08,0x3a,0x0a,0x40,0x6e,0x61,0x6d,0x65,0x49,0x22,0x09,0x4d,0x6f,0x76,0x65,0x06,0x3a,0x06,0x45,0x54,0x3a,0x0b,0x40,0x70,0x69,0x74,0x63,0x68,0x69,0x69,0x3a,0x0c,0x40,0x76,0x6f,0x6c,0x75,0x6d,0x65,0x69,0x55))
  TeleportPlayer(0,228,3,18,6,0)
  0()



EVENT   10
 PAGE   1
  281(0)
  250(bytes(0x04,0x08,0x6f,0x3a,0x0c,0x52,0x50,0x47,0x3a,0x3a,0x53,0x45,0x08,0x3a,0x0a,0x40,0x6e,0x61,0x6d,0x65,0x49,0x22,0x09,0x4d,0x6f,0x76,0x65,0x06,0x3a,0x06,0x45,0x54,0x3a,0x0b,0x40,0x70,0x69,0x74,0x63,0x68,0x69,0x69,0x3a,0x0c,0x40,0x76,0x6f,0x6c,0x75,0x6d,0x65,0x69,0x55))
  TeleportPlayer(0,126,1,15,6,0)
  0()



EVENT   11
 PAGE   1
  281(0)
  250(bytes(0x04,0x08,0x6f,0x3a,0x0c,0x52,0x50,0x47,0x3a,0x3a,0x53,0x45,0x08,0x3a,0x0a,0x40,0x6e,0x61,0x6d,0x65,0x49,0x22,0x09,0x4d,0x6f,0x76,0x65,0x06,0x3a,0x06,0x45,0x54,0x3a,0x0b,0x40,0x70,0x69,0x74,0x63,0x68,0x69,0x69,0x3a,0x0c,0x40,0x76,0x6f,0x6c,0x75,0x6d,0x65,0x69,0x55))
  TeleportPlayer(0,126,1,15,6,0)
  0()



EVENT   12
 PAGE   1
  281(0)
  250(bytes(0x04,0x08,0x6f,0x3a,0x0c,0x52,0x50,0x47,0x3a,0x3a,0x53,0x45,0x08,0x3a,0x0a,0x40,0x6e,0x61,0x6d,0x65,0x49,0x22,0x09,0x4d,0x6f,0x76,0x65,0x06,0x3a,0x06,0x45,0x54,0x3a,0x0b,0x40,0x70,0x69,0x74,0x63,0x68,0x69,0x69,0x3a,0x0c,0x40,0x76,0x6f,0x6c,0x75,0x6d,0x65,0x69,0x55))
  TeleportPlayer(0,126,1,15,6,0)
  0()



EVENT   13
 PAGE   1
  281(0)
  250(bytes(0x04,0x08,0x6f,0x3a,0x0c,0x52,0x50,0x47,0x3a,0x3a,0x53,0x45,0x08,0x3a,0x0a,0x40,0x6e,0x61,0x6d,0x65,0x49,0x22,0x09,0x4d,0x6f,0x76,0x65,0x06,0x3a,0x06,0x45,0x54,0x3a,0x0b,0x40,0x70,0x69,0x74,0x63,0x68,0x69,0x69,0x3a,0x0c,0x40,0x76,0x6f,0x6c,0x75,0x6d,0x65,0x69,0x55))
  TeleportPlayer(0,126,1,15,6,0)
  0()



EVENT   15
 PAGE   1
  281(0)
  250(bytes(0x04,0x08,0x6f,0x3a,0x0c,0x52,0x50,0x47,0x3a,0x3a,0x53,0x45,0x08,0x3a,0x0a,0x40,0x6e,0x61,0x6d,0x65,0x49,0x22,0x09,0x4d,0x6f,0x76,0x65,0x06,0x3a,0x06,0x45,0x54,0x3a,0x0b,0x40,0x70,0x69,0x74,0x63,0x68,0x69,0x69,0x3a,0x0c,0x40,0x76,0x6f,0x6c,0x75,0x6d,0x65,0x69,0x55))
  TeleportPlayer(0,228,3,18,6,0)
  0()



EVENT   16
 PAGE   1
  RunCommonEvent(111)
  0()



EVENT   19
 PAGE   1
  // condition: switch 1088 is ON
  PictureDisplay(5,"80_jack_st01",0,0,0,0,100,100,0,0)
  PictureMove(5,null,0,0,0,0,100,100,255,0,30,true)
  If(1,3088,0,10,1)
   If(1,4088,0,0,0)
    ChangeVariable(4088,4088,0,0,1)
    ShowMessageFace("jack_fc1",0,0,2,1)
    ShowMessage("\\n<Pumpkin (Affection:\\V[3088])>あの、これ……つくってみたの…… あげる……")
    250(bytes(0x04,0x08,0x6f,0x3a,0x0c,0x52,0x50,0x47,0x3a,0x3a,0x53,0x45,0x08,0x3a,0x0a,0x40,0x6e,0x61,0x6d,0x65,0x49,0x22,0x0a,0x49,0x74,0x65,0x6d,0x31,0x06,0x3a,0x06,0x45,0x54,0x3a,0x0b,0x40,0x70,0x69,0x74,0x63,0x68,0x69,0x69,0x3a,0x0c,0x40,0x76,0x6f,0x6c,0x75,0x6d,0x65,0x69,0x55))
    ChangeInventoryWeapon(514,0,0,1,false)
    0()
   EndIf()
   0()
  EndIf()
  If(1,3088,0,100,1)
   If(1,4088,0,1,0)
    ChangeVariable(4088,4088,0,0,2)
    ShowMessageFace("jack_fc1",0,0,2,2)
    ShowMessage("\\n<Pumpkin (Affection:\\V[3088])>あの、これ……つくってみたの…… あげる……")
    250(bytes(0x04,0x08,0x6f,0x3a,0x0c,0x52,0x50,0x47,0x3a,0x3a,0x53,0x45,0x08,0x3a,0x0a,0x40,0x6e,0x61,0x6d,0x65,0x49,0x22,0x0a,0x49,0x74,0x65,0x6d,0x31,0x06,0x3a,0x06,0x45,0x54,0x3a,0x0b,0x40,0x70,0x69,0x74,0x63,0x68,0x69,0x69,0x3a,0x0c,0x40,0x76,0x6f,0x6c,0x75,0x6d,0x65,0x69,0x55))
    ChangeInventoryArmor(1026,0,0,1,false)
    0()
   EndIf()
   0()
  EndIf()
  If(1,3088,0,500,1)
   If(1,4088,0,2,0)
    ChangeVariable(4088,4088,0,0,3)
    ShowMessageFace("jack_fc1",0,0,2,3)
    ShowMessage("\\n<Pumpkin (Affection:\\V[3088])>あの、これ……つくってみたの…… あげる……")
    250(bytes(0x04,0x08,0x6f,0x3a,0x0c,0x52,0x50,0x47,0x3a,0x3a,0x53,0x45,0x08,0x3a,0x0a,0x40,0x6e,0x61,0x6d,0x65,0x49,0x22,0x0a,0x49,0x74,0x65,0x6d,0x31,0x06,0x3a,0x06,0x45,0x54,0x3a,0x0b,0x40,0x70,0x69,0x74,0x63,0x68,0x69,0x69,0x3a,0x0c,0x40,0x76,0x6f,0x6c,0x75,0x6d,0x65,0x69,0x55))
    ChangeInventoryArmor(1318,0,0,1,false)
    0()
   EndIf()
   0()
  EndIf()
  If(1,3088,0,2000,1)
   If(1,4088,0,3,0)
    ChangeVariable(4088,4088,0,0,4)
    ShowMessageFace("jack_fc1",0,0,2,4)
    ShowMessage("\\n<Pumpkin (Affection:\\V[3088])>あの、これ……つくってみたの…… あげる……")
    250(bytes(0x04,0x08,0x6f,0x3a,0x0c,0x52,0x50,0x47,0x3a,0x3a,0x53,0x45,0x08,0x3a,0x0a,0x40,0x6e,0x61,0x6d,0x65,0x49,0x22,0x0a,0x49,0x74,0x65,0x6d,0x31,0x06,0x3a,0x06,0x45,0x54,0x3a,0x0b,0x40,0x70,0x69,0x74,0x63,0x68,0x69,0x69,0x3a,0x0c,0x40,0x76,0x6f,0x6c,0x75,0x6d,0x65,0x69,0x55))
    ChangeInventoryArmor(1114,0,0,1,false)
    0()
   EndIf()
   0()
  EndIf()
  355("actor_label_jump")
  ShowMessageFace("jack_fc1",0,0,2,5)
  ShowMessage("\\n<Pumpkin (Affection:\\V[3088])>あたしのかぼちゃ、食べちゃダメだよ……")
  JumpToLabel("メニュー")
  DefineLabel("70")
  ShowMessageFace("nezumi_fc1",0,0,2,6)
  ShowMessage("\\n<Ratty (Affection:\\V[3070])>かぼちゃだ…… ねぇ、かじっていい？")
  ShowMessageFace("jack_fc1",0,0,2,7)
  ShowMessage("\\n<Pumpkin (Affection:\\V[3088])>ダメ……")
  ShowMessageFace("nezumi_fc1",0,0,2,8)
  ShowMessage("\\n<Ratty (Affection:\\V[3070])>かじかじ……")
  ShowMessageFace("jack_fc1",2,0,2,9)
  ShowMessage("\\n<Pumpkin (Affection:\\V[3088])>やめて～！")
  JumpToLabel("メニュー")
  DefineLabel("97")
  ShowMessageFace("fairy_fc1",0,0,2,10)
  ShowMessage("\\n<Fell (Affection:\\V[3097])>わ～い、かぼちゃちゃんだ～！")
  ShowMessageFace("jack_fc1",1,0,2,11)
  ShowMessage("\\n<Pumpkin (Affection:\\V[3088])>いっしょに、あそぼう……")
  ShowMessageFace("",0,0,2,12)
  ShowMessage("妖精達は楽しそうに遊んでいる……")
  JumpToLabel("メニュー")
  DefineLabel("111")
  ShowMessageFace("jack_fc1",0,0,2,13)
  ShowMessage("\\n<Pumpkin (Affection:\\V[3088])>わぁ、スイカだ……")
  ShowMessageFace("suika_fc1",1,0,2,14)
  ShowMessage("\\n<Melon (Affection:\\V[3111])>わぁ、かぼちゃだ～！ スイカ、食べる？")
  ShowMessageFace("jack_fc1",1,0,2,15)
  ShowMessage("\\n<Pumpkin (Affection:\\V[3088])>食べる…… でも、あたしのかぼちゃは食べちゃダメなの……")
  ShowMessageFace("suika_fc1",2,0,2,16)
  ShowMessage("\\n<Melon (Affection:\\V[3111])>そのかぼちゃ、そのまんま頭だからね……")
  JumpToLabel("メニュー")
  DefineLabel("143")
  ShowMessageFace("eva_fc1",0,0,2,17)
  ShowMessage("\\n<Eva (Affection:\\V[3143])>あっ、おいしそうなかぼちゃ……")
  ShowMessageFace("jack_fc1",0,0,2,18)
  ShowMessage("\\n<Pumpkin (Affection:\\V[3088])>食べちゃダメ……")
  ShowMessageFace("eva_fc1",0,0,2,19)
  ShowMessage("\\n<Eva (Affection:\\V[3143])>ちょっとだけでいいから…… ひとかじりだけ……")
  ShowMessageFace("jack_fc1",0,0,2,20)
  ShowMessage("\\n<Pumpkin (Affection:\\V[3088])>ダメ……")
  JumpToLabel("メニュー")
  DefineLabel("メニュー")
  StartLoop()
   355("unlimited_choices(11, [\"Give presents\",")
   655("\"Add to party\",")
   655("\"View present list\",\"Request\",")
   655("\"Never mind\"])")
   If(1,11,0,0,0)
    355("present_start(88)")
    0()
   EndIf()
   If(1,11,0,1,0)
    PictureClear(5)
    355("move_actor_ex(88)")
    EndEventProcessing()
    0()
   EndIf()
   If(1,11,0,2,0)
    ShowMessageFace("",0,0,2,21)
    ShowMessage("Affection   10:炎のロッド")
    ShowMessage("Affection  100:イヤリング")
    ShowMessage("Affection  500:ロッドの書")
    ShowMessage("Affection 2000:ヘビィリング")
    0()
   EndIf()
   If(1,11,0,3,0)
    PictureClear(5)
    ShowMessageFace("",0,0,2,22)
    ShowMessage("Ask her for what? (Affection:\\V[3088])")
    ShowChoices(strings("Handjob(Affection:10）","Never mind"),2)
    IfPlayerPicksChoice(0,null)
     If(1,3088,0,10,1)
      355("call_novel_scene(4231)")
      EndEventProcessing()
      0()
     Else()
      ShowMessageFace("jack_fc1",0,0,2,23)
      ShowMessage("\\n<Pumpkin (Affection:\\V[3088])>また後でね……")
      0()
     EndIf()
     0()
    IfPlayerPicksChoice(1,null)
     0()
    404()
    0()
   EndIf()
   If(1,11,0,4,1)
    PictureClear(5)
    EndEventProcessing()
    0()
   EndIf()
   0()
  EndLoop()
  0()
 PAGE   2
  // condition: party contains actor #88
  0()



EVENT   21
 PAGE   1
  // condition: switch 1136 is ON
  PictureDisplay(5,"80_elf_st01",0,0,0,0,100,100,0,0)
  PictureMove(5,null,0,0,0,0,100,100,255,0,30,true)
  If(1,3136,0,10,1)
   If(1,4136,0,0,0)
    ChangeVariable(4136,4136,0,0,1)
    ShowMessageFace("elf_fc1",0,0,2,1)
    ShowMessage("\\n<Claudia (Affection:\\V[3136])>これを受け取りなさい。 べ、別に大した物じゃないから……")
    250(bytes(0x04,0x08,0x6f,0x3a,0x0c,0x52,0x50,0x47,0x3a,0x3a,0x53,0x45,0x08,0x3a,0x0a,0x40,0x6e,0x61,0x6d,0x65,0x49,0x22,0x0a,0x49,0x74,0x65,0x6d,0x31,0x06,0x3a,0x06,0x45,0x54,0x3a,0x0b,0x40,0x70,0x69,0x74,0x63,0x68,0x69,0x69,0x3a,0x0c,0x40,0x76,0x6f,0x6c,0x75,0x6d,0x65,0x69,0x55))
    ChangeInventoryWeapon(560,0,0,1,false)
    0()
   EndIf()
   0()
  EndIf()
  If(1,3136,0,100,1)
   If(1,4136,0,1,0)
    ChangeVariable(4136,4136,0,0,2)
    ShowMessageFace("elf_fc1",0,0,2,2)
    ShowMessage("\\n<Claudia (Affection:\\V[3136])>これを受け取りなさい。 べ、別に大した物じゃないから……")
    250(bytes(0x04,0x08,0x6f,0x3a,0x0c,0x52,0x50,0x47,0x3a,0x3a,0x53,0x45,0x08,0x3a,0x0a,0x40,0x6e,0x61,0x6d,0x65,0x49,0x22,0x0a,0x49,0x74,0x65,0x6d,0x31,0x06,0x3a,0x06,0x45,0x54,0x3a,0x0b,0x40,0x70,0x69,0x74,0x63,0x68,0x69,0x69,0x3a,0x0c,0x40,0x76,0x6f,0x6c,0x75,0x6d,0x65,0x69,0x55))
    ChangeInventoryArmor(1056,0,0,1,false)
    0()
   EndIf()
   0()
  EndIf()
  If(1,3136,0,500,1)
   If(1,4136,0,2,0)
    ChangeVariable(4136,4136,0,0,3)
    ShowMessageFace("elf_fc1",0,0,2,3)
    ShowMessage("\\n<Claudia (Affection:\\V[3136])>これを受け取りなさい。 べ、別に大した物じゃないから……")
    250(bytes(0x04,0x08,0x6f,0x3a,0x0c,0x52,0x50,0x47,0x3a,0x3a,0x53,0x45,0x08,0x3a,0x0a,0x40,0x6e,0x61,0x6d,0x65,0x49,0x22,0x0a,0x49,0x74,0x65,0x6d,0x31,0x06,0x3a,0x06,0x45,0x54,0x3a,0x0b,0x40,0x70,0x69,0x74,0x63,0x68,0x69,0x69,0x3a,0x0c,0x40,0x76,0x6f,0x6c,0x75,0x6d,0x65,0x69,0x55))
    ChangeInventoryArmor(1321,0,0,1,false)
    0()
   EndIf()
   0()
  EndIf()
  If(1,3136,0,2000,1)
   If(1,4136,0,3,0)
    ChangeVariable(4136,4136,0,0,4)
    ShowMessageFace("elf_fc1",0,0,2,4)
    ShowMessage("\\n<Claudia (Affection:\\V[3136])>これを受け取りなさい。 べ、別に大した物じゃないから……")
    250(bytes(0x04,0x08,0x6f,0x3a,0x0c,0x52,0x50,0x47,0x3a,0x3a,0x53,0x45,0x08,0x3a,0x0a,0x40,0x6e,0x61,0x6d,0x65,0x49,0x22,0x0a,0x49,0x74,0x65,0x6d,0x31,0x06,0x3a,0x06,0x45,0x54,0x3a,0x0b,0x40,0x70,0x69,0x74,0x63,0x68,0x69,0x69,0x3a,0x0c,0x40,0x76,0x6f,0x6c,0x75,0x6d,0x65,0x69,0x55))
    ChangeInventoryArmor(1047,0,0,1,false)
    0()
   EndIf()
   0()
  EndIf()
  355("actor_label_jump")
  ShowMessageFace("elf_fc1",0,0,2,5)
  ShowMessage("\\n<Claudia (Affection:\\V[3136])>エルフが淫乱なんて、悪質なデマよ。 出所を探るべきね……")
  JumpToLabel("メニュー")
  DefineLabel("89")
  ShowMessageFace("ropa_fc1",0,0,2,6)
  ShowMessage("\\n<Cindy (Affection:\\V[3089])>…お腹が減ったわ……")
  ShowMessageFace("elf_fc1",2,0,2,7)
  ShowMessage("\\n<Claudia (Affection:\\V[3136])>（あの触手で嫐られたら……）")
  ShowMessageFace("ropa_fc1",0,0,2,8)
  ShowMessage("\\n<Cindy (Affection:\\V[3089])>……なに？")
  ShowMessageFace("elf_fc1",2,0,2,9)
  ShowMessage("\\n<Claudia (Affection:\\V[3136])>（全身の穴という穴を……あぁ……）")
  ShowMessageFace("ropa_fc1",0,0,2,10)
  ShowMessage("\\n<Cindy (Affection:\\V[3089])>…………？？？")
  JumpToLabel("メニュー")
  DefineLabel("96")
  ShowMessageFace("elf_fc1",0,0,2,11)
  ShowMessage("\\n<Claudia (Affection:\\V[3136])>ふん、堕ちたエルフじゃない。 そんな姿で、惨めなものね……")
  ShowMessageFace("delh_b_fc1",0,0,2,12)
  ShowMessage("\\n<Marion (Affection:\\V[3096])>あなたも、この触手で堕ちてみる……？")
  ShowMessageFace("elf_fc1",2,0,2,13)
  ShowMessage("\\n<Claudia (Affection:\\V[3136])>そ、そんな……触手で穴という穴を…… そんな、私……ああ、だめ……")
  ShowMessageFace("delh_b_fc1",2,0,2,14)
  ShowMessage("\\n<Marion (Affection:\\V[3096])>あなた、本当に堕ちるわよ……？")
  JumpToLabel("メニュー")
  DefineLabel("97")
  ShowMessageFace("fairy_fc1",0,0,2,15)
  ShowMessage("\\n<Fell (Affection:\\V[3097])>わ～い、エルフおねえちゃんだ～♪")
  ShowMessageFace("elf_fc1",0,0,2,16)
  ShowMessage("\\n<Claudia (Affection:\\V[3136])>あんまり、迷いの森に行かないようにね。 あそこにはダークエルフもいるんだから。")
  ShowMessageFace("fairy_fc1",0,0,2,17)
  ShowMessage("\\n<Fell (Affection:\\V[3097])>だいじょうぶ！ ダークエルフのおねえちゃんも、やさしいよ♪")
  ShowMessageFace("elf_fc1",0,0,2,18)
  ShowMessage("\\n<Claudia (Affection:\\V[3136])>まったく、もう……")
  JumpToLabel("メニュー")
  DefineLabel("110")
  ShowMessageFace("slimelord_fc1",1,0,2,19)
  ShowMessage("\\n<Beth (Affection:\\V[3110])>わーい、わーい♪")
  ShowMessageFace("elf_fc1",2,0,2,20)
  ShowMessage("\\n<Claudia (Affection:\\V[3136])>（あの粘液で全身を包まれて…… 　都合良く服だけ溶かされて……）")
  ShowMessageFace("slimelord_fc1",3,0,2,21)
  ShowMessage("\\n<Beth (Affection:\\V[3110])>……どうしたの？")
  ShowMessageFace("elf_fc1",2,0,2,22)
  ShowMessage("\\n<Claudia (Affection:\\V[3136])>（体中にスライムが這い回って……あぁ……）")
  ShowMessageFace("slimelord_fc1",3,0,2,23)
  ShowMessage("\\n<Beth (Affection:\\V[3110])>…………？？？")
  JumpToLabel("メニュー")
  DefineLabel("137")
  ShowMessageFace("elf_fc1",0,0,2,24)
  ShowMessage("\\n<Claudia (Affection:\\V[3136])>こら！　そこの壁を壊したの、あなた達でしょ！")
  ShowMessageFace("braunys_fc1",2,0,2,25)
  ShowMessage("\\n<Love (Affection:\\V[3137])>あたし達、悪くないよ！ 壁が柔らかかったの！")
  ShowMessageFace("braunys_fc1",5,0,2,26)
  ShowMessage("\\n<Lamb (Affection:\\V[3137])>にげろー！")
  ShowMessageFace("elf_fc1",0,0,2,27)
  ShowMessage("\\n<Claudia (Affection:\\V[3136])>待ちなさい……！")
  ShowMessageFace("braunys_fc2",0,0,2,28)
  ShowMessage("\\n<Love (Affection:\\V[3137])>タックルー！")
  ShowMessageFace("elf_fc1",0,0,2,29)
  ShowMessage("\\n<Claudia (Affection:\\V[3136])>きゃーっ！")
  250(bytes(0x04,0x08,0x6f,0x3a,0x0c,0x52,0x50,0x47,0x3a,0x3a,0x53,0x45,0x08,0x3a,0x0a,0x40,0x6e,0x61,0x6d,0x65,0x49,0x22,0x0e,0x6d,0x6f,0x6e,0x5f,0x66,0x61,0x6c,0x6c,0x31,0x06,0x3a,0x06,0x45,0x54,0x3a,0x0b,0x40,0x70,0x69,0x74,0x63,0x68,0x69,0x69,0x3a,0x0c,0x40,0x76,0x6f,0x6c,0x75,0x6d,0x65,0x69,0x69))
  ShowMessageFace("",0,0,2,30)
  ShowMessage("ブラウニーズはエルフにタックルした！ エルフは吹っ飛んでいった……")
  JumpToLabel("メニュー")
  DefineLabel("138")
  ShowMessageFace("elf_fc1",0,0,2,31)
  ShowMessage("\\n<Claudia (Affection:\\V[3136])>あなた達、ちゃんと宿題はした？ 遊んでばかりいると、ちぃぱっぱになっちゃうわよ。")
  ShowMessageFace("tfairy_fc1",0,0,2,32)
  ShowMessage("\\n<Milly & Liru (Affection:\\V[3138])>宿題なんて、しないも～ん♪ 逃げちゃえ～♪")
  ShowMessageFace("elf_fc1",0,0,2,33)
  ShowMessage("\\n<Claudia (Affection:\\V[3136])>待ちなさい……あぁっ！")
  250(bytes(0x04,0x08,0x6f,0x3a,0x0c,0x52,0x50,0x47,0x3a,0x3a,0x53,0x45,0x08,0x3a,0x0a,0x40,0x6e,0x61,0x6d,0x65,0x49,0x22,0x0e,0x6d,0x6f,0x6e,0x5f,0x66,0x61,0x6c,0x6c,0x31,0x06,0x3a,0x06,0x45,0x54,0x3a,0x0b,0x40,0x70,0x69,0x74,0x63,0x68,0x69,0x69,0x3a,0x0c,0x40,0x76,0x6f,0x6c,0x75,0x6d,0x65,0x69,0x69))
  ShowMessageFace("",0,0,2,34)
  ShowMessage("エルフは落とし穴に落ちてしまった！")
  249(bytes(0x04,0x08,0x6f,0x3a,0x0c,0x52,0x50,0x47,0x3a,0x3a,0x4d,0x45,0x08,0x3a,0x0a,0x40,0x6e,0x61,0x6d,0x65,0x49,0x22,0x09,0x6c,0x76,0x75,0x70,0x06,0x3a,0x06,0x45,0x54,0x3a,0x0b,0x40,0x70,0x69,0x74,0x63,0x68,0x69,0x69,0x3a,0x0c,0x40,0x76,0x6f,0x6c,0x75,0x6d,0x65,0x69,0x69))
  ShowMessageFace("tfairy_fc1",1,0,2,35)
  ShowMessage("\\n<Milly & Liru (Affection:\\V[3138])>エルフお姉ちゃんをやっつけた！")
  JumpToLabel("メニュー")
  DefineLabel("139")
  ShowMessageFace("elf_fc1",0,0,2,36)
  ShowMessage("\\n<Claudia (Affection:\\V[3136])>こら、満月草を盗み食いしたのはあなた達ね！")
  ShowMessageFace("fairys_fc1",3,0,2,37)
  ShowMessage("\\n<Fairies (Affection:\\V[3139])>わ～い、にげろ～！")
  ShowMessageFace("elf_fc1",0,0,2,38)
  ShowMessage("\\n<Claudia (Affection:\\V[3136])>まったく、いたずらばっかり…… ……きゃぁっ！？")
  250(bytes(0x04,0x08,0x6f,0x3a,0x0c,0x52,0x50,0x47,0x3a,0x3a,0x53,0x45,0x08,0x3a,0x0a,0x40,0x6e,0x61,0x6d,0x65,0x49,0x22,0x0e,0x6d,0x6f,0x6e,0x5f,0x66,0x61,0x6c,0x6c,0x31,0x06,0x3a,0x06,0x45,0x54,0x3a,0x0b,0x40,0x70,0x69,0x74,0x63,0x68,0x69,0x69,0x3a,0x0c,0x40,0x76,0x6f,0x6c,0x75,0x6d,0x65,0x69,0x69))
  ShowMessageFace("",0,0,2,39)
  ShowMessage("エルフは落とし穴に落ちてしまった！")
  ShowMessageFace("fairys_fc3",0,0,2,40)
  ShowMessage("\\n<Fairies (Affection:\\V[3139])>落とし穴～♪")
  249(bytes(0x04,0x08,0x6f,0x3a,0x0c,0x52,0x50,0x47,0x3a,0x3a,0x4d,0x45,0x08,0x3a,0x0a,0x40,0x6e,0x61,0x6d,0x65,0x49,0x22,0x09,0x6c,0x76,0x75,0x70,0x06,0x3a,0x06,0x45,0x54,0x3a,0x0b,0x40,0x70,0x69,0x74,0x63,0x68,0x69,0x69,0x3a,0x0c,0x40,0x76,0x6f,0x6c,0x75,0x6d,0x65,0x69,0x69))
  ShowMessageFace("fairys_fc1",0,0,2,41)
  ShowMessage("\\n<Fairies (Affection:\\V[3139])>エルフお姉ちゃんをやっつけた！")
  JumpToLabel("メニュー")
  DefineLabel("168")
  ShowMessageFace("elf_fc1",2,0,2,42)
  ShowMessage("\\n<Claudia (Affection:\\V[3136])>ひゃっ、たくさんの目！ しかも、全部こっちを見てる……")
  ShowMessageFace("elf_fc1",2,0,2,43)
  ShowMessage("\\n<Claudia (Affection:\\V[3136])>ああ、そんなたくさんの目で私を見ないで……")
  ShowMessageFace("dodome_fc1",0,0,2,44)
  ShowMessage("\\n<Manako (Affection:\\V[3168])>（なんなの、この欲ボケエルフ……）")
  JumpToLabel("メニュー")
  DefineLabel("メニュー")
  StartLoop()
   355("unlimited_choices(11, [\"Give presents\",")
   655("\"Add to party\",")
   655("\"View present list\",\"Request\",")
   655("\"Never mind\"])")
   If(1,11,0,0,0)
    355("present_start(136)")
    0()
   EndIf()
   If(1,11,0,1,0)
    PictureClear(5)
    355("move_actor_ex(136)")
    EndEventProcessing()
    0()
   EndIf()
   If(1,11,0,2,0)
    ShowMessageFace("",0,0,2,45)
    ShowMessage("Affection   10:ミスリルボウ")
    ShowMessage("Affection  100:そよ風のマント")
    ShowMessage("Affection  500:弓矢の書")
    ShowMessage("Affection 2000:エルフの櫛")
    0()
   EndIf()
   If(1,11,0,3,0)
    PictureClear(5)
    ShowMessageFace("",0,0,2,46)
    ShowMessage("Ask her for what? (Affection:\\V[3136])")
    ShowChoices(strings("Reverse rape(Affection:10）","Never mind"),2)
    IfPlayerPicksChoice(0,null)
     If(1,3136,0,10,1)
      355("call_novel_scene(4476)")
      EndEventProcessing()
      0()
     Else()
      ShowMessageFace("elf_fc1",2,0,2,47)
      ShowMessage("\\n<Claudia (Affection:\\V[3136])>エ、エルフは清純なのよ…… そんなこと頼むなんて、恥を知りなさい！")
      0()
     EndIf()
     0()
    IfPlayerPicksChoice(1,null)
     0()
    404()
    0()
   EndIf()
   If(1,11,0,4,1)
    PictureClear(5)
    EndEventProcessing()
    0()
   EndIf()
   0()
  EndLoop()
  0()
 PAGE   2
  // condition: party contains actor #136
  0()



EVENT   22
 PAGE   1
  // condition: switch 1138 is ON
  PictureDisplay(5,"80_tfairy_st01",0,0,0,0,100,100,0,0)
  PictureMove(5,null,0,0,0,0,100,100,255,0,30,true)
  If(1,3138,0,10,1)
   If(1,4138,0,0,0)
    ChangeVariable(4138,4138,0,0,1)
    ShowMessageFace("tfairy_fc1",0,0,2,1)
    ShowMessage("\\n<Milly & Liru (Affection:\\V[3138])>あたし達からの、感謝の気持ちだよ～♪")
    250(bytes(0x04,0x08,0x6f,0x3a,0x0c,0x52,0x50,0x47,0x3a,0x3a,0x53,0x45,0x08,0x3a,0x0a,0x40,0x6e,0x61,0x6d,0x65,0x49,0x22,0x0a,0x49,0x74,0x65,0x6d,0x31,0x06,0x3a,0x06,0x45,0x54,0x3a,0x0b,0x40,0x70,0x69,0x74,0x63,0x68,0x69,0x69,0x3a,0x0c,0x40,0x76,0x6f,0x6c,0x75,0x6d,0x65,0x69,0x55))
    ChangeInventory_Item(28,0,0,1)
    0()
   EndIf()
   0()
  EndIf()
  If(1,3138,0,100,1)
   If(1,4138,0,1,0)
    ChangeVariable(4138,4138,0,0,2)
    ShowMessageFace("tfairy_fc1",0,0,2,2)
    ShowMessage("\\n<Milly & Liru (Affection:\\V[3138])>あたし達からの、感謝の気持ちだよ～♪")
    250(bytes(0x04,0x08,0x6f,0x3a,0x0c,0x52,0x50,0x47,0x3a,0x3a,0x53,0x45,0x08,0x3a,0x0a,0x40,0x6e,0x61,0x6d,0x65,0x49,0x22,0x0a,0x49,0x74,0x65,0x6d,0x31,0x06,0x3a,0x06,0x45,0x54,0x3a,0x0b,0x40,0x70,0x69,0x74,0x63,0x68,0x69,0x69,0x3a,0x0c,0x40,0x76,0x6f,0x6c,0x75,0x6d,0x65,0x69,0x55))
    ChangeInventoryArmor(1026,0,0,1,false)
    0()
   EndIf()
   0()
  EndIf()
  If(1,3138,0,500,1)
   If(1,4138,0,2,0)
    ChangeVariable(4138,4138,0,0,3)
    ShowMessageFace("tfairy_fc1",0,0,2,3)
    ShowMessage("\\n<Milly & Liru (Affection:\\V[3138])>あたし達からの、感謝の気持ちだよ～♪")
    250(bytes(0x04,0x08,0x6f,0x3a,0x0c,0x52,0x50,0x47,0x3a,0x3a,0x53,0x45,0x08,0x3a,0x0a,0x40,0x6e,0x61,0x6d,0x65,0x49,0x22,0x0a,0x49,0x74,0x65,0x6d,0x31,0x06,0x3a,0x06,0x45,0x54,0x3a,0x0b,0x40,0x70,0x69,0x74,0x63,0x68,0x69,0x69,0x3a,0x0c,0x40,0x76,0x6f,0x6c,0x75,0x6d,0x65,0x69,0x55))
    ChangeInventoryArmor(1348,0,0,1,false)
    0()
   EndIf()
   0()
  EndIf()
  If(1,3138,0,2000,1)
   If(1,4138,0,3,0)
    ChangeVariable(4138,4138,0,0,4)
    ShowMessageFace("tfairy_fc1",0,0,2,4)
    ShowMessage("\\n<Milly & Liru (Affection:\\V[3138])>あたし達からの、感謝の気持ちだよ～♪")
    250(bytes(0x04,0x08,0x6f,0x3a,0x0c,0x52,0x50,0x47,0x3a,0x3a,0x53,0x45,0x08,0x3a,0x0a,0x40,0x6e,0x61,0x6d,0x65,0x49,0x22,0x0a,0x49,0x74,0x65,0x6d,0x31,0x06,0x3a,0x06,0x45,0x54,0x3a,0x0b,0x40,0x70,0x69,0x74,0x63,0x68,0x69,0x69,0x3a,0x0c,0x40,0x76,0x6f,0x6c,0x75,0x6d,0x65,0x69,0x55))
    ChangeInventoryArmor(1205,0,0,1,false)
    0()
   EndIf()
   0()
  EndIf()
  355("actor_label_jump")
  ShowMessageFace("tfairy_fc1",0,0,2,5)
  ShowMessage("\\n<Milly & Liru (Affection:\\V[3138])>ねぇ、あたし達もつれていってよ♪")
  JumpToLabel("メニュー")
  DefineLabel("84")
  ShowMessageFace("tfairy_fc1",0,0,2,6)
  ShowMessage("\\n<Milly & Liru (Affection:\\V[3138])>あっ、ハーピーの仲良し姉妹さんだ！")
  ShowMessageFace("hapy_bc_fc1",3,0,2,7)
  ShowMessage("\\n<Pina (Affection:\\V[3084])>仲良し姉妹の妖精さんですね。 でも、私達の方が仲良しですよ。")
  ShowMessageFace("tfairy_fc1",2,0,2,8)
  ShowMessage("\\n<Milly & Liru (Affection:\\V[3138])>違うよ～！　あたし達の方が仲良しだよ～！")
  ShowMessageFace("sonia_fc1",5,0,2,9)
  ShowMessage("\\n<Sonya>あいや待たれい、喧嘩は無用！ ここは私が裁きを下すわ！")
  ShowMessageFace("sonia_fc1",4,0,2,10)
  ShowMessage("\\n<Sonya>お姉ちゃんを左右から引っ張って、奪った方が勝ち！ それでいいよね？")
  ShowMessageFace("ruka_fc1",0,0,2,11)
  ShowMessage("\\n<Luka>（先に手を離した方が、実は姉思いっていうアレか……）")
  ShowMessageFace("tfairy_fc2",4,0,2,12)
  ShowMessage("\\n<Liru (Affection:\\V[3138])>負けないよ！　手がちぎれても引っ張るんだから！")
  ShowMessageFace("hapy_bc_fc1",5,0,2,13)
  ShowMessage("\\n<Pii (Affection:\\V[3084])>あたしだって、お姉ちゃんが真っ二つになるまで引っ張るよ！")
  ShowMessageFace("tfairy_fc2",2,0,2,14)
  ShowMessage("\\n<Milly (Affection:\\V[3138])>やめて。")
  ShowMessageFace("hapy_bc_fc1",3,0,2,15)
  ShowMessage("\\n<Pina (Affection:\\V[3084])>やめて。")
  JumpToLabel("メニュー")
  DefineLabel("136")
  ShowMessageFace("elf_fc1",0,0,2,16)
  ShowMessage("\\n<Claudia (Affection:\\V[3136])>あなた達、ちゃんと宿題はした？ 遊んでばかりいると、ちぃぱっぱになっちゃうわよ。")
  ShowMessageFace("tfairy_fc1",0,0,2,17)
  ShowMessage("\\n<Milly & Liru (Affection:\\V[3138])>宿題なんて、しないも～ん♪ 逃げちゃえ～♪")
  ShowMessageFace("elf_fc1",0,0,2,18)
  ShowMessage("\\n<Claudia (Affection:\\V[3136])>待ちなさい……あぁっ！")
  250(bytes(0x04,0x08,0x6f,0x3a,0x0c,0x52,0x50,0x47,0x3a,0x3a,0x53,0x45,0x08,0x3a,0x0a,0x40,0x6e,0x61,0x6d,0x65,0x49,0x22,0x0e,0x6d,0x6f,0x6e,0x5f,0x66,0x61,0x6c,0x6c,0x31,0x06,0x3a,0x06,0x45,0x54,0x3a,0x0b,0x40,0x70,0x69,0x74,0x63,0x68,0x69,0x69,0x3a,0x0c,0x40,0x76,0x6f,0x6c,0x75,0x6d,0x65,0x69,0x69))
  ShowMessageFace("",0,0,2,19)
  ShowMessage("エルフは落とし穴に落ちてしまった！")
  249(bytes(0x04,0x08,0x6f,0x3a,0x0c,0x52,0x50,0x47,0x3a,0x3a,0x4d,0x45,0x08,0x3a,0x0a,0x40,0x6e,0x61,0x6d,0x65,0x49,0x22,0x09,0x6c,0x76,0x75,0x70,0x06,0x3a,0x06,0x45,0x54,0x3a,0x0b,0x40,0x70,0x69,0x74,0x63,0x68,0x69,0x69,0x3a,0x0c,0x40,0x76,0x6f,0x6c,0x75,0x6d,0x65,0x69,0x69))
  ShowMessageFace("tfairy_fc1",1,0,2,20)
  ShowMessage("\\n<Milly & Liru (Affection:\\V[3138])>エルフお姉ちゃんをやっつけた！")
  JumpToLabel("メニュー")
  DefineLabel("137")
  ShowMessageFace("tfairy_fc1",1,0,2,21)
  ShowMessage("\\n<Milly & Liru (Affection:\\V[3138])>わ～い、あそぼうよ～！")
  ShowMessageFace("braunys_fc1",7,0,2,22)
  ShowMessage("\\n<Love & Lamb (Affection:\\V[3137])>あそぼう！　あそぼう！")
  ShowMessageFace("tfairy_fc1",1,0,2,23)
  ShowMessage("\\n<Milly & Liru (Affection:\\V[3138])>たつまき、ぐるぐる～！")
  ShowMessageFace("braunys_fc1",7,0,2,24)
  ShowMessage("\\n<Love & Lamb (Affection:\\V[3137])>タックル、どっかーん！")
  If(0,1136,0)
   ShowMessageFace("elf_fc1",0,0,2,25)
   ShowMessage("\\n<Claudia (Affection:\\V[3136])>こら！　暴れるのはやめなさい！")
   ShowMessageFace("sonia_fc2",2,0,2,26)
   ShowMessage("\\n<Sonya>あ……私のセリフが……")
   0()
  EndIf()
  JumpToLabel("メニュー")
  DefineLabel("メニュー")
  StartLoop()
   355("unlimited_choices(11, [\"Give presents\",")
   655("\"Add to party\",")
   655("\"View present list\",\"Request\",")
   655("\"Never mind\"])")
   If(1,11,0,0,0)
    355("present_start(138)")
    0()
   EndIf()
   If(1,11,0,1,0)
    PictureClear(5)
    355("move_actor_ex(138)")
    EndEventProcessing()
    0()
   EndIf()
   If(1,11,0,2,0)
    ShowMessageFace("",0,0,2,27)
    ShowMessage("Affection   10:魔力の種")
    ShowMessage("Affection  100:イヤリング")
    ShowMessage("Affection  500:カードの書")
    ShowMessage("Affection 2000:風のシンボル")
    0()
   EndIf()
   If(1,11,0,3,0)
    PictureClear(5)
    ShowMessageFace("",0,0,2,28)
    ShowMessage("Ask her for what? (Affection:\\V[3138])")
    ShowChoices(strings("Twin Fairy Hug(Affection:10）","Never mind"),2)
    IfPlayerPicksChoice(0,null)
     If(1,3138,0,10,1)
      355("call_novel_scene(4486)")
      EndEventProcessing()
      0()
     Else()
      ShowMessageFace("tfairy_fc1",2,0,2,29)
      ShowMessage("\\n<Milly & Liru (Affection:\\V[3138])>また後でね～！")
      0()
     EndIf()
     0()
    IfPlayerPicksChoice(1,null)
     0()
    404()
    0()
   EndIf()
   If(1,11,0,4,1)
    PictureClear(5)
    EndEventProcessing()
    0()
   EndIf()
   0()
  EndLoop()
  0()
 PAGE   2
  // condition: party contains actor #138
  0()



EVENT   23
 PAGE   1
  // condition: switch 1097 is ON
  PictureDisplay(5,"80_fairy_st01",0,0,0,0,100,100,0,0)
  PictureMove(5,null,0,0,0,0,100,100,255,0,30,true)
  If(1,3097,0,10,1)
   If(1,4097,0,0,0)
    ChangeVariable(4097,4097,0,0,1)
    ShowMessageFace("fairy_fc1",0,0,2,1)
    ShowMessage("\\n<Fell (Affection:\\V[3097])>これ、あげる♪ ありがとうの気持ちだよ♪")
    250(bytes(0x04,0x08,0x6f,0x3a,0x0c,0x52,0x50,0x47,0x3a,0x3a,0x53,0x45,0x08,0x3a,0x0a,0x40,0x6e,0x61,0x6d,0x65,0x49,0x22,0x0a,0x49,0x74,0x65,0x6d,0x31,0x06,0x3a,0x06,0x45,0x54,0x3a,0x0b,0x40,0x70,0x69,0x74,0x63,0x68,0x69,0x69,0x3a,0x0c,0x40,0x76,0x6f,0x6c,0x75,0x6d,0x65,0x69,0x55))
    ChangeInventory_Item(25,0,0,1)
    0()
   EndIf()
   0()
  EndIf()
  If(1,3097,0,100,1)
   If(1,4097,0,1,0)
    ChangeVariable(4097,4097,0,0,2)
    ShowMessageFace("fairy_fc1",0,0,2,2)
    ShowMessage("\\n<Fell (Affection:\\V[3097])>これ、あげる♪ ありがとうの気持ちだよ♪")
    250(bytes(0x04,0x08,0x6f,0x3a,0x0c,0x52,0x50,0x47,0x3a,0x3a,0x53,0x45,0x08,0x3a,0x0a,0x40,0x6e,0x61,0x6d,0x65,0x49,0x22,0x0a,0x49,0x74,0x65,0x6d,0x31,0x06,0x3a,0x06,0x45,0x54,0x3a,0x0b,0x40,0x70,0x69,0x74,0x63,0x68,0x69,0x69,0x3a,0x0c,0x40,0x76,0x6f,0x6c,0x75,0x6d,0x65,0x69,0x55))
    ChangeInventoryArmor(1036,0,0,1,false)
    0()
   EndIf()
   0()
  EndIf()
  If(1,3097,0,500,1)
   If(1,4097,0,2,0)
    ChangeVariable(4097,4097,0,0,3)
    ShowMessageFace("fairy_fc1",0,0,2,3)
    ShowMessage("\\n<Fell (Affection:\\V[3097])>これ、あげる♪ ありがとうの気持ちだよ♪")
    250(bytes(0x04,0x08,0x6f,0x3a,0x0c,0x52,0x50,0x47,0x3a,0x3a,0x53,0x45,0x08,0x3a,0x0a,0x40,0x6e,0x61,0x6d,0x65,0x49,0x22,0x0a,0x49,0x74,0x65,0x6d,0x31,0x06,0x3a,0x06,0x45,0x54,0x3a,0x0b,0x40,0x70,0x69,0x74,0x63,0x68,0x69,0x69,0x3a,0x0c,0x40,0x76,0x6f,0x6c,0x75,0x6d,0x65,0x69,0x55))
    ChangeInventoryArmor(1372,0,0,1,false)
    0()
   EndIf()
   0()
  EndIf()
  If(1,3097,0,2000,1)
   If(1,4097,0,3,0)
    ChangeVariable(4097,4097,0,0,4)
    355("actor_label_jump")
    ShowMessageFace("fairy_fc1",0,0,2,4)
    ShowMessage("\\n<Fell (Affection:\\V[3097])>これ、あげる♪ ありがとうの気持ちだよ♪")
    250(bytes(0x04,0x08,0x6f,0x3a,0x0c,0x52,0x50,0x47,0x3a,0x3a,0x53,0x45,0x08,0x3a,0x0a,0x40,0x6e,0x61,0x6d,0x65,0x49,0x22,0x0a,0x49,0x74,0x65,0x6d,0x31,0x06,0x3a,0x06,0x45,0x54,0x3a,0x0b,0x40,0x70,0x69,0x74,0x63,0x68,0x69,0x69,0x3a,0x0c,0x40,0x76,0x6f,0x6c,0x75,0x6d,0x65,0x69,0x55))
    ChangeInventoryArmor(1174,0,0,1,false)
    0()
   EndIf()
   0()
  EndIf()
  ShowMessageFace("fairy_fc1",0,0,2,5)
  ShowMessage("\\n<Fell (Affection:\\V[3097])>ねぇ、いっしょに遊ぼうよ～♪")
  JumpToLabel("メニュー")
  DefineLabel("88")
  ShowMessageFace("fairy_fc1",0,0,2,6)
  ShowMessage("\\n<Fell (Affection:\\V[3097])>わ～い、かぼちゃちゃんだ～！")
  ShowMessageFace("jack_fc1",1,0,2,7)
  ShowMessage("\\n<Pumpkin (Affection:\\V[3088])>いっしょに、あそぼう……")
  ShowMessageFace("",0,0,2,8)
  ShowMessage("妖精達は楽しそうに遊んでいる……")
  JumpToLabel("メニュー")
  DefineLabel("136")
  ShowMessageFace("fairy_fc1",0,0,2,9)
  ShowMessage("\\n<Fell (Affection:\\V[3097])>わ～い、エルフおねえちゃんだ～♪")
  ShowMessageFace("elf_fc1",0,0,2,10)
  ShowMessage("\\n<Claudia (Affection:\\V[3136])>あんまり、迷いの森に行かないようにね。 あそこにはダークエルフもいるんだから。")
  ShowMessageFace("fairy_fc1",0,0,2,11)
  ShowMessage("\\n<Fell (Affection:\\V[3097])>だいじょうぶ！ ダークエルフのおねえちゃんも、やさしいよ♪")
  ShowMessageFace("elf_fc1",0,0,2,12)
  ShowMessage("\\n<Claudia (Affection:\\V[3136])>まったく、もう……")
  JumpToLabel("メニュー")
  DefineLabel("174")
  ShowMessageFace("fairy_fc1",0,0,2,13)
  ShowMessage("\\n<Fell (Affection:\\V[3097])>わぁ、おっき～い！")
  ShowMessageFace("sandw_fc1",0,0,2,14)
  ShowMessage("\\n<Dahlia (Affection:\\V[3174])>ちっちゃい……")
  ShowMessageFace("fairy_fc1",0,0,2,15)
  ShowMessage("\\n<Fell (Affection:\\V[3097])>ねぇねぇ、何をたべたらそんなに大きくなるの？")
  ShowMessageFace("sandw_fc1",0,0,2,16)
  ShowMessage("\\n<Dahlia (Affection:\\V[3174])>……砂？")
  ShowMessageFace("fairy_fc1",2,0,2,17)
  ShowMessage("\\n<Fell (Affection:\\V[3097])>じゃあ、あたしも砂をたべる～！ じゃりじゃり……まっず～い！")
  ShowMessageFace("sandw_fc1",1,0,2,18)
  ShowMessage("\\n<Dahlia (Affection:\\V[3174])>（……おいしそう……）")
  JumpToLabel("メニュー")
  DefineLabel("150")
  ShowMessageFace("fairy_fc1",2,0,2,19)
  ShowMessage("\\n<Fell (Affection:\\V[3097])>おねえさん、けがしちゃったの……？")
  ShowMessageFace("mummy_fc1",0,0,2,20)
  ShowMessage("\\n<Patra (Affection:\\V[3150])>これは怪我ではない…… この包帯は呪符の働きをし、魔力を高めているのだ……")
  ShowMessageFace("fairy_fc1",0,0,2,21)
  ShowMessage("\\n<Fell (Affection:\\V[3097])>すごい！　あたしにも巻いて！　巻いて！")
  ShowMessageFace("mummy_fc1",0,0,2,22)
  ShowMessage("\\n<Patra (Affection:\\V[3150])>わかった……まきまき……")
  ShowMessageFace("fairy_fc1",2,0,2,23)
  ShowMessage("\\n<Fell (Affection:\\V[3097])>むぐむぐ！　むぐむぐ～！")
  ShowMessageFace("mummy_fc1",2,0,2,24)
  ShowMessage("\\n<Patra (Affection:\\V[3150])>巻きすぎたか……？")
  JumpToLabel("メニュー")
  DefineLabel("メニュー")
  StartLoop()
   355("unlimited_choices(11, [\"Give presents\",")
   655("\"Add to party\",")
   655("\"View present list\",\"Request\",")
   655("\"Never mind\"])")
   If(1,11,0,0,0)
    355("present_start(97)")
    0()
   EndIf()
   If(1,11,0,1,0)
    PictureClear(5)
    355("move_actor_ex(97)")
    EndEventProcessing()
    0()
   EndIf()
   If(1,11,0,2,0)
    ShowMessageFace("",0,0,2,25)
    ShowMessage("Affection   10:不思議な木の実")
    ShowMessage("Affection  100:銀の腕輪")
    ShowMessage("Affection  500:自然感応の書")
    ShowMessage("Affection 2000:生け贄の松明")
    0()
   EndIf()
   If(1,11,0,3,0)
    PictureClear(5)
    ShowMessageFace("",0,0,2,26)
    ShowMessage("Ask her for what? (Affection:\\V[3097])")
    ShowChoices(strings("Succubus Flower(Affection:10）","Fairy Hug(Affection:100）","Never mind"),3)
    IfPlayerPicksChoice(0,null)
     If(1,3097,0,10,1)
      355("call_novel_scene(4276)")
      EndEventProcessing()
      0()
     Else()
      ShowMessageFace("fairy_fc1",0,0,2,27)
      ShowMessage("\\n<Fell (Affection:\\V[3097])>また今度ね～♪")
      0()
     EndIf()
     0()
    IfPlayerPicksChoice(1,null)
     If(1,3097,0,100,1)
      355("call_novel_scene(4277)")
      EndEventProcessing()
      0()
     Else()
      ShowMessageFace("fairy_fc1",0,0,2,28)
      ShowMessage("\\n<Fell (Affection:\\V[3097])>また今度ね～♪")
      0()
     EndIf()
     0()
    IfPlayerPicksChoice(2,null)
     0()
    404()
    0()
   EndIf()
   If(1,11,0,4,1)
    PictureClear(5)
    EndEventProcessing()
    0()
   EndIf()
   0()
  EndLoop()
  0()
 PAGE   2
  // condition: party contains actor #97
  0()



EVENT   20
 PAGE   1
  // condition: switch 1137 is ON
  PictureDisplay(5,"80_braunys_st01",0,0,0,0,100,100,0,0)
  PictureMove(5,null,0,0,0,0,100,100,255,0,30,true)
  If(1,3137,0,10,1)
   If(1,4137,0,0,0)
    ChangeVariable(4137,4137,0,0,1)
    ShowMessageFace("braunys_fc1",6,0,2,1)
    ShowMessage("\\n<Love & Lamb (Affection:\\V[3137])>二人で選んだプレゼントだよ♪ 大切にしてね♪")
    250(bytes(0x04,0x08,0x6f,0x3a,0x0c,0x52,0x50,0x47,0x3a,0x3a,0x53,0x45,0x08,0x3a,0x0a,0x40,0x6e,0x61,0x6d,0x65,0x49,0x22,0x0a,0x49,0x74,0x65,0x6d,0x31,0x06,0x3a,0x06,0x45,0x54,0x3a,0x0b,0x40,0x70,0x69,0x74,0x63,0x68,0x69,0x69,0x3a,0x0c,0x40,0x76,0x6f,0x6c,0x75,0x6d,0x65,0x69,0x55))
    ChangeInventory_Item(28,0,0,1)
    0()
   EndIf()
   0()
  EndIf()
  If(1,3137,0,100,1)
   If(1,4137,0,1,0)
    ChangeVariable(4137,4137,0,0,2)
    ShowMessageFace("braunys_fc1",6,0,2,2)
    ShowMessage("\\n<Love & Lamb (Affection:\\V[3137])>二人で選んだプレゼントだよ♪ 大切にしてね♪")
    250(bytes(0x04,0x08,0x6f,0x3a,0x0c,0x52,0x50,0x47,0x3a,0x3a,0x53,0x45,0x08,0x3a,0x0a,0x40,0x6e,0x61,0x6d,0x65,0x49,0x22,0x0a,0x49,0x74,0x65,0x6d,0x31,0x06,0x3a,0x06,0x45,0x54,0x3a,0x0b,0x40,0x70,0x69,0x74,0x63,0x68,0x69,0x69,0x3a,0x0c,0x40,0x76,0x6f,0x6c,0x75,0x6d,0x65,0x69,0x55))
    ChangeInventoryArmor(1041,0,0,1,false)
    0()
   EndIf()
   0()
  EndIf()
  If(1,3137,0,500,1)
   If(1,4137,0,2,0)
    ChangeVariable(4137,4137,0,0,3)
    ShowMessageFace("braunys_fc1",6,0,2,3)
    ShowMessage("\\n<Love & Lamb (Affection:\\V[3137])>二人で選んだプレゼントだよ♪ 大切にしてね♪")
    250(bytes(0x04,0x08,0x6f,0x3a,0x0c,0x52,0x50,0x47,0x3a,0x3a,0x53,0x45,0x08,0x3a,0x0a,0x40,0x6e,0x61,0x6d,0x65,0x49,0x22,0x0a,0x49,0x74,0x65,0x6d,0x31,0x06,0x3a,0x06,0x45,0x54,0x3a,0x0b,0x40,0x70,0x69,0x74,0x63,0x68,0x69,0x69,0x3a,0x0c,0x40,0x76,0x6f,0x6c,0x75,0x6d,0x65,0x69,0x55))
    ChangeInventoryArmor(1042,0,0,1,false)
    0()
   EndIf()
   0()
  EndIf()
  If(1,3137,0,2000,1)
   If(1,4137,0,3,0)
    ChangeVariable(4137,4137,0,0,4)
    ShowMessageFace("braunys_fc1",6,0,2,4)
    ShowMessage("\\n<Love & Lamb (Affection:\\V[3137])>二人で選んだプレゼントだよ♪ 大切にしてね♪")
    250(bytes(0x04,0x08,0x6f,0x3a,0x0c,0x52,0x50,0x47,0x3a,0x3a,0x53,0x45,0x08,0x3a,0x0a,0x40,0x6e,0x61,0x6d,0x65,0x49,0x22,0x0a,0x49,0x74,0x65,0x6d,0x31,0x06,0x3a,0x06,0x45,0x54,0x3a,0x0b,0x40,0x70,0x69,0x74,0x63,0x68,0x69,0x69,0x3a,0x0c,0x40,0x76,0x6f,0x6c,0x75,0x6d,0x65,0x69,0x55))
    ChangeInventoryArmor(1008,0,0,1,false)
    0()
   EndIf()
   0()
  EndIf()
  355("actor_label_jump")
  ShowMessageFace("braunys_fc1",6,0,2,5)
  ShowMessage("\\n<Love & Lamb (Affection:\\V[3137])>あたし達も、遊びに行きたいよ～！ 連れて行ってくれなかったら、ここで暴れちゃうぞ！")
  JumpToLabel("メニュー")
  DefineLabel("13")
  ShowMessageFace("braunys_fc1",6,0,2,6)
  ShowMessage("\\n<Love & Lamb (Affection:\\V[3137])>わーい、ノームちゃんだ！")
  ShowMessageFace("gnome_fc1",0,0,2,7)
  ShowMessage("\\n<Gnome (Affection:\\V[3013])>……………………")
  ShowMessageFace("braunys_fc1",6,0,2,8)
  ShowMessage("\\n<Love & Lamb (Affection:\\V[3137])>砂山つくろ！　大きい方が勝ちね！")
  ShowMessageFace("gnome_fc1",0,0,2,9)
  ShowMessage("\\n<Gnome (Affection:\\V[3013])>……………………")
  ShowMessageFace("",0,0,2,10)
  ShowMessage("ノームとブラウニーズは楽しそうに？遊んでいる……")
  JumpToLabel("メニュー")
  DefineLabel("136")
  ShowMessageFace("elf_fc1",0,0,2,11)
  ShowMessage("\\n<Claudia (Affection:\\V[3136])>こら！　そこの壁を壊したの、あなた達でしょ！")
  ShowMessageFace("braunys_fc1",2,0,2,12)
  ShowMessage("\\n<Love (Affection:\\V[3137])>あたし達、悪くないよ！ 壁が柔らかかったの！")
  ShowMessageFace("braunys_fc1",5,0,2,13)
  ShowMessage("\\n<Lamb (Affection:\\V[3137])>にげろー！")
  ShowMessageFace("elf_fc1",0,0,2,14)
  ShowMessage("\\n<Claudia (Affection:\\V[3136])>待ちなさい……！")
  ShowMessageFace("braunys_fc2",0,0,2,15)
  ShowMessage("\\n<Love (Affection:\\V[3137])>タックルー！")
  ShowMessageFace("elf_fc1",0,0,2,16)
  ShowMessage("\\n<Claudia (Affection:\\V[3136])>きゃーっ！")
  250(bytes(0x04,0x08,0x6f,0x3a,0x0c,0x52,0x50,0x47,0x3a,0x3a,0x53,0x45,0x08,0x3a,0x0a,0x40,0x6e,0x61,0x6d,0x65,0x49,0x22,0x0e,0x6d,0x6f,0x6e,0x5f,0x66,0x61,0x6c,0x6c,0x31,0x06,0x3a,0x06,0x45,0x54,0x3a,0x0b,0x40,0x70,0x69,0x74,0x63,0x68,0x69,0x69,0x3a,0x0c,0x40,0x76,0x6f,0x6c,0x75,0x6d,0x65,0x69,0x69))
  ShowMessageFace("",0,0,2,17)
  ShowMessage("ブラウニーズはエルフにタックルした！ エルフは吹っ飛んでいった……")
  JumpToLabel("メニュー")
  DefineLabel("138")
  ShowMessageFace("tfairy_fc1",1,0,2,18)
  ShowMessage("\\n<Milly & Liru (Affection:\\V[3138])>わ～い、あそぼうよ～！")
  ShowMessageFace("braunys_fc1",7,0,2,19)
  ShowMessage("\\n<Love & Lamb (Affection:\\V[3137])>あそぼう！　あそぼう！")
  ShowMessageFace("tfairy_fc1",1,0,2,20)
  ShowMessage("\\n<Milly & Liru (Affection:\\V[3138])>たつまき、ぐるぐる～！")
  ShowMessageFace("braunys_fc1",7,0,2,21)
  ShowMessage("\\n<Love & Lamb (Affection:\\V[3137])>タックル、どっかーん！")
  If(0,1136,0)
   ShowMessageFace("elf_fc1",0,0,2,22)
   ShowMessage("\\n<Claudia (Affection:\\V[3136])>こら！　暴れるのはやめなさい！")
   ShowMessageFace("sonia_fc2",2,0,2,23)
   ShowMessage("\\n<Sonya>あ……私のセリフが……")
   0()
  EndIf()
  JumpToLabel("メニュー")
  DefineLabel("メニュー")
  StartLoop()
   355("unlimited_choices(11, [\"Give presents\",")
   655("\"Add to party\",")
   655("\"View present list\",\"Request\",")
   655("\"Never mind\"])")
   If(1,11,0,0,0)
    355("present_start(137)")
    0()
   EndIf()
   If(1,11,0,1,0)
    PictureClear(5)
    355("move_actor_ex(137)")
    EndEventProcessing()
    0()
   EndIf()
   If(1,11,0,2,0)
    ShowMessageFace("",0,0,2,24)
    ShowMessage("Affection   10:魔力の種")
    ShowMessage("Affection  100:細心の首飾り")
    ShowMessage("Affection  500:職人の首飾り")
    ShowMessage("Affection 2000:スターオーブ")
    0()
   EndIf()
   If(1,11,0,3,0)
    PictureClear(5)
    ShowMessageFace("",0,0,2,25)
    ShowMessage("Ask her for what? (Affection:\\V[3137])")
    ShowChoices(strings("Double Blowjob(Affection:10）","Never mind"),2)
    IfPlayerPicksChoice(0,null)
     If(1,3137,0,10,1)
      355("call_novel_scene(4481)")
      EndEventProcessing()
      0()
     Else()
      ShowMessageFace("braunys_fc2",0,0,2,26)
      ShowMessage("\\n<Love & Lamb (Affection:\\V[3137])>今は、暴れたい気分だもんね～！")
      0()
     EndIf()
     0()
    IfPlayerPicksChoice(1,null)
     0()
    404()
    0()
   EndIf()
   If(1,11,0,4,1)
    PictureClear(5)
    EndEventProcessing()
    0()
   EndIf()
   0()
  EndLoop()
  0()
 PAGE   2
  // condition: party contains actor #137
  0()



EVENT   24
 PAGE   1
  // condition: switch 1139 is ON
  PictureDisplay(5,"80_fairys_st61",0,0,0,0,100,100,0,0)
  PictureMove(5,null,0,0,0,0,100,100,255,0,30,true)
  If(1,3139,0,10,1)
   If(1,4139,0,0,0)
    ChangeVariable(4139,4139,0,0,1)
    ShowMessageFace("fairys_fc1",3,0,2,1)
    ShowMessage("\\n<Fairies (Affection:\\V[3139])>森の妖精達から、プレゼント♪ またいっぱい遊ぼうね♪")
    250(bytes(0x04,0x08,0x6f,0x3a,0x0c,0x52,0x50,0x47,0x3a,0x3a,0x53,0x45,0x08,0x3a,0x0a,0x40,0x6e,0x61,0x6d,0x65,0x49,0x22,0x0a,0x49,0x74,0x65,0x6d,0x31,0x06,0x3a,0x06,0x45,0x54,0x3a,0x0b,0x40,0x70,0x69,0x74,0x63,0x68,0x69,0x69,0x3a,0x0c,0x40,0x76,0x6f,0x6c,0x75,0x6d,0x65,0x69,0x55))
    ChangeInventory_Item(12,0,0,1)
    0()
   EndIf()
   0()
  EndIf()
  If(1,3139,0,100,1)
   If(1,4139,0,1,0)
    ChangeVariable(4139,4139,0,0,2)
    ShowMessageFace("fairys_fc1",3,0,2,2)
    ShowMessage("\\n<Fairies (Affection:\\V[3139])>森の妖精達から、プレゼント♪ またいっぱい遊ぼうね♪")
    250(bytes(0x04,0x08,0x6f,0x3a,0x0c,0x52,0x50,0x47,0x3a,0x3a,0x53,0x45,0x08,0x3a,0x0a,0x40,0x6e,0x61,0x6d,0x65,0x49,0x22,0x0a,0x49,0x74,0x65,0x6d,0x31,0x06,0x3a,0x06,0x45,0x54,0x3a,0x0b,0x40,0x70,0x69,0x74,0x63,0x68,0x69,0x69,0x3a,0x0c,0x40,0x76,0x6f,0x6c,0x75,0x6d,0x65,0x69,0x55))
    ChangeInventoryArmor(1113,0,0,1,false)
    0()
   EndIf()
   0()
  EndIf()
  If(1,3139,0,500,1)
   If(1,4139,0,2,0)
    ChangeVariable(4139,4139,0,0,3)
    ShowMessageFace("fairys_fc1",3,0,2,3)
    ShowMessage("\\n<Fairies (Affection:\\V[3139])>森の妖精達から、プレゼント♪ またいっぱい遊ぼうね♪")
    250(bytes(0x04,0x08,0x6f,0x3a,0x0c,0x52,0x50,0x47,0x3a,0x3a,0x53,0x45,0x08,0x3a,0x0a,0x40,0x6e,0x61,0x6d,0x65,0x49,0x22,0x0a,0x49,0x74,0x65,0x6d,0x31,0x06,0x3a,0x06,0x45,0x54,0x3a,0x0b,0x40,0x70,0x69,0x74,0x63,0x68,0x69,0x69,0x3a,0x0c,0x40,0x76,0x6f,0x6c,0x75,0x6d,0x65,0x69,0x55))
    ChangeInventoryArmor(1372,0,0,1,false)
    0()
   EndIf()
   0()
  EndIf()
  If(1,3139,0,2000,1)
   If(1,4139,0,3,0)
    ChangeVariable(4139,4139,0,0,4)
    ShowMessageFace("fairys_fc1",3,0,2,4)
    ShowMessage("\\n<Fairies (Affection:\\V[3139])>森の妖精達から、プレゼント♪ またいっぱい遊ぼうね♪")
    250(bytes(0x04,0x08,0x6f,0x3a,0x0c,0x52,0x50,0x47,0x3a,0x3a,0x53,0x45,0x08,0x3a,0x0a,0x40,0x6e,0x61,0x6d,0x65,0x49,0x22,0x0a,0x49,0x74,0x65,0x6d,0x31,0x06,0x3a,0x06,0x45,0x54,0x3a,0x0b,0x40,0x70,0x69,0x74,0x63,0x68,0x69,0x69,0x3a,0x0c,0x40,0x76,0x6f,0x6c,0x75,0x6d,0x65,0x69,0x55))
    ChangeInventoryArmor(1455,0,0,1,false)
    0()
   EndIf()
   0()
  EndIf()
  355("actor_label_jump")
  ShowMessageFace("fairys_fc1",3,0,2,5)
  ShowMessage("\\n<Fairies (Affection:\\V[3139])>みんなであそぼうよ～！")
  JumpToLabel("メニュー")
  DefineLabel("136")
  ShowMessageFace("elf_fc1",0,0,2,6)
  ShowMessage("\\n<Claudia (Affection:\\V[3136])>こら、満月草を盗み食いしたのはあなた達ね！")
  ShowMessageFace("fairys_fc1",3,0,2,7)
  ShowMessage("\\n<Fairies (Affection:\\V[3139])>わ～い、にげろ～！")
  ShowMessageFace("elf_fc1",0,0,2,8)
  ShowMessage("\\n<Claudia (Affection:\\V[3136])>まったく、いたずらばっかり…… ……きゃぁっ！？")
  250(bytes(0x04,0x08,0x6f,0x3a,0x0c,0x52,0x50,0x47,0x3a,0x3a,0x53,0x45,0x08,0x3a,0x0a,0x40,0x6e,0x61,0x6d,0x65,0x49,0x22,0x0e,0x6d,0x6f,0x6e,0x5f,0x66,0x61,0x6c,0x6c,0x31,0x06,0x3a,0x06,0x45,0x54,0x3a,0x0b,0x40,0x70,0x69,0x74,0x63,0x68,0x69,0x69,0x3a,0x0c,0x40,0x76,0x6f,0x6c,0x75,0x6d,0x65,0x69,0x69))
  ShowMessageFace("",0,0,2,9)
  ShowMessage("エルフは落とし穴に落ちてしまった！")
  ShowMessageFace("fairys_fc3",0,0,2,10)
  ShowMessage("\\n<Fairies (Affection:\\V[3139])>落とし穴～♪")
  249(bytes(0x04,0x08,0x6f,0x3a,0x0c,0x52,0x50,0x47,0x3a,0x3a,0x4d,0x45,0x08,0x3a,0x0a,0x40,0x6e,0x61,0x6d,0x65,0x49,0x22,0x09,0x6c,0x76,0x75,0x70,0x06,0x3a,0x06,0x45,0x54,0x3a,0x0b,0x40,0x70,0x69,0x74,0x63,0x68,0x69,0x69,0x3a,0x0c,0x40,0x76,0x6f,0x6c,0x75,0x6d,0x65,0x69,0x69))
  ShowMessageFace("fairys_fc1",0,0,2,11)
  ShowMessage("\\n<Fairies (Affection:\\V[3139])>エルフお姉ちゃんをやっつけた！")
  JumpToLabel("メニュー")
  DefineLabel("168")
  ShowMessageFace("fairys_fc1",3,0,2,12)
  ShowMessage("\\n<Fairies (Affection:\\V[3139])>わぁ～！　目がいっぱい～！ これ、ぜんぶ見えてるの？")
  ShowMessageFace("dodome_fc1",0,0,2,13)
  ShowMessage("\\n<Manako (Affection:\\V[3168])>ふふふっ、もちろんよ。 遠くだって見えるんだからね。")
  ShowMessageFace("fairys_fc1",3,0,2,14)
  ShowMessage("\\n<Fairies (Affection:\\V[3139])>じゃあ、かくれんぼも負けないの？")
  ShowMessageFace("dodome_fc1",0,0,2,15)
  ShowMessage("\\n<Manako (Affection:\\V[3168])>いや、見つけるのはいいんだけど…… 閉所は怖いから、隠れるのは苦手なのよ。")
  JumpToLabel("メニュー")
  DefineLabel("181")
  ShowMessageFace("fairys_fc1",0,0,2,16)
  ShowMessage("\\n<Fairies (Affection:\\V[3139])>わぁ、おっきな絵！ いたずら描きしちゃえ～！")
  ShowMessageFace("fairys_fc2",1,0,2,17)
  ShowMessage("\\n<Fairies (Affection:\\V[3139])>お花も描いちゃえ♪ お日様も描いちゃえ～♪")
  ShowMessageFace("gaistvine_fc1",1,0,2,18)
  ShowMessage("\\n<Lisa (Affection:\\V[3181])>や、やめなさい！ 芸術を介さない連中が、なんて事を……！")
  ShowMessageFace("gaistvine_fc1",0,0,2,19)
  ShowMessage("\\n<Lisa (Affection:\\V[3181])>いや、これもなかなかの芸術ね……")
  ShowMessageFace("fairys_fc3",0,0,2,20)
  ShowMessage("\\n<Fairies (Affection:\\V[3139])>水をかけちゃえ～♪")
  ShowMessageFace("gaistvine_fc1",1,0,2,21)
  ShowMessage("\\n<Lisa (Affection:\\V[3181])>そ、それはダメー！")
  JumpToLabel("メニュー")
  DefineLabel("メニュー")
  StartLoop()
   355("unlimited_choices(11, [\"Give presents\",")
   655("\"Add to party\",")
   655("\"View present list\",\"Request\",")
   655("\"Never mind\"])")
   If(1,11,0,0,0)
    355("present_start(139)")
    0()
   EndIf()
   If(1,11,0,1,0)
    PictureClear(5)
    355("move_actor_ex(139)")
    EndEventProcessing()
    0()
   EndIf()
   If(1,11,0,2,0)
    ShowMessageFace("",0,0,2,22)
    ShowMessage("Affection   10:世界樹の葉")
    ShowMessage("Affection  100:ライトリング")
    ShowMessage("Affection  500:自然感応の書")
    ShowMessage("Affection 2000:ミニマムの印")
    0()
   EndIf()
   If(1,11,0,3,0)
    PictureClear(5)
    ShowMessageFace("",0,0,2,23)
    ShowMessage("Ask her for what? (Affection:\\V[3139])")
    ShowChoices(strings("Group Tickle(Affection:10）","Never mind"),2)
    IfPlayerPicksChoice(0,null)
     If(1,3139,0,10,1)
      355("call_novel_scene(4491)")
      EndEventProcessing()
      0()
     Else()
      ShowMessageFace("fairys_fc1",3,0,2,24)
      ShowMessage("\\n<Fairies (Affection:\\V[3139])>今は、別のあそびにしようよ～！")
      0()
     EndIf()
     0()
    IfPlayerPicksChoice(1,null)
     0()
    404()
    0()
   EndIf()
   If(1,11,0,4,1)
    PictureClear(5)
    EndEventProcessing()
    0()
   EndIf()
   0()
  EndLoop()
  0()
 PAGE   2
  // condition: party contains actor #139
  0()



EVENT   18
 PAGE   1
  // condition: switch 1012 is ON
  PictureDisplay(5,"80_sylph_st01",0,0,0,0,100,100,0,0)
  PictureMove(5,null,0,0,0,0,100,100,255,0,30,true)
  If(1,3012,0,10,1)
   If(1,4012,0,0,0)
    ChangeVariable(4012,4012,0,0,1)
    ShowMessageFace("sylph_fc1",0,0,2,1)
    ShowMessage("\\n<Sylph (Affection:\\V[3012])>これ、ルカにあげる♪")
    250(bytes(0x04,0x08,0x6f,0x3a,0x0c,0x52,0x50,0x47,0x3a,0x3a,0x53,0x45,0x08,0x3a,0x0a,0x40,0x6e,0x61,0x6d,0x65,0x49,0x22,0x0a,0x49,0x74,0x65,0x6d,0x31,0x06,0x3a,0x06,0x45,0x54,0x3a,0x0b,0x40,0x70,0x69,0x74,0x63,0x68,0x69,0x69,0x3a,0x0c,0x40,0x76,0x6f,0x6c,0x75,0x6d,0x65,0x69,0x55))
    ChangeInventory_Item(30,0,0,1)
    0()
   EndIf()
   0()
  EndIf()
  If(1,3012,0,100,1)
   If(1,4012,0,1,0)
    ChangeVariable(4012,4012,0,0,2)
    ShowMessageFace("sylph_fc1",0,0,2,2)
    ShowMessage("\\n<Sylph (Affection:\\V[3012])>これ、ルカにあげる♪")
    250(bytes(0x04,0x08,0x6f,0x3a,0x0c,0x52,0x50,0x47,0x3a,0x3a,0x53,0x45,0x08,0x3a,0x0a,0x40,0x6e,0x61,0x6d,0x65,0x49,0x22,0x0a,0x49,0x74,0x65,0x6d,0x31,0x06,0x3a,0x06,0x45,0x54,0x3a,0x0b,0x40,0x70,0x69,0x74,0x63,0x68,0x69,0x69,0x3a,0x0c,0x40,0x76,0x6f,0x6c,0x75,0x6d,0x65,0x69,0x55))
    ChangeInventoryArmor(1036,0,0,1,false)
    0()
   EndIf()
   0()
  EndIf()
  If(1,3012,0,500,1)
   If(1,4012,0,2,0)
    ChangeVariable(4012,4012,0,0,3)
    ShowMessageFace("sylph_fc1",0,0,2,3)
    ShowMessage("\\n<Sylph (Affection:\\V[3012])>これ、ルカにあげる♪")
    250(bytes(0x04,0x08,0x6f,0x3a,0x0c,0x52,0x50,0x47,0x3a,0x3a,0x53,0x45,0x08,0x3a,0x0a,0x40,0x6e,0x61,0x6d,0x65,0x49,0x22,0x0a,0x49,0x74,0x65,0x6d,0x31,0x06,0x3a,0x06,0x45,0x54,0x3a,0x0b,0x40,0x70,0x69,0x74,0x63,0x68,0x69,0x69,0x3a,0x0c,0x40,0x76,0x6f,0x6c,0x75,0x6d,0x65,0x69,0x55))
    ChangeInventoryArmor(1252,0,0,1,false)
    0()
   EndIf()
   0()
  EndIf()
  If(1,3012,0,2000,1)
   If(1,4012,0,3,0)
    ChangeVariable(4012,4012,0,0,4)
    ShowMessageFace("sylph_fc1",0,0,2,4)
    ShowMessage("\\n<Sylph (Affection:\\V[3012])>これ、ルカにあげる♪")
    250(bytes(0x04,0x08,0x6f,0x3a,0x0c,0x52,0x50,0x47,0x3a,0x3a,0x53,0x45,0x08,0x3a,0x0a,0x40,0x6e,0x61,0x6d,0x65,0x49,0x22,0x0a,0x49,0x74,0x65,0x6d,0x31,0x06,0x3a,0x06,0x45,0x54,0x3a,0x0b,0x40,0x70,0x69,0x74,0x63,0x68,0x69,0x69,0x3a,0x0c,0x40,0x76,0x6f,0x6c,0x75,0x6d,0x65,0x69,0x55))
    ChangeInventoryArmor(1205,0,0,1,false)
    0()
   EndIf()
   0()
  EndIf()
  355("actor_label_jump")
  ShowMessageFace("sylph_fc1",0,0,2,5)
  ShowMessage("\\n<Sylph (Affection:\\V[3012])>ねぇ、あたしも遊びにいきたいな～♪")
  JumpToLabel("メニュー")
  DefineLabel("13")
  ShowMessageFace("sylph_fc1",0,0,2,6)
  ShowMessage("\\n<Sylph (Affection:\\V[3012])>わーい、ノームちゃんだー！")
  ShowMessageFace("gnome_fc1",1,0,2,7)
  ShowMessage("\\n<Gnome (Affection:\\V[3013])>……………………")
  ShowMessageFace("sylph_fc1",0,0,2,8)
  ShowMessage("\\n<Sylph (Affection:\\V[3012])>ねぇねぇ、一緒に森でピクニックしようよ！")
  ShowMessageFace("gnome_fc1",1,0,2,9)
  ShowMessage("\\n<Gnome (Affection:\\V[3013])>……………………")
  ShowMessageFace("sylph_fc1",3,0,2,10)
  ShowMessage("\\n<Sylph (Affection:\\V[3012])>うん、そうだね！")
  ShowMessageFace("ruka_fc1",0,0,2,11)
  ShowMessage("\\n<Luka>（本当に通じてるんだろうか……）")
  ShowMessageFace("gnome_fc1",1,0,2,12)
  ShowMessage("\\n<Gnome (Affection:\\V[3013])>…………ＺＺＺ")
  ShowMessageFace("sylph_fc1",1,0,2,13)
  ShowMessage("\\n<Sylph (Affection:\\V[3012])>あれ？　寝てたの……？")
  ShowMessageFace("ruka_fc1",0,0,2,14)
  ShowMessage("\\n<Luka>（通じてなかった……）")
  JumpToLabel("メニュー")
  DefineLabel("41")
  ShowMessageFace("stein_fc2",1,0,2,15)
  ShowMessage("\\n<Promestein (Affection:\\V[3041])>風の精霊ですか、興味深いです…… 標本にしていいですか？")
  ShowMessageFace("sylph_fc1",4,0,2,16)
  ShowMessage("\\n<Sylph (Affection:\\V[3012])>イヤだよー！")
  ShowMessageFace("stein_fc2",1,0,2,17)
  ShowMessage("\\n<Promestein (Affection:\\V[3041])>それじゃあ、内臓をサンプルに頂けませんか？ 代わりにワタでも詰めておきますから……")
  ShowMessageFace("sylph_fc1",1,0,2,18)
  ShowMessage("\\n<Sylph (Affection:\\V[3012])>いいよ！")
  ShowMessageFace("sonia_fc3",2,0,2,19)
  ShowMessage("\\n<Sonya>ダメでしょー！")
  JumpToLabel("メニュー")
  DefineLabel("79")
  ShowMessageFace("sylph_fc1",0,0,2,20)
  ShowMessage("\\n<Sylph (Affection:\\V[3012])>あれ？　この子……")
  ShowMessageFace("nuruko_fc1",0,0,2,21)
  ShowMessage("\\n<Nuruko (Affection:\\V[3079])>…………？")
  ShowMessageFace("sylph_fc2",0,0,2,22)
  ShowMessage("\\n<Sylph (Affection:\\V[3012])>……なんだろ！？")
  ShowMessageFace("nuruko_fc1",2,0,2,23)
  ShowMessage("\\n<Nuruko (Affection:\\V[3079])>……………………")
  JumpToLabel("メニュー")
  DefineLabel("167")
  ShowMessageFace("sylph_fc2",0,0,2,24)
  ShowMessage("\\n<Sylph (Affection:\\V[3012])>ちぃぱっぱ♪")
  ShowMessageFace("lusia_fc1",2,0,2,25)
  ShowMessage("\\n<Lucia (Affection:\\V[3167])>これが風の精霊…… 頭はゆるそうですが、とてつもない魔力を秘めて……")
  ShowMessageFace("sylph_fc2",0,0,2,26)
  ShowMessage("\\n<Sylph (Affection:\\V[3012])>ちぱー！")
  ShowMessageFace("lusia_fc1",2,0,2,27)
  ShowMessage("\\n<Lucia (Affection:\\V[3167])>……いるのでしょうか？")
  JumpToLabel("メニュー")
  DefineLabel("173")
  ShowMessageFace("sylph_fc2",1,0,2,28)
  ShowMessage("\\n<Sylph (Affection:\\V[3012])>わわわ～！")
  ShowMessageFace("",0,0,2,29)
  ShowMessage("シルフの体は流砂に沈んでいく！")
  ShowMessageFace("arizigoku_fc1",2,0,2,30)
  ShowMessage("\\n<Helen (Affection:\\V[3173])>ああもう、また精霊が引っ掛かった…… 食べられないんだから、無駄な手間を取らせないで。")
  ShowMessageFace("sonia_fc2",3,0,2,31)
  ShowMessage("\\n<Sonya>また精霊が、って…… 他にしょっちゅう引っ掛かる精霊がいるの？")
  ShowMessageFace("gnome_fc1",1,0,2,32)
  ShowMessage("\\n<Gnome (Affection:\\V[3013])>……………………")
  JumpToLabel("メニュー")
  DefineLabel("メニュー")
  StartLoop()
   355("unlimited_choices(11, [\"Give presents\",")
   655("\"Add to party\",")
   655("\"View present list\",\"Request\",")
   655("\"Never mind\"])")
   If(1,11,0,0,0)
    355("present_start(12)")
    0()
   EndIf()
   If(1,11,0,1,0)
    PictureClear(5)
    355("move_actor_ex(12)")
    EndEventProcessing()
    0()
   EndIf()
   If(1,11,0,2,0)
    ShowMessageFace("",0,0,2,33)
    ShowMessage("Affection   10:素早さの種")
    ShowMessage("Affection  100:銀の腕輪")
    ShowMessage("Affection  500:風の書")
    ShowMessage("Affection 2000:風のシンボル")
    0()
   EndIf()
   If(1,11,0,3,0)
    PictureClear(5)
    ShowMessageFace("",0,0,2,34)
    ShowMessage("Ask her for what? (Affection:\\V[3012])")
    ShowChoices(strings("Fairy Hug(Affection:10）","Reverse rape(Affection:100）","Never mind"),3)
    IfPlayerPicksChoice(0,null)
     If(1,3012,0,10,1)
      355("call_novel_scene(4031)")
      EndEventProcessing()
      0()
     Else()
      ShowMessageFace("sylph_fc1",3,0,2,35)
      ShowMessage("\\n<Sylph (Affection:\\V[3012])>今日は風が強いから、また今度ね♪")
      0()
     EndIf()
     0()
    IfPlayerPicksChoice(1,null)
     If(1,3012,0,100,1)
      355("call_novel_scene(4032)")
      EndEventProcessing()
      0()
     Else()
      ShowMessageFace("sylph_fc1",3,0,2,36)
      ShowMessage("\\n<Sylph (Affection:\\V[3012])>今日は風が強いから、また今度ね♪")
      0()
     EndIf()
     0()
    IfPlayerPicksChoice(2,null)
     0()
    404()
    0()
   EndIf()
   If(1,11,0,4,1)
    PictureClear(5)
    EndEventProcessing()
    0()
   EndIf()
   0()
  EndLoop()
  0()
 PAGE   2
  // condition: party contains actor #12
  0()



EVENT   25
 PAGE   1
  // condition: switch 1111 is ON
  PictureDisplay(5,"80_suika_st02",0,0,0,0,100,100,0,0)
  PictureMove(5,null,0,0,0,0,100,100,255,0,30,true)
  If(1,3111,0,10,1)
   If(1,4111,0,0,0)
    ChangeVariable(4111,4111,0,0,1)
    ShowMessageFace("suika_fc1",0,0,2,1)
    ShowMessage("\\n<Melon (Affection:\\V[3111])>これ、あげる……♪ またスイカ一緒に食べようね♪")
    250(bytes(0x04,0x08,0x6f,0x3a,0x0c,0x52,0x50,0x47,0x3a,0x3a,0x53,0x45,0x08,0x3a,0x0a,0x40,0x6e,0x61,0x6d,0x65,0x49,0x22,0x0a,0x49,0x74,0x65,0x6d,0x31,0x06,0x3a,0x06,0x45,0x54,0x3a,0x0b,0x40,0x70,0x69,0x74,0x63,0x68,0x69,0x69,0x3a,0x0c,0x40,0x76,0x6f,0x6c,0x75,0x6d,0x65,0x69,0x55))
    ChangeInventoryWeapon(594,0,0,1,false)
    0()
   EndIf()
   0()
  EndIf()
  If(1,3111,0,100,1)
   If(1,4111,0,1,0)
    ChangeVariable(4111,4111,0,0,2)
    ShowMessageFace("suika_fc1",0,0,2,2)
    ShowMessage("\\n<Melon (Affection:\\V[3111])>これ、あげる……♪ またスイカ一緒に食べようね♪")
    250(bytes(0x04,0x08,0x6f,0x3a,0x0c,0x52,0x50,0x47,0x3a,0x3a,0x53,0x45,0x08,0x3a,0x0a,0x40,0x6e,0x61,0x6d,0x65,0x49,0x22,0x0a,0x49,0x74,0x65,0x6d,0x31,0x06,0x3a,0x06,0x45,0x54,0x3a,0x0b,0x40,0x70,0x69,0x74,0x63,0x68,0x69,0x69,0x3a,0x0c,0x40,0x76,0x6f,0x6c,0x75,0x6d,0x65,0x69,0x55))
    ChangeInventoryArmor(1113,0,0,1,false)
    0()
   EndIf()
   0()
  EndIf()
  If(1,3111,0,500,1)
   If(1,4111,0,2,0)
    ChangeVariable(4111,4111,0,0,3)
    ShowMessageFace("suika_fc1",0,0,2,3)
    ShowMessage("\\n<Melon (Affection:\\V[3111])>これ、あげる……♪ またスイカ一緒に食べようね♪")
    250(bytes(0x04,0x08,0x6f,0x3a,0x0c,0x52,0x50,0x47,0x3a,0x3a,0x53,0x45,0x08,0x3a,0x0a,0x40,0x6e,0x61,0x6d,0x65,0x49,0x22,0x0a,0x49,0x74,0x65,0x6d,0x31,0x06,0x3a,0x06,0x45,0x54,0x3a,0x0b,0x40,0x70,0x69,0x74,0x63,0x68,0x69,0x69,0x3a,0x0c,0x40,0x76,0x6f,0x6c,0x75,0x6d,0x65,0x69,0x55))
    ChangeInventoryArmor(1324,0,0,1,false)
    0()
   EndIf()
   0()
  EndIf()
  If(1,3111,0,2000,1)
   If(1,4111,0,3,0)
    ChangeVariable(4111,4111,0,0,4)
    ShowMessageFace("suika_fc1",0,0,2,4)
    ShowMessage("\\n<Melon (Affection:\\V[3111])>これ、あげる……♪ またスイカ一緒に食べようね♪")
    250(bytes(0x04,0x08,0x6f,0x3a,0x0c,0x52,0x50,0x47,0x3a,0x3a,0x53,0x45,0x08,0x3a,0x0a,0x40,0x6e,0x61,0x6d,0x65,0x49,0x22,0x0a,0x49,0x74,0x65,0x6d,0x31,0x06,0x3a,0x06,0x45,0x54,0x3a,0x0b,0x40,0x70,0x69,0x74,0x63,0x68,0x69,0x69,0x3a,0x0c,0x40,0x76,0x6f,0x6c,0x75,0x6d,0x65,0x69,0x55))
    ChangeInventoryArmor(1434,0,0,1,false)
    0()
   EndIf()
   0()
  EndIf()
  355("actor_label_jump")
  ShowMessageFace("suika_fc1",2,0,2,5)
  ShowMessage("\\n<Melon (Affection:\\V[3111])>スイカなのに、メロンって…… 私の親、どういうネーミングセンスしてるのかしら。")
  JumpToLabel("メニュー")
  DefineLabel("79")
  ShowMessageFace("suika_fc1",1,0,2,6)
  ShowMessage("\\n<Melon (Affection:\\V[3111])>スイカ、食べる？")
  ShowMessageFace("nuruko_fc1",0,0,2,7)
  ShowMessage("\\n<Nuruko (Affection:\\V[3079])>きゅ！")
  ShowMessageFace("suika_fc1",1,0,2,8)
  ShowMessage("\\n<Melon (Affection:\\V[3111])>交換にリンゴくれるの？ ありがとね～♪")
  ShowMessageFace("nuruko_fc1",0,0,2,9)
  ShowMessage("\\n<Nuruko (Affection:\\V[3079])>きゅー♪")
  JumpToLabel("メニュー")
  DefineLabel("88")
  ShowMessageFace("jack_fc1",0,0,2,10)
  ShowMessage("\\n<Pumpkin (Affection:\\V[3088])>わぁ、スイカだ……")
  ShowMessageFace("suika_fc1",1,0,2,11)
  ShowMessage("\\n<Melon (Affection:\\V[3111])>わぁ、かぼちゃだ～！ スイカ、食べる？")
  ShowMessageFace("jack_fc1",1,0,2,12)
  ShowMessage("\\n<Pumpkin (Affection:\\V[3088])>食べる…… でも、あたしのかぼちゃは食べちゃダメなの……")
  ShowMessageFace("suika_fc1",2,0,2,13)
  ShowMessage("\\n<Melon (Affection:\\V[3111])>そのかぼちゃ、そのまんま頭だからね……")
  JumpToLabel("メニュー")
  DefineLabel("92")
  ShowMessageFace("eater_fc1",0,0,2,14)
  ShowMessage("\\n<Eater (Affection:\\V[3092])>そのスイカ、おいしいの……？")
  ShowMessageFace("suika_fc1",1,0,2,15)
  ShowMessage("\\n<Melon (Affection:\\V[3111])>とってもおいしいよ……はい、あげる♪")
  ShowMessageFace("eater_fc1",1,0,2,16)
  ShowMessage("\\n<Eater (Affection:\\V[3092])>むしゃむしゃ……甘くて、おいしい！")
  ShowMessageFace("eater_fc1",3,0,2,17)
  ShowMessage("\\n<Eater (Affection:\\V[3092])>……………………")
  ShowMessageFace("suika_fc1",2,0,2,18)
  ShowMessage("\\n<Melon (Affection:\\V[3111])>なに、その「こいつ丸ごと食べるとおいしそう」みたいな目。 私は食べないでよね……？")
  JumpToLabel("メニュー")
  DefineLabel("147")
  ShowMessageFace("suika_fc1",1,0,2,19)
  ShowMessage("\\n<Melon (Affection:\\V[3111])>サボテンさん、おいしいスイカはどう？ はい、あげる♪")
  ShowMessageFace("saboten_fc1",0,0,2,20)
  ShowMessage("\\n<Casta (Affection:\\V[3147])>しゃくしゃく……甘くて美味です。 では、お礼にサボテンをどうぞ……")
  ShowMessageFace("suika_fc1",2,0,2,21)
  ShowMessage("\\n<Melon (Affection:\\V[3111])>もぐもぐ……痛っ！　トゲ刺さった！")
  ShowMessageFace("saboten_fc1",2,0,2,22)
  ShowMessage("\\n<Casta (Affection:\\V[3147])>た、食べてしまったのですか……")
  JumpToLabel("メニュー")
  DefineLabel("メニュー")
  StartLoop()
   355("unlimited_choices(11, [\"Give presents\",")
   655("\"Add to party\",")
   655("\"View present list\",\"Request\",")
   655("\"Never mind\"])")
   If(1,11,0,0,0)
    355("present_start(111)")
    0()
   EndIf()
   If(1,11,0,1,0)
    PictureClear(5)
    355("move_actor_ex(111)")
    EndEventProcessing()
    0()
   EndIf()
   If(1,11,0,2,0)
    ShowMessageFace("",0,0,2,23)
    ShowMessage("Affection   10:ビーストキラー")
    ShowMessage("Affection  100:ライトリング")
    ShowMessage("Affection  500:鞭の書")
    ShowMessage("Affection 2000:睡眠の印")
    0()
   EndIf()
   If(1,11,0,3,0)
    PictureClear(5)
    ShowMessageFace("",0,0,2,24)
    ShowMessage("Ask her for what? (Affection:\\V[3111])")
    ShowChoices(strings("Semen Squeezing Melon(Affection:10）","Never mind"),2)
    IfPlayerPicksChoice(0,null)
     If(1,3111,0,10,1)
      355("call_novel_scene(4346)")
      EndEventProcessing()
      0()
     Else()
      ShowMessageFace("suika_fc1",2,0,2,25)
      ShowMessage("\\n<Melon (Affection:\\V[3111])>スイカ食べてるから、また今度ね。")
      0()
     EndIf()
     0()
    IfPlayerPicksChoice(1,null)
     0()
    404()
    0()
   EndIf()
   If(1,11,0,4,1)
    PictureClear(5)
    EndEventProcessing()
    0()
   EndIf()
   0()
  EndLoop()
  0()
 PAGE   2
  // condition: party contains actor #111
  0()



EVENT   26
 PAGE   1
  // condition: switch 1081 is ON
  PictureDisplay(5,"80_mitubati_st01",0,0,0,0,100,100,0,0)
  PictureMove(5,null,0,0,0,0,100,100,255,0,30,true)
  If(1,3081,0,10,1)
   If(1,4081,0,0,0)
    ChangeVariable(4081,4081,0,0,1)
    ShowMessageFace("mitubati_fc1",0,0,2,1)
    ShowMessage("\\n<Honey (Affection:\\V[3081])>仲間と一緒に集めたの。 これ、受け取ってくれる……？")
    250(bytes(0x04,0x08,0x6f,0x3a,0x0c,0x52,0x50,0x47,0x3a,0x3a,0x53,0x45,0x08,0x3a,0x0a,0x40,0x6e,0x61,0x6d,0x65,0x49,0x22,0x0a,0x49,0x74,0x65,0x6d,0x31,0x06,0x3a,0x06,0x45,0x54,0x3a,0x0b,0x40,0x70,0x69,0x74,0x63,0x68,0x69,0x69,0x3a,0x0c,0x40,0x76,0x6f,0x6c,0x75,0x6d,0x65,0x69,0x55))
    ChangeInventory_Item(436,0,0,4)
    0()
   EndIf()
   0()
  EndIf()
  If(1,3081,0,100,1)
   If(1,4081,0,1,0)
    ChangeVariable(4081,4081,0,0,2)
    ShowMessageFace("mitubati_fc1",0,0,2,2)
    ShowMessage("\\n<Honey (Affection:\\V[3081])>仲間と一緒に集めたの。 これ、受け取ってくれる……？")
    250(bytes(0x04,0x08,0x6f,0x3a,0x0c,0x52,0x50,0x47,0x3a,0x3a,0x53,0x45,0x08,0x3a,0x0a,0x40,0x6e,0x61,0x6d,0x65,0x49,0x22,0x0a,0x49,0x74,0x65,0x6d,0x31,0x06,0x3a,0x06,0x45,0x54,0x3a,0x0b,0x40,0x70,0x69,0x74,0x63,0x68,0x69,0x69,0x3a,0x0c,0x40,0x76,0x6f,0x6c,0x75,0x6d,0x65,0x69,0x55))
    ChangeInventoryArmor(1021,0,0,1,false)
    0()
   EndIf()
   0()
  EndIf()
  If(1,3081,0,500,1)
   If(1,4081,0,2,0)
    ChangeVariable(4081,4081,0,0,3)
    ShowMessageFace("mitubati_fc1",0,0,2,3)
    ShowMessage("\\n<Honey (Affection:\\V[3081])>仲間と一緒に集めたの。 これ、受け取ってくれる……？")
    250(bytes(0x04,0x08,0x6f,0x3a,0x0c,0x52,0x50,0x47,0x3a,0x3a,0x53,0x45,0x08,0x3a,0x0a,0x40,0x6e,0x61,0x6d,0x65,0x49,0x22,0x0a,0x49,0x74,0x65,0x6d,0x31,0x06,0x3a,0x06,0x45,0x54,0x3a,0x0b,0x40,0x70,0x69,0x74,0x63,0x68,0x69,0x69,0x3a,0x0c,0x40,0x76,0x6f,0x6c,0x75,0x6d,0x65,0x69,0x55))
    ChangeInventoryArmor(1548,0,0,1,false)
    0()
   EndIf()
   0()
  EndIf()
  If(1,3081,0,2000,1)
   If(1,4081,0,3,0)
    ChangeVariable(4081,4081,0,0,4)
    ShowMessageFace("mitubati_fc1",0,0,2,4)
    ShowMessage("\\n<Honey (Affection:\\V[3081])>仲間と一緒に集めたの。 これ、受け取ってくれる……？")
    250(bytes(0x04,0x08,0x6f,0x3a,0x0c,0x52,0x50,0x47,0x3a,0x3a,0x53,0x45,0x08,0x3a,0x0a,0x40,0x6e,0x61,0x6d,0x65,0x49,0x22,0x0a,0x49,0x74,0x65,0x6d,0x31,0x06,0x3a,0x06,0x45,0x54,0x3a,0x0b,0x40,0x70,0x69,0x74,0x63,0x68,0x69,0x69,0x3a,0x0c,0x40,0x76,0x6f,0x6c,0x75,0x6d,0x65,0x69,0x55))
    ChangeInventoryArmor(1437,0,0,1,false)
    0()
   EndIf()
   0()
  EndIf()
  355("actor_label_jump")
  ShowMessageFace("mitubati_fc1",1,0,2,5)
  ShowMessage("\\n<Honey (Affection:\\V[3081])>ハチミツ、いっぱい集めないと。 ここにはクマも出ないわよね……？")
  JumpToLabel("メニュー")
  DefineLabel("125")
  ShowMessageFace("grizzly_fc1",0,0,2,6)
  ShowMessage("\\n<Aisha (Affection:\\V[3125])>クマー！　ハチミツよこせー！")
  ShowMessageFace("mitubati_fc1",2,0,2,7)
  ShowMessage("\\n<Honey (Affection:\\V[3081])>出たわね、クマ！ ハチミツは渡さないわ！")
  ShowMessageFace("sonia_fc1",5,0,2,8)
  ShowMessage("\\n<Sonya>こら、喧嘩しないの！")
  JumpToLabel("メニュー")
  DefineLabel("90")
  ShowMessageFace("meda_fc1",0,0,2,9)
  ShowMessage("\\n<Meru Meru (Affection:\\V[3090])>かさかさ、もそもそ……")
  ShowMessageFace("mitubati_fc1",0,0,2,10)
  ShowMessage("\\n<Honey (Affection:\\V[3081])>ずいぶんと臆病な子ね。 どこから来たの？")
  ShowMessageFace("meda_fc1",0,0,2,11)
  ShowMessage("\\n<Meru Meru (Affection:\\V[3090])>もそもそもそ……")
  ShowMessageFace("mitubati_fc1",1,0,2,12)
  ShowMessage("\\n<Honey (Affection:\\V[3081])>そう、洞窟に住んでる子なの。 仲良くしましょうね。")
  JumpToLabel("メニュー")
  DefineLabel("124")
  ShowMessageFace("arikui_fc1",0,0,2,13)
  ShowMessage("\\n<Kyona (Affection:\\V[3124])>ありんこ、なめなめ…… ねぇ、ハチミツっておいしいの？")
  ShowMessageFace("mitubati_fc1",1,0,2,14)
  ShowMessage("\\n<Honey (Affection:\\V[3081])>舐めてみる？ ちょっと分けてあげるわ……")
  ShowMessageFace("arikui_fc1",0,0,2,15)
  ShowMessage("\\n<Kyona (Affection:\\V[3124])>ハチミツ、なめなめ…… 甘くて、おいしい！")
  ShowMessageFace("mitubati_fc1",2,0,2,16)
  ShowMessage("\\n<Honey (Affection:\\V[3081])>じゃあ私も、ありんこなめなめ…… 痛っ！　舌を噛まれた……！")
  ShowMessageFace("arikui_fc1",0,0,2,17)
  ShowMessage("\\n<Kyona (Affection:\\V[3124])>コツがいるからね……")
  JumpToLabel("メニュー")
  DefineLabel("メニュー")
  StartLoop()
   355("unlimited_choices(11, [\"Give presents\",")
   655("\"Add to party\",")
   655("\"View present list\",\"Request\",")
   655("\"Never mind\"])")
   If(1,11,0,0,0)
    355("present_start(81)")
    0()
   EndIf()
   If(1,11,0,1,0)
    PictureClear(5)
    355("move_actor_ex(81)")
    EndEventProcessing()
    0()
   EndIf()
   If(1,11,0,2,0)
    ShowMessageFace("",0,0,2,18)
    ShowMessage("Affection   10:ハチミツ4個")
    ShowMessage("Affection  100:鉄の小手")
    ShowMessage("Affection  500:ポイズンチェック")
    ShowMessage("Affection 2000:麻痺の印")
    0()
   EndIf()
   If(1,11,0,3,0)
    PictureClear(5)
    ShowMessageFace("",0,0,2,19)
    ShowMessage("Ask her for what? (Affection:\\V[3081])")
    ShowChoices(strings("Lick(Affection:10）","Copulate(Affection:100）","Never mind"),3)
    IfPlayerPicksChoice(0,null)
     If(1,3081,0,10,1)
      355("call_novel_scene(4196)")
      EndEventProcessing()
      0()
     Else()
      ShowMessageFace("mitubati_fc1",0,0,2,20)
      ShowMessage("\\n<Honey (Affection:\\V[3081])>ごめんなさい、今はハチミツが足りないのよ……")
      0()
     EndIf()
     0()
    IfPlayerPicksChoice(1,null)
     If(1,3081,0,100,1)
      355("call_novel_scene(4197)")
      EndEventProcessing()
      0()
     Else()
      ShowMessageFace("mitubati_fc1",0,0,2,21)
      ShowMessage("\\n<Honey (Affection:\\V[3081])>ごめんなさい、今はハチミツが足りないのよ……")
      0()
     EndIf()
     0()
    IfPlayerPicksChoice(2,null)
     0()
    404()
    0()
   EndIf()
   If(1,11,0,4,1)
    PictureClear(5)
    EndEventProcessing()
    0()
   EndIf()
   0()
  EndLoop()
  0()
 PAGE   2
  // condition: party contains actor #81
  0()



EVENT   27
 PAGE   1
  // condition: switch 1100 is ON
  PictureDisplay(5,"80_rahure_st01",0,0,0,0,100,100,0,0)
  PictureMove(5,null,0,0,0,0,100,100,255,0,30,true)
  If(1,3100,0,10,1)
   If(1,4100,0,0,0)
    ChangeVariable(4100,4100,0,0,1)
    ShowMessageFace("rahure_fc1",0,0,2,1)
    ShowMessage("\\n<Fleesia (Affection:\\V[3100])>これ、使う……？ いつも世話になってるし、気にしないで……")
    250(bytes(0x04,0x08,0x6f,0x3a,0x0c,0x52,0x50,0x47,0x3a,0x3a,0x53,0x45,0x08,0x3a,0x0a,0x40,0x6e,0x61,0x6d,0x65,0x49,0x22,0x0a,0x49,0x74,0x65,0x6d,0x31,0x06,0x3a,0x06,0x45,0x54,0x3a,0x0b,0x40,0x70,0x69,0x74,0x63,0x68,0x69,0x69,0x3a,0x0c,0x40,0x76,0x6f,0x6c,0x75,0x6d,0x65,0x69,0x55))
    ChangeInventory_Item(17,0,0,3)
    0()
   EndIf()
   0()
  EndIf()
  If(1,3100,0,100,1)
   If(1,4100,0,1,0)
    ChangeVariable(4100,4100,0,0,2)
    ShowMessageFace("rahure_fc1",0,0,2,2)
    ShowMessage("\\n<Fleesia (Affection:\\V[3100])>これ、使う……？ いつも世話になってるし、気にしないで……")
    250(bytes(0x04,0x08,0x6f,0x3a,0x0c,0x52,0x50,0x47,0x3a,0x3a,0x53,0x45,0x08,0x3a,0x0a,0x40,0x6e,0x61,0x6d,0x65,0x49,0x22,0x0a,0x49,0x74,0x65,0x6d,0x31,0x06,0x3a,0x06,0x45,0x54,0x3a,0x0b,0x40,0x70,0x69,0x74,0x63,0x68,0x69,0x69,0x3a,0x0c,0x40,0x76,0x6f,0x6c,0x75,0x6d,0x65,0x69,0x55))
    ChangeInventoryArmor(1721,0,0,1,false)
    0()
   EndIf()
   0()
  EndIf()
  If(1,3100,0,500,1)
   If(1,4100,0,2,0)
    ChangeVariable(4100,4100,0,0,3)
    ShowMessageFace("rahure_fc1",0,0,2,3)
    ShowMessage("\\n<Fleesia (Affection:\\V[3100])>これ、使う……？ いつも世話になってるし、気にしないで……")
    250(bytes(0x04,0x08,0x6f,0x3a,0x0c,0x52,0x50,0x47,0x3a,0x3a,0x53,0x45,0x08,0x3a,0x0a,0x40,0x6e,0x61,0x6d,0x65,0x49,0x22,0x0a,0x49,0x74,0x65,0x6d,0x31,0x06,0x3a,0x06,0x45,0x54,0x3a,0x0b,0x40,0x70,0x69,0x74,0x63,0x68,0x69,0x69,0x3a,0x0c,0x40,0x76,0x6f,0x6c,0x75,0x6d,0x65,0x69,0x55))
    ChangeInventoryArmor(1543,0,0,1,false)
    0()
   EndIf()
   0()
  EndIf()
  If(1,3100,0,2000,1)
   If(1,4100,0,3,0)
    ChangeVariable(4100,4100,0,0,4)
    ShowMessageFace("rahure_fc1",0,0,2,4)
    ShowMessage("\\n<Fleesia (Affection:\\V[3100])>これ、使う……？ いつも世話になってるし、気にしないで……")
    250(bytes(0x04,0x08,0x6f,0x3a,0x0c,0x52,0x50,0x47,0x3a,0x3a,0x53,0x45,0x08,0x3a,0x0a,0x40,0x6e,0x61,0x6d,0x65,0x49,0x22,0x0a,0x49,0x74,0x65,0x6d,0x31,0x06,0x3a,0x06,0x45,0x54,0x3a,0x0b,0x40,0x70,0x69,0x74,0x63,0x68,0x69,0x69,0x3a,0x0c,0x40,0x76,0x6f,0x6c,0x75,0x6d,0x65,0x69,0x55))
    ChangeInventoryArmor(1428,0,0,1,false)
    0()
   EndIf()
   0()
  EndIf()
  355("actor_label_jump")
  ShowMessageFace("rahure_fc1",0,0,2,5)
  ShowMessage("\\n<Fleesia (Affection:\\V[3100])>お花畑にまぎれても、私の存在感は格別よね……")
  JumpToLabel("メニュー")
  DefineLabel("59")
  ShowMessageFace("mdg_fc1",0,0,2,6)
  ShowMessage("\\n<Ragora (Affection:\\V[3059])>あら、フレシアちゃん。 こんにちは、今日も元気そうね。")
  ShowMessageFace("rahure_fc1",1,0,2,7)
  ShowMessage("\\n<Fleesia (Affection:\\V[3100])>ラゴラちゃん、こんにちは。 私の匂いで文句を言わないのは、あなたくらいよ……")
  ShowMessageFace("mdg_fc1",0,0,2,8)
  ShowMessage("\\n<Ragora (Affection:\\V[3059])>もちろんよ、友達だもの！ （土中暮らしが長いから、嗅覚が麻痺してるのよね……）")
  JumpToLabel("メニュー")
  DefineLabel("89")
  ShowMessageFace("ropa_fc1",0,0,2,9)
  ShowMessage("\\n<Cindy (Affection:\\V[3089])>くしゅん……くしゅん……")
  ShowMessageFace("rahure_fc1",0,0,2,10)
  ShowMessage("\\n<Fleesia (Affection:\\V[3100])>あら、風邪でも引いたの……？")
  ShowMessageFace("ropa_fc1",0,0,2,11)
  ShowMessage("\\n<Cindy (Affection:\\V[3089])>ちょっと花粉症で……")
  ShowMessageFace("rahure_fc1",0,0,2,12)
  ShowMessage("\\n<Fleesia (Affection:\\V[3100])>それは大変ね。お大事に……")
  ShowMessageFace("ropa_fc1",0,0,2,13)
  ShowMessage("\\n<Cindy (Affection:\\V[3089])>（あんたのせいよ……）")
  JumpToLabel("メニュー")
  JumpToLabel("92")
  ShowMessageFace("eater_fc1",4,0,2,14)
  ShowMessage("\\n<Eater (Affection:\\V[3092])>わぁ、へんな花！")
  ShowMessageFace("rahure_fc1",0,0,2,15)
  ShowMessage("\\n<Fleesia (Affection:\\V[3100])>あんただって、変でしょう……")
  ShowMessageFace("eater_fc1",4,0,2,16)
  ShowMessage("\\n<Eater (Affection:\\V[3092])>しかも、臭い！")
  ShowMessageFace("rahure_fc1",0,0,2,17)
  ShowMessage("\\n<Fleesia (Affection:\\V[3100])>この子、嫌い……")
  JumpToLabel("メニュー")
  DefineLabel("112")
  ShowMessageFace("utubo_fc1",3,0,2,18)
  ShowMessage("\\n<Kazura (Affection:\\V[3112])>なんか臭いと思ったら、やっぱり…… あっちいってよね！")
  ShowMessageFace("rahure_fc1",0,0,2,19)
  ShowMessage("\\n<Fleesia (Affection:\\V[3100])>ふん、残酷な食虫植物に言われたくないわ。 私はみんなに優しいフローラルな香りよ。")
  ShowMessageFace("sonia_fc2",5,0,2,20)
  ShowMessage("\\n<Sonya>ほら、ケンカはいけません！ みんな仲良く……")
  ShowMessageFace("sonia_fc3",2,0,2,21)
  ShowMessage("\\n<Sonya>……うげっ、げふげふ…… もろに吸っちゃった……")
  ShowMessageFace("rahure_fc1",0,0,2,22)
  ShowMessage("\\n<Fleesia (Affection:\\V[3100])>私はめげないわ。 この匂いの良さに、皆が気付いてくれるまで……")
  JumpToLabel("メニュー")
  DefineLabel("147")
  ShowMessageFace("saboten_fc1",2,0,2,23)
  ShowMessage("\\n<Casta (Affection:\\V[3147])>ちょ、ちょっと…… 臭いので、近寄らないでもらえません？")
  ShowMessageFace("rahure_fc1",0,0,2,24)
  ShowMessage("\\n<Fleesia (Affection:\\V[3100])>お高くとまったサボテン…… 特濃の香りを味わいなさい……")
  ShowMessageFace("saboten_fc1",2,0,2,25)
  ShowMessage("\\n<Casta (Affection:\\V[3147])>うううっ…… 空気が黄色い……前が見えない……")
  If(0,4,0)
   ShowMessageFace("alice_fc6",1,0,2,26)
   ShowMessage("\\n<Alice>ええい、やめんか！ こっちの鼻もいかれそうだ！")
   0()
  EndIf()
  If(0,5,0)
   ShowMessageFace("iriasu_fc4",2,0,2,27)
   ShowMessage("\\n<Ilias>やめるのです…… 私は鼻で息ができません……")
   0()
  EndIf()
  JumpToLabel("メニュー")
  DefineLabel("メニュー")
  StartLoop()
   355("unlimited_choices(11, [\"Give presents\",")
   655("\"Add to party\",")
   655("\"View present list\",\"Request\",")
   655("\"Never mind\"])")
   If(1,11,0,0,0)
    355("present_start(100)")
    0()
   EndIf()
   If(1,11,0,1,0)
    PictureClear(5)
    355("move_actor_ex(100)")
    EndEventProcessing()
    0()
   EndIf()
   If(1,11,0,2,0)
    ShowMessageFace("",0,0,2,28)
    ShowMessage("Affection   10:満月草3個")
    ShowMessage("Affection  100:守護香")
    ShowMessage("Affection  500:エクスタスチェック")
    ShowMessage("Affection 2000:沈黙の印")
    0()
   EndIf()
   If(1,11,0,3,0)
    PictureClear(5)
    ShowMessageFace("",0,0,2,29)
    ShowMessage("Ask her for what? (Affection:\\V[3100])")
    ShowChoices(strings("Forced Pollination(Affection:10）","Never mind"),2)
    IfPlayerPicksChoice(0,null)
     If(1,3100,0,10,1)
      355("call_novel_scene(4291)")
      EndEventProcessing()
      0()
     Else()
      ShowMessageFace("rahure_fc1",0,0,2,30)
      ShowMessage("\\n<Fleesia (Affection:\\V[3100])>繁殖の感じじゃないから、また今度ね。")
      0()
     EndIf()
     0()
    IfPlayerPicksChoice(1,null)
     0()
    404()
    0()
   EndIf()
   If(1,11,0,4,1)
    PictureClear(5)
    EndEventProcessing()
    0()
   EndIf()
   0()
  EndLoop()
  0()
 PAGE   2
  // condition: party contains actor #100
  0()



EVENT   28
 PAGE   1
  // condition: switch 1112 is ON
  PictureDisplay(5,"80_utubo_st01",0,0,0,0,100,100,0,0)
  PictureMove(5,null,0,0,0,0,100,100,255,0,30,true)
  If(1,3112,0,10,1)
   If(1,4112,0,0,0)
    ChangeVariable(4112,4112,0,0,1)
    ShowMessageFace("utubo_fc1",0,0,2,1)
    ShowMessage("\\n<Kazura (Affection:\\V[3112])>はい、プレゼント♪ 色々世話になってるから、お返しだよ♪")
    250(bytes(0x04,0x08,0x6f,0x3a,0x0c,0x52,0x50,0x47,0x3a,0x3a,0x53,0x45,0x08,0x3a,0x0a,0x40,0x6e,0x61,0x6d,0x65,0x49,0x22,0x0a,0x49,0x74,0x65,0x6d,0x31,0x06,0x3a,0x06,0x45,0x54,0x3a,0x0b,0x40,0x70,0x69,0x74,0x63,0x68,0x69,0x69,0x3a,0x0c,0x40,0x76,0x6f,0x6c,0x75,0x6d,0x65,0x69,0x55))
    ChangeInventory_Item(22,0,0,1)
    0()
   EndIf()
   0()
  EndIf()
  If(1,3112,0,100,1)
   If(1,4112,0,1,0)
    ChangeVariable(4112,4112,0,0,2)
    ShowMessageFace("utubo_fc1",0,0,2,2)
    ShowMessage("\\n<Kazura (Affection:\\V[3112])>はい、プレゼント♪ 色々世話になってるから、お返しだよ♪")
    250(bytes(0x04,0x08,0x6f,0x3a,0x0c,0x52,0x50,0x47,0x3a,0x3a,0x53,0x45,0x08,0x3a,0x0a,0x40,0x6e,0x61,0x6d,0x65,0x49,0x22,0x0a,0x49,0x74,0x65,0x6d,0x31,0x06,0x3a,0x06,0x45,0x54,0x3a,0x0b,0x40,0x70,0x69,0x74,0x63,0x68,0x69,0x69,0x3a,0x0c,0x40,0x76,0x6f,0x6c,0x75,0x6d,0x65,0x69,0x55))
    ChangeInventoryArmor(1011,0,0,1,false)
    0()
   EndIf()
   0()
  EndIf()
  If(1,3112,0,500,1)
   If(1,4112,0,2,0)
    ChangeVariable(4112,4112,0,0,3)
    ShowMessageFace("utubo_fc1",0,0,2,3)
    ShowMessage("\\n<Kazura (Affection:\\V[3112])>はい、プレゼント♪ 色々世話になってるから、お返しだよ♪")
    250(bytes(0x04,0x08,0x6f,0x3a,0x0c,0x52,0x50,0x47,0x3a,0x3a,0x53,0x45,0x08,0x3a,0x0a,0x40,0x6e,0x61,0x6d,0x65,0x49,0x22,0x0a,0x49,0x74,0x65,0x6d,0x31,0x06,0x3a,0x06,0x45,0x54,0x3a,0x0b,0x40,0x70,0x69,0x74,0x63,0x68,0x69,0x69,0x3a,0x0c,0x40,0x76,0x6f,0x6c,0x75,0x6d,0x65,0x69,0x55))
    ChangeInventoryArmor(1576,0,0,1,false)
    0()
   EndIf()
   0()
  EndIf()
  If(1,3112,0,2000,1)
   If(1,4112,0,3,0)
    ChangeVariable(4112,4112,0,0,4)
    ShowMessageFace("utubo_fc1",0,0,2,4)
    ShowMessage("\\n<Kazura (Affection:\\V[3112])>はい、プレゼント♪ 色々世話になってるから、お返しだよ♪")
    250(bytes(0x04,0x08,0x6f,0x3a,0x0c,0x52,0x50,0x47,0x3a,0x3a,0x53,0x45,0x08,0x3a,0x0a,0x40,0x6e,0x61,0x6d,0x65,0x49,0x22,0x0a,0x49,0x74,0x65,0x6d,0x31,0x06,0x3a,0x06,0x45,0x54,0x3a,0x0b,0x40,0x70,0x69,0x74,0x63,0x68,0x69,0x69,0x3a,0x0c,0x40,0x76,0x6f,0x6c,0x75,0x6d,0x65,0x69,0x55))
    ChangeInventoryArmor(1476,0,0,1,false)
    0()
   EndIf()
   0()
  EndIf()
  355("actor_label_jump")
  ShowMessageFace("utubo_fc1",0,0,2,5)
  ShowMessage("\\n<Kazura (Affection:\\V[3112])>大きな生き物、溶かしたいなー♪ いっぱい働くから、連れていってよ！")
  JumpToLabel("メニュー")
  DefineLabel("75")
  ShowMessageFace("hituzi_fc1",3,0,2,6)
  ShowMessage("\\n<Mary (Affection:\\V[3075])>いい匂いがするから、ヒツジさんがやって来たのら。 それ、一杯飲ませるのら。")
  ShowMessageFace("utubo_fc1",2,0,2,7)
  ShowMessage("\\n<Kazura (Affection:\\V[3112])>ちょっと、ウツボカズラの中身を一気飲みする気？ 死んじゃうから、やめなよ……")
  ShowMessageFace("hituzi_fc1",3,0,2,8)
  ShowMessage("\\n<Mary (Affection:\\V[3075])>ぐびぐびぐび…… ……ぷはぁ、効くのら～！")
  ShowMessageFace("utubo_fc1",2,0,2,9)
  ShowMessage("\\n<Kazura (Affection:\\V[3112])>どういう胃袋してるんだろう……")
  JumpToLabel("メニュー")
  DefineLabel("92")
  ShowMessageFace("utubo_fc1",0,0,2,10)
  ShowMessage("\\n<Kazura (Affection:\\V[3112])>なんだか、あんまり見ないタイプだけど…… あんたも、肉食の植物だよね？")
  ShowMessageFace("eater_fc1",3,0,2,11)
  ShowMessage("\\n<Eater (Affection:\\V[3092])>おにく、大好きだよ！ ぱっくんするの！")
  ShowMessageFace("utubo_fc1",0,0,2,12)
  ShowMessage("\\n<Kazura (Affection:\\V[3112])>（ハエトリグサと同じタイプかな…… 　でも、なんだかやけに肉々しいし……）")
  ShowMessageFace("utubo_fc1",0,0,2,13)
  ShowMessage("\\n<Kazura (Affection:\\V[3112])>（……おいしそう……）")
  ShowMessageFace("eater_fc1",3,0,2,14)
  ShowMessage("\\n<Eater (Affection:\\V[3092])>（……おいしそう……）")
  JumpToLabel("メニュー")
  DefineLabel("100")
  ShowMessageFace("utubo_fc1",3,0,2,15)
  ShowMessage("\\n<Kazura (Affection:\\V[3112])>なんか臭いと思ったら、やっぱり…… あっちいってよね！")
  ShowMessageFace("rahure_fc1",0,0,2,16)
  ShowMessage("\\n<Fleesia (Affection:\\V[3100])>ふん、残酷な食虫植物に言われたくないわ。 私はみんなに優しいフローラルな香りよ。")
  ShowMessageFace("sonia_fc2",5,0,2,17)
  ShowMessage("\\n<Sonya>ほら、ケンカはいけません！ みんな仲良く……")
  ShowMessageFace("sonia_fc3",2,0,2,18)
  ShowMessage("\\n<Sonya>……うげっ、げふげふ…… もろに吸っちゃった……")
  ShowMessageFace("rahure_fc1",0,0,2,19)
  ShowMessage("\\n<Fleesia (Affection:\\V[3100])>私はめげないわ。 この匂いの良さに、皆が気付いてくれるまで……")
  JumpToLabel("メニュー")
  DefineLabel("173")
  ShowMessageFace("arizigoku_fc1",0,0,2,20)
  ShowMessage("\\n<Helen (Affection:\\V[3173])>あら、あなたもトラップ型の妖魔？")
  ShowMessageFace("utubo_fc1",1,0,2,21)
  ShowMessage("\\n<Kazura (Affection:\\V[3112])>うん、あんたもそうみたいね。 甘い匂いで獲物を引き寄せて、このウツボカズラで溶かすの。")
  ShowMessageFace("arizigoku_fc1",0,0,2,22)
  ShowMessage("\\n<Helen (Affection:\\V[3173])>匂いで引き寄せるってのは、面白いわね。 私の流砂は、ドジな奴を引き込むトラップだから……")
  If(0,4,0)
   ShowMessageFace("alice_fc5",3,0,2,23)
   ShowMessage("\\n<Alice>（どっちも引っ掛かった……）")
   0()
  EndIf()
  If(0,5,0)
   ShowMessageFace("iriasu_fc4",2,0,2,24)
   ShowMessage("\\n<Ilias>（どちらも引っ掛かりました……）")
   0()
  EndIf()
  JumpToLabel("メニュー")
  DefineLabel("174")
  ShowMessageFace("sandw_fc1",0,0,2,25)
  ShowMessage("\\n<Dahlia (Affection:\\V[3174])>なんだか、いいにおい……")
  ShowMessageFace("utubo_fc1",2,0,2,26)
  ShowMessage("\\n<Kazura (Affection:\\V[3112])>ちょ、ちょっと…… あんたは無理、入らないから……！")
  ShowMessageFace("sandw_fc1",0,0,2,27)
  ShowMessage("\\n<Dahlia (Affection:\\V[3174])>このなか、いいにおい……")
  ShowMessageFace("utubo_fc1",2,0,2,28)
  ShowMessage("\\n<Kazura (Affection:\\V[3112])>きゃーっ！！")
  ShowMessageFace("",0,0,2,29)
  ShowMessage("ダリアはかずらのウツボカズラに突っ込んだ！ ウツボカズラはぺちゃんこに潰れてしまう！")
  ShowMessageFace("utubo_fc1",2,0,2,30)
  ShowMessage("\\n<Kazura (Affection:\\V[3112])>もう……なんてことするのよ……")
  ShowMessageFace("sandw_fc1",0,0,2,31)
  ShowMessage("\\n<Dahlia (Affection:\\V[3174])>ごめんね……")
  JumpToLabel("メニュー")
  DefineLabel("メニュー")
  StartLoop()
   355("unlimited_choices(11, [\"Give presents\",")
   655("\"Add to party\",")
   655("\"View present list\",\"Request\",")
   655("\"Never mind\"])")
   If(1,11,0,0,0)
    355("present_start(112)")
    0()
   EndIf()
   If(1,11,0,1,0)
    PictureClear(5)
    355("move_actor_ex(112)")
    EndEventProcessing()
    0()
   EndIf()
   If(1,11,0,2,0)
    ShowMessageFace("",0,0,2,32)
    ShowMessage("Affection   10:万能薬")
    ShowMessage("Affection  100:不思議なタトゥー")
    ShowMessage("Affection  500:メルトチェック")
    ShowMessage("Affection 2000:恍惚の印")
    0()
   EndIf()
   If(1,11,0,3,0)
    PictureClear(5)
    ShowMessageFace("",0,0,2,33)
    ShowMessage("Ask her for what? (Affection:\\V[3112])")
    ShowChoices(strings("Predation(Affection:10）","Predation...?(Affection:100）","Never mind"),3)
    IfPlayerPicksChoice(0,null)
     If(1,3112,0,10,1)
      355("call_novel_scene(4351)")
      EndEventProcessing()
      0()
     Else()
      ShowMessageFace("utubo_fc1",2,0,2,34)
      ShowMessage("\\n<Kazura (Affection:\\V[3112])>最近はよく晴れてるから、今度にしようよ……")
      0()
     EndIf()
     0()
    IfPlayerPicksChoice(1,null)
     If(1,3112,0,100,1)
      355("call_novel_scene(4352)")
      EndEventProcessing()
      0()
     Else()
      ShowMessageFace("utubo_fc1",2,0,2,35)
      ShowMessage("\\n<Kazura (Affection:\\V[3112])>最近はよく晴れてるから、今度にしようよ……")
      0()
     EndIf()
     0()
    IfPlayerPicksChoice(2,null)
     0()
    404()
    0()
   EndIf()
   If(1,11,0,4,1)
    PictureClear(5)
    EndEventProcessing()
    0()
   EndIf()
   0()
  EndLoop()
  0()
 PAGE   2
  // condition: party contains actor #112
  0()



EVENT   30
 PAGE   1
  // condition: switch 1124 is ON
  PictureDisplay(5,"80_arikui_st01",0,0,0,0,100,100,0,0)
  PictureMove(5,null,0,0,0,0,100,100,255,0,30,true)
  If(1,3124,0,10,1)
   If(1,4124,0,0,0)
    ChangeVariable(4124,4124,0,0,1)
    ShowMessageFace("arikui_fc1",0,0,2,1)
    ShowMessage("\\n<Kyona (Affection:\\V[3124])>プレゼントだよ～♪ アリの巣ほじくってたら、見つけたの♪")
    250(bytes(0x04,0x08,0x6f,0x3a,0x0c,0x52,0x50,0x47,0x3a,0x3a,0x53,0x45,0x08,0x3a,0x0a,0x40,0x6e,0x61,0x6d,0x65,0x49,0x22,0x0a,0x49,0x74,0x65,0x6d,0x31,0x06,0x3a,0x06,0x45,0x54,0x3a,0x0b,0x40,0x70,0x69,0x74,0x63,0x68,0x69,0x69,0x3a,0x0c,0x40,0x76,0x6f,0x6c,0x75,0x6d,0x65,0x69,0x55))
    ChangeInventoryWeapon(300,0,0,1,false)
    0()
   EndIf()
   0()
  EndIf()
  If(1,3124,0,100,1)
   If(1,4124,0,1,0)
    ChangeVariable(4124,4124,0,0,2)
    ShowMessageFace("arikui_fc1",0,0,2,2)
    ShowMessage("\\n<Kyona (Affection:\\V[3124])>プレゼントだよ～♪ アリの巣ほじくってたら、見つけたの♪")
    250(bytes(0x04,0x08,0x6f,0x3a,0x0c,0x52,0x50,0x47,0x3a,0x3a,0x53,0x45,0x08,0x3a,0x0a,0x40,0x6e,0x61,0x6d,0x65,0x49,0x22,0x0a,0x49,0x74,0x65,0x6d,0x31,0x06,0x3a,0x06,0x45,0x54,0x3a,0x0b,0x40,0x70,0x69,0x74,0x63,0x68,0x69,0x69,0x3a,0x0c,0x40,0x76,0x6f,0x6c,0x75,0x6d,0x65,0x69,0x55))
    ChangeInventoryArmor(1036,0,0,1,false)
    0()
   EndIf()
   0()
  EndIf()
  If(1,3124,0,500,1)
   If(1,4124,0,2,0)
    ChangeVariable(4124,4124,0,0,3)
    ShowMessageFace("arikui_fc1",0,0,2,3)
    ShowMessage("\\n<Kyona (Affection:\\V[3124])>プレゼントだよ～♪ アリの巣ほじくってたら、見つけたの♪")
    250(bytes(0x04,0x08,0x6f,0x3a,0x0c,0x52,0x50,0x47,0x3a,0x3a,0x53,0x45,0x08,0x3a,0x0a,0x40,0x6e,0x61,0x6d,0x65,0x49,0x22,0x0a,0x49,0x74,0x65,0x6d,0x31,0x06,0x3a,0x06,0x45,0x54,0x3a,0x0b,0x40,0x70,0x69,0x74,0x63,0x68,0x69,0x69,0x3a,0x0c,0x40,0x76,0x6f,0x6c,0x75,0x6d,0x65,0x69,0x55))
    ChangeInventoryArmor(1090,0,0,1,false)
    0()
   EndIf()
   0()
  EndIf()
  If(1,3124,0,2000,1)
   If(1,4124,0,3,0)
    ChangeVariable(4124,4124,0,0,4)
    ShowMessageFace("arikui_fc1",0,0,2,4)
    ShowMessage("\\n<Kyona (Affection:\\V[3124])>プレゼントだよ～♪ アリの巣ほじくってたら、見つけたの♪")
    250(bytes(0x04,0x08,0x6f,0x3a,0x0c,0x52,0x50,0x47,0x3a,0x3a,0x53,0x45,0x08,0x3a,0x0a,0x40,0x6e,0x61,0x6d,0x65,0x49,0x22,0x0a,0x49,0x74,0x65,0x6d,0x31,0x06,0x3a,0x06,0x45,0x54,0x3a,0x0b,0x40,0x70,0x69,0x74,0x63,0x68,0x69,0x69,0x3a,0x0c,0x40,0x76,0x6f,0x6c,0x75,0x6d,0x65,0x69,0x55))
    ChangeInventoryArmor(1055,0,0,1,false)
    0()
   EndIf()
   0()
  EndIf()
  355("actor_label_jump")
  ShowMessageFace("arikui_fc1",0,0,2,5)
  ShowMessage("\\n<Kyona (Affection:\\V[3124])>アリの巣ほじるの、あーきーたー！ ねぇ、どこかに連れてってよ！")
  JumpToLabel("メニュー")
  DefineLabel("60")
  ShowMessageFace("dog_fc1",0,0,2,6)
  ShowMessage("\\n<Pochi (Affection:\\V[3060])>アリクイさんだ！")
  ShowMessageFace("arikui_fc1",0,0,2,7)
  ShowMessage("\\n<Kyona (Affection:\\V[3124])>わんちゃんだ～♪ ねぇ、いっしょにありんこナメナメしようよ。")
  ShowMessageFace("dog_fc1",1,0,2,8)
  ShowMessage("\\n<Pochi (Affection:\\V[3060])>ぺろぺろ……あまい♪")
  ShowMessageFace("arikui_fc1",0,0,2,9)
  ShowMessage("\\n<Kyona (Affection:\\V[3124])>そうでしょ？ ありんこなめなめ、なめなめ……")
  JumpToLabel("メニュー")
  DefineLabel("81")
  ShowMessageFace("arikui_fc1",0,0,2,10)
  ShowMessage("\\n<Kyona (Affection:\\V[3124])>ありんこ、なめなめ…… ねぇ、ハチミツっておいしいの？")
  ShowMessageFace("mitubati_fc1",1,0,2,11)
  ShowMessage("\\n<Honey (Affection:\\V[3081])>舐めてみる？ ちょっと分けてあげるわ……")
  ShowMessageFace("arikui_fc1",0,0,2,12)
  ShowMessage("\\n<Kyona (Affection:\\V[3124])>ハチミツ、なめなめ…… 甘くて、おいしい！")
  ShowMessageFace("mitubati_fc1",2,0,2,13)
  ShowMessage("\\n<Honey (Affection:\\V[3081])>じゃあ私も、ありんこなめなめ…… 痛っ！　舌を噛まれた……！")
  ShowMessageFace("arikui_fc1",0,0,2,14)
  ShowMessage("\\n<Kyona (Affection:\\V[3124])>コツがいるからね……")
  JumpToLabel("メニュー")
  DefineLabel("125")
  ShowMessageFace("grizzly_fc1",0,0,2,15)
  ShowMessage("\\n<Aisha (Affection:\\V[3125])>クマー！ アリって、おいしいのか？")
  ShowMessageFace("arikui_fc1",0,0,2,16)
  ShowMessage("\\n<Kyona (Affection:\\V[3124])>おいしいよ、なめてみる？")
  ShowMessageFace("grizzly_fc1",0,0,2,17)
  ShowMessage("\\n<Aisha (Affection:\\V[3125])>なめなめ……あまいぞ！ でも、あんまり腹は膨れないな……")
  ShowMessageFace("arikui_fc1",0,0,2,18)
  ShowMessage("\\n<Kyona (Affection:\\V[3124])>あたしは、糖分だけでも大丈夫だしー♪ ありんこなめなめ、なめなめ……")
  JumpToLabel("メニュー")
  DefineLabel("177")
  ShowMessageFace("arikui_fc1",0,0,2,19)
  ShowMessage("\\n<Kyona (Affection:\\V[3124])>ありんこ、なめなめ…… わぁっ、おおきなベロ！")
  ShowMessageFace("vetala_fc1",0,0,2,20)
  ShowMessage("\\n<Vetala (Affection:\\V[3177])>この舌と口だと、アリじゃ満足できないわねぇ……")
  ShowMessageFace("arikui_fc1",0,0,2,21)
  ShowMessage("\\n<Kyona (Affection:\\V[3124])>そんなにおおきなアリ、ここにはいないね……")
  ShowMessageFace("vetala_fc1",0,0,2,22)
  ShowMessage("\\n<Vetala (Affection:\\V[3177])>いや、アリにこだわっているわけじゃないけれど……")
  JumpToLabel("メニュー")
  DefineLabel("メニュー")
  StartLoop()
   355("unlimited_choices(11, [\"Give presents\",")
   655("\"Add to party\",")
   655("\"View present list\",\"Request\",")
   655("\"Never mind\"])")
   If(1,11,0,0,0)
    355("present_start(124)")
    0()
   EndIf()
   If(1,11,0,1,0)
    PictureClear(5)
    355("move_actor_ex(124)")
    EndEventProcessing()
    0()
   EndIf()
   If(1,11,0,2,0)
    ShowMessageFace("",0,0,2,23)
    ShowMessage("Affection   10:カイザーナックル")
    ShowMessage("Affection  100:銀の腕輪")
    ShowMessage("Affection  500:反撃の手甲")
    ShowMessage("Affection 2000:窮地の数珠")
    0()
   EndIf()
   If(1,11,0,3,0)
    PictureClear(5)
    ShowMessageFace("",0,0,2,24)
    ShowMessage("Ask her for what? (Affection:\\V[3124])")
    ShowChoices(strings("Long-tongue blowjob(Affection:10）","Never mind"),2)
    IfPlayerPicksChoice(0,null)
     If(1,3124,0,10,1)
      355("call_novel_scene(4411)")
      EndEventProcessing()
      0()
     Else()
      ShowMessageFace("arikui_fc1",0,0,2,25)
      ShowMessage("\\n<Kyona (Affection:\\V[3124])>今日は舌の伸びが悪いから、次の機会にね♪")
      0()
     EndIf()
     0()
    IfPlayerPicksChoice(1,null)
     0()
    404()
    0()
   EndIf()
   If(1,11,0,4,1)
    PictureClear(5)
    EndEventProcessing()
    0()
   EndIf()
   0()
  EndLoop()
  0()
 PAGE   2
  // condition: party contains actor #124
  0()



EVENT   17
 PAGE   1
  // condition: switch 1541 is ON
  PictureDisplay(5,"80_piha_st01",0,0,0,0,100,100,0,0)
  PictureMove(5,null,0,0,0,0,100,100,255,0,30,true)
  If(1,3541,0,10,1)
   If(1,4541,0,0,0)
    ChangeVariable(4541,4541,0,0,1)
    ShowMessageFace("piha_fc1",0,0,2,1)
    ShowMessage("\\n<Pyhar (Affection:\\V[3541])>私からのプレゼントよ～♪")
    250(bytes(0x04,0x08,0x6f,0x3a,0x0c,0x52,0x50,0x47,0x3a,0x3a,0x53,0x45,0x08,0x3a,0x0a,0x40,0x6e,0x61,0x6d,0x65,0x49,0x22,0x0a,0x49,0x74,0x65,0x6d,0x31,0x06,0x3a,0x06,0x45,0x54,0x3a,0x0b,0x40,0x70,0x69,0x74,0x63,0x68,0x69,0x69,0x3a,0x0c,0x40,0x76,0x6f,0x6c,0x75,0x6d,0x65,0x69,0x55))
    ChangeInventory_Item(310,0,0,1)
    0()
   EndIf()
   0()
  EndIf()
  If(1,3541,0,100,1)
   If(1,4541,0,1,0)
    ChangeVariable(4541,4541,0,0,2)
    ShowMessageFace("piha_fc1",0,0,2,2)
    ShowMessage("\\n<Pyhar (Affection:\\V[3541])>私からのプレゼントよ～♪")
    250(bytes(0x04,0x08,0x6f,0x3a,0x0c,0x52,0x50,0x47,0x3a,0x3a,0x53,0x45,0x08,0x3a,0x0a,0x40,0x6e,0x61,0x6d,0x65,0x49,0x22,0x0a,0x49,0x74,0x65,0x6d,0x31,0x06,0x3a,0x06,0x45,0x54,0x3a,0x0b,0x40,0x70,0x69,0x74,0x63,0x68,0x69,0x69,0x3a,0x0c,0x40,0x76,0x6f,0x6c,0x75,0x6d,0x65,0x69,0x55))
    ChangeInventoryArmor(1145,0,0,1,false)
    0()
   EndIf()
   0()
  EndIf()
  If(1,3541,0,500,1)
   If(1,4541,0,2,0)
    ChangeVariable(4541,4541,0,0,3)
    ShowMessageFace("piha_fc1",0,0,2,3)
    ShowMessage("\\n<Pyhar (Affection:\\V[3541])>私からのプレゼントよ～♪")
    250(bytes(0x04,0x08,0x6f,0x3a,0x0c,0x52,0x50,0x47,0x3a,0x3a,0x53,0x45,0x08,0x3a,0x0a,0x40,0x6e,0x61,0x6d,0x65,0x49,0x22,0x0a,0x49,0x74,0x65,0x6d,0x31,0x06,0x3a,0x06,0x45,0x54,0x3a,0x0b,0x40,0x70,0x69,0x74,0x63,0x68,0x69,0x69,0x3a,0x0c,0x40,0x76,0x6f,0x6c,0x75,0x6d,0x65,0x69,0x55))
    ChangeInventoryArmor(1163,0,0,1,false)
    0()
   EndIf()
   0()
  EndIf()
  If(1,3541,0,2000,1)
   If(1,4541,0,3,0)
    ChangeVariable(4541,4541,0,0,4)
    ShowMessageFace("piha_fc1",0,0,2,4)
    ShowMessage("\\n<Pyhar (Affection:\\V[3541])>私からのプレゼントよ～♪")
    250(bytes(0x04,0x08,0x6f,0x3a,0x0c,0x52,0x50,0x47,0x3a,0x3a,0x53,0x45,0x08,0x3a,0x0a,0x40,0x6e,0x61,0x6d,0x65,0x49,0x22,0x0a,0x49,0x74,0x65,0x6d,0x31,0x06,0x3a,0x06,0x45,0x54,0x3a,0x0b,0x40,0x70,0x69,0x74,0x63,0x68,0x69,0x69,0x3a,0x0c,0x40,0x76,0x6f,0x6c,0x75,0x6d,0x65,0x69,0x55))
    ChangeInventoryArmor(1107,0,0,1,false)
    0()
   EndIf()
   0()
  EndIf()
  355("actor_label_jump")
  ShowMessageFace("piha_fc1",0,0,2,5)
  ShowMessage("\\n<Pyhar (Affection:\\V[3541])>踊るわ～♪　うつくしい……")
  JumpToLabel("メニュー")
  DefineLabel("83")
  ShowMessageFace("piha_fc1",0,0,2,6)
  ShowMessage("\\n<Pyhar (Affection:\\V[3541])>さて、ここで質問よ～♪ 「ハーピー」が逆さになったら、どうなると思う～♪")
  ShowMessageFace("hapy_a_fc1",0,0,2,7)
  ShowMessage("\\n<Reina (Affection:\\V[3083])>かんたん！　「ピーハー」でしょ……？")
  ShowMessageFace("piha_fc1",0,0,2,8)
  ShowMessage("\\n<Pyhar (Affection:\\V[3541])>正解は……「ーピーハ」よ！")
  ShowMessageFace("hapy_a_fc1",2,0,2,9)
  ShowMessage("\\n<Reina (Affection:\\V[3083])>そんな発音しにくい単語、よくさらっと言えるわね……")
  JumpToLabel("メニュー")
  DefineLabel("540")
  ShowMessageFace("piha_fc1",0,0,2,10)
  ShowMessage("\\n<Pyhar (Affection:\\V[3541])>あら、元気そうね～♪")
  ShowMessageFace("amira_fc1",0,0,2,11)
  ShowMessage("\\n<Amira (Affection:\\V[3540])>この通り、とっても元気よ。 溢れる情熱を抑えるのに大地を利用しているくらいだわ。")
  ShowMessageFace("piha_fc1",0,0,2,12)
  ShowMessage("\\n<Pyhar (Affection:\\V[3541])>またみんなで、残念の花を咲かせたいわ～♪")
  ShowMessageFace("amira_fc1",0,0,2,13)
  ShowMessage("\\n<Amira (Affection:\\V[3540])>花なら咲いているわよ、あなたの心に……")
  ShowMessageFace("sonia_fc4",0,0,2,14)
  ShowMessage("\\n<Sonya (Affection:\\V[3525])>（この連中、いつもこんな適当な会話してるのかな……）")
  JumpToLabel("メニュー")
  DefineLabel("542")
  ShowMessageFace("piha_fc1",0,0,2,15)
  ShowMessage("\\n<Pyhar (Affection:\\V[3541])>あらドーメイマちゃん、元気かしら～♪")
  ShowMessageFace("domeima_fc1",0,0,2,16)
  ShowMessage("\\n<Domaimer (Affection:\\V[3542])>み……水……")
  ShowMessageFace("piha_fc1",0,0,2,17)
  ShowMessage("\\n<Pyhar (Affection:\\V[3541])>（そう言えば、お寿司が食べたいわね……）")
  ShowMessageFace("domeima_fc1",0,0,2,18)
  ShowMessage("\\n<Domaimer (Affection:\\V[3542])>（焼き鳥が食べたい……）")
  JumpToLabel("メニュー")
  DefineLabel("メニュー")
  StartLoop()
   355("unlimited_choices(11, [\"Give presents\",")
   655("\"Add to party\",")
   655("\"View present list\",\"Never mind\"])")
   If(1,11,0,0,0)
    355("present_start(541)")
    0()
   EndIf()
   If(1,11,0,1,0)
    PictureClear(5)
    355("move_actor_ex(541)")
    EndEventProcessing()
    0()
   EndIf()
   If(1,11,0,2,0)
    ShowMessageFace("",0,0,2,19)
    ShowMessage("Affection   10:ニンジン")
    ShowMessage("Affection  100:派手なマニキュア")
    ShowMessage("Affection  500:幸運のお守り")
    ShowMessage("Affection 2000:燃える魂")
    0()
   EndIf()
   If(1,11,0,3,1)
    PictureClear(5)
    EndEventProcessing()
    0()
   EndIf()
   0()
  EndLoop()
  0()
 PAGE   2
  // condition: party contains actor #541
  0()



EVENT   29
 PAGE   1
  // condition: switch 1127 is ON
  PictureDisplay(5,"80_littlebug_st01",0,0,0,0,100,100,0,0)
  PictureMove(5,null,0,0,0,0,100,100,255,0,30,true)
  If(1,3127,0,10,1)
   If(1,4127,0,0,0)
    ChangeVariable(4127,4127,0,0,1)
    ShowMessageFace("littlebug_fc1",0,0,2,1)
    ShowMessage("\\n<Lippy (Affection:\\V[3127])>なんかひろったぞ！ オマエにやるぜ！")
    250(bytes(0x04,0x08,0x6f,0x3a,0x0c,0x52,0x50,0x47,0x3a,0x3a,0x53,0x45,0x08,0x3a,0x0a,0x40,0x6e,0x61,0x6d,0x65,0x49,0x22,0x0a,0x49,0x74,0x65,0x6d,0x31,0x06,0x3a,0x06,0x45,0x54,0x3a,0x0b,0x40,0x70,0x69,0x74,0x63,0x68,0x69,0x69,0x3a,0x0c,0x40,0x76,0x6f,0x6c,0x75,0x6d,0x65,0x69,0x55))
    ChangeInventory_Item(30,0,0,1)
    0()
   EndIf()
   0()
  EndIf()
  If(1,3127,0,100,1)
   If(1,4127,0,1,0)
    ChangeVariable(4127,4127,0,0,2)
    ShowMessageFace("littlebug_fc1",0,0,2,2)
    ShowMessage("\\n<Lippy (Affection:\\V[3127])>なんかひろったぞ！ オマエにやるぜ！")
    250(bytes(0x04,0x08,0x6f,0x3a,0x0c,0x52,0x50,0x47,0x3a,0x3a,0x53,0x45,0x08,0x3a,0x0a,0x40,0x6e,0x61,0x6d,0x65,0x49,0x22,0x0a,0x49,0x74,0x65,0x6d,0x31,0x06,0x3a,0x06,0x45,0x54,0x3a,0x0b,0x40,0x70,0x69,0x74,0x63,0x68,0x69,0x69,0x3a,0x0c,0x40,0x76,0x6f,0x6c,0x75,0x6d,0x65,0x69,0x55))
    ChangeInventoryArmor(1036,0,0,1,false)
    0()
   EndIf()
   0()
  EndIf()
  If(1,3127,0,500,1)
   If(1,4127,0,2,0)
    ChangeVariable(4127,4127,0,0,3)
    ShowMessageFace("littlebug_fc1",0,0,2,3)
    ShowMessage("\\n<Lippy (Affection:\\V[3127])>なんかひろったぞ！ オマエにやるぜ！")
    250(bytes(0x04,0x08,0x6f,0x3a,0x0c,0x52,0x50,0x47,0x3a,0x3a,0x53,0x45,0x08,0x3a,0x0a,0x40,0x6e,0x61,0x6d,0x65,0x49,0x22,0x0a,0x49,0x74,0x65,0x6d,0x31,0x06,0x3a,0x06,0x45,0x54,0x3a,0x0b,0x40,0x70,0x69,0x74,0x63,0x68,0x69,0x69,0x3a,0x0c,0x40,0x76,0x6f,0x6c,0x75,0x6d,0x65,0x69,0x55))
    ChangeInventoryArmor(1153,0,0,1,false)
    0()
   EndIf()
   0()
  EndIf()
  If(1,3127,0,2000,1)
   If(1,4127,0,3,0)
    ChangeVariable(4127,4127,0,0,4)
    ShowMessageFace("littlebug_fc1",0,0,2,4)
    ShowMessage("\\n<Lippy (Affection:\\V[3127])>なんかひろったぞ！ オマエにやるぜ！")
    250(bytes(0x04,0x08,0x6f,0x3a,0x0c,0x52,0x50,0x47,0x3a,0x3a,0x53,0x45,0x08,0x3a,0x0a,0x40,0x6e,0x61,0x6d,0x65,0x49,0x22,0x0a,0x49,0x74,0x65,0x6d,0x31,0x06,0x3a,0x06,0x45,0x54,0x3a,0x0b,0x40,0x70,0x69,0x74,0x63,0x68,0x69,0x69,0x3a,0x0c,0x40,0x76,0x6f,0x6c,0x75,0x6d,0x65,0x69,0x55))
    ChangeInventoryArmor(1038,0,0,1,false)
    0()
   EndIf()
   0()
  EndIf()
  355("actor_label_jump")
  ShowMessageFace("littlebug_fc1",0,0,2,5)
  ShowMessage("\\n<Lippy (Affection:\\V[3127])>ここ、退屈だな…… 外を飛び回りたいぜ！")
  JumpToLabel("メニュー")
  DefineLabel("76")
  ShowMessageFace("syuree_fc1",2,0,2,6)
  ShowMessage("\\n<Sully (Affection:\\V[3076])>ゴキブリ！")
  ShowMessageFace("littlebug_fc1",2,0,2,7)
  ShowMessage("\\n<Lippy (Affection:\\V[3127])>エビ！")
  ShowMessageFace("syuree_fc1",2,0,2,8)
  ShowMessage("\\n<Sully (Affection:\\V[3076])>ゴキブリ！　ゴキブリ！")
  ShowMessageFace("littlebug_fc1",2,0,2,9)
  ShowMessage("\\n<Lippy (Affection:\\V[3127])>エビエビエビー！")
  ShowMessageFace("sonia_fc2",5,0,2,10)
  ShowMessage("\\n<Sonya>こら、ケンカしないの！")
  JumpToLabel("メニュー")
  DefineLabel("126")
  ShowMessageFace("littlebug_fc1",2,0,2,11)
  ShowMessage("\\n<Lippy (Affection:\\V[3127])>アタシ達って、どこから来たんだろうな……？")
  ShowMessageFace("XX-7_fc1",0,0,2,12)
  ShowMessage("\\n<Robin (Affection:\\V[3126])>さあ、分からないわ…… この世界の生まれじゃないのかもね。")
  ShowMessageFace("littlebug_fc1",2,0,2,13)
  ShowMessage("\\n<Lippy (Affection:\\V[3127])>みんな、アタシ達を造るだけ造るってさ…… 勝手に消えちまうなんて、無責任だぜ！")
  ShowMessageFace("XX-7_fc1",0,0,2,14)
  ShowMessage("\\n<Robin (Affection:\\V[3126])>消えたのか、それとも滅びたのか…… 私達は、何のために造り出されたのかしらね。")
  JumpToLabel("メニュー")
  DefineLabel("145")
  ShowMessageFace("mukade_fc1",0,0,2,15)
  ShowMessage("\\n<Vanessa (Affection:\\V[3145])>あら、ゴキブリ娘かしら？ でも何か違うわね……")
  ShowMessageFace("littlebug_fc1",2,0,2,16)
  ShowMessage("\\n<Lippy (Affection:\\V[3127])>アタシはリトルバグだ！ ゴキブリ扱いするな！")
  ShowMessageFace("mukade_fc1",0,0,2,17)
  ShowMessage("\\n<Vanessa (Affection:\\V[3145])>まあ、どちらにしろ嫌われ者よ。 お互い仲良くしましょう……")
  ShowMessageFace("littlebug_fc1",2,0,2,18)
  ShowMessage("\\n<Lippy (Affection:\\V[3127])>ゴキブリじゃないって言ってるのに……")
  JumpToLabel("メニュー")
  DefineLabel("メニュー")
  StartLoop()
   355("unlimited_choices(11, [\"Give presents\",")
   655("\"Add to party\",")
   655("\"View present list\",\"Request\",")
   655("\"Never mind\"])")
   If(1,11,0,0,0)
    355("present_start(127)")
    0()
   EndIf()
   If(1,11,0,1,0)
    PictureClear(5)
    355("move_actor_ex(127)")
    EndEventProcessing()
    0()
   EndIf()
   If(1,11,0,2,0)
    ShowMessageFace("",0,0,2,19)
    ShowMessage("Affection   10:素早さの種")
    ShowMessage("Affection  100:銀の腕輪")
    ShowMessage("Affection  500:アラームピアス")
    ShowMessage("Affection 2000:俊足の腕輪")
    0()
   EndIf()
   If(1,11,0,3,0)
    PictureClear(5)
    ShowMessageFace("",0,0,2,20)
    ShowMessage("Ask her for what? (Affection:\\V[3127])")
    ShowChoices(strings("Copulate(Affection:10）","Blowjob(Affection:100）","Never mind"),3)
    IfPlayerPicksChoice(0,null)
     If(1,3127,0,10,1)
      355("call_novel_scene(4426)")
      EndEventProcessing()
      0()
     Else()
      ShowMessageFace("littlebug_fc1",2,0,2,21)
      ShowMessage("\\n<Lippy (Affection:\\V[3127])>また今度な……今日の繁殖時間は終わったぞ。")
      0()
     EndIf()
     0()
    IfPlayerPicksChoice(1,null)
     If(1,3127,0,100,1)
      355("call_novel_scene(4427)")
      EndEventProcessing()
      0()
     Else()
      ShowMessageFace("littlebug_fc1",2,0,2,22)
      ShowMessage("\\n<Lippy (Affection:\\V[3127])>また今度な……今日の繁殖時間は終わったぞ。")
      0()
     EndIf()
     0()
    IfPlayerPicksChoice(2,null)
     0()
    404()
    0()
   EndIf()
   If(1,11,0,4,1)
    PictureClear(5)
    EndEventProcessing()
    0()
   EndIf()
   0()
  EndLoop()
  0()
 PAGE   2
  // condition: party contains actor #127
  0()



EVENT   31
 PAGE   1
  // condition: switch 1552 is ON
  PictureDisplay(5,"80_mob_elf1_st01",0,0,0,0,100,100,0,0)
  PictureMove(5,null,0,0,0,0,100,100,255,0,30,true)
  355("actor_label_jump")
  ShowMessageFace("mob_elf1_fc1",0,0,2,1)
  ShowMessage("\\n<Elise (Affection:\\V[3552])>……なぁに？　狩りに行くの？")
  JumpToLabel("メニュー")
  DefineLabel("メニュー")
  ShowChoices(strings("Add to party","Never mind"),2)
  IfPlayerPicksChoice(0,null)
   PictureClear(5)
   355("move_actor_ex(552)")
   EndEventProcessing()
   0()
  IfPlayerPicksChoice(1,null)
   PictureClear(5)
   EndEventProcessing()
   0()
  404()
  0()
 PAGE   2
  // condition: party contains actor #552
  0()
