﻿


EVENT   6
 PAGE   1
  281(1)
  250(bytes(0x04,0x08,0x6f,0x3a,0x0c,0x52,0x50,0x47,0x3a,0x3a,0x53,0x45,0x08,0x3a,0x0a,0x40,0x6e,0x61,0x6d,0x65,0x49,0x22,0x09,0x4d,0x6f,0x76,0x65,0x06,0x3a,0x06,0x45,0x54,0x3a,0x0b,0x40,0x70,0x69,0x74,0x63,0x68,0x69,0x69,0x3a,0x0c,0x40,0x76,0x6f,0x6c,0x75,0x6d,0x65,0x69,0x55))
  TeleportPlayer(0,476,60,71,2,0)
  0()



EVENT   13
 PAGE   1
  If(6,-1,2)
   250(bytes(0x04,0x08,0x6f,0x3a,0x0c,0x52,0x50,0x47,0x3a,0x3a,0x53,0x45,0x08,0x3a,0x0a,0x40,0x6e,0x61,0x6d,0x65,0x49,0x22,0x09,0x4d,0x6f,0x76,0x65,0x06,0x3a,0x06,0x45,0x54,0x3a,0x0b,0x40,0x70,0x69,0x74,0x63,0x68,0x69,0x69,0x3a,0x0c,0x40,0x76,0x6f,0x6c,0x75,0x6d,0x65,0x69,0x55))
   TeleportPlayer(0,477,107,44,0,0)
   0()
  EndIf()
  0()



EVENT   25
 PAGE   1
  If(6,-1,2)
   250(bytes(0x04,0x08,0x6f,0x3a,0x0c,0x52,0x50,0x47,0x3a,0x3a,0x53,0x45,0x08,0x3a,0x0a,0x40,0x6e,0x61,0x6d,0x65,0x49,0x22,0x09,0x4d,0x6f,0x76,0x65,0x06,0x3a,0x06,0x45,0x54,0x3a,0x0b,0x40,0x70,0x69,0x74,0x63,0x68,0x69,0x69,0x3a,0x0c,0x40,0x76,0x6f,0x6c,0x75,0x6d,0x65,0x69,0x55))
   TeleportPlayer(0,477,28,87,0,0)
   0()
  EndIf()
  0()



EVENT   34
 PAGE   1
  250(bytes(0x04,0x08,0x6f,0x3a,0x0c,0x52,0x50,0x47,0x3a,0x3a,0x53,0x45,0x08,0x3a,0x0a,0x40,0x6e,0x61,0x6d,0x65,0x49,0x22,0x09,0x4d,0x6f,0x76,0x65,0x06,0x3a,0x06,0x45,0x54,0x3a,0x0b,0x40,0x70,0x69,0x74,0x63,0x68,0x69,0x69,0x3a,0x0c,0x40,0x76,0x6f,0x6c,0x75,0x6d,0x65,0x69,0x55))
  TeleportPlayer(0,477,98,84,0,0)
  0()



EVENT   4
 PAGE   1
  281(1)
  250(bytes(0x04,0x08,0x6f,0x3a,0x0c,0x52,0x50,0x47,0x3a,0x3a,0x53,0x45,0x08,0x3a,0x0a,0x40,0x6e,0x61,0x6d,0x65,0x49,0x22,0x09,0x4d,0x6f,0x76,0x65,0x06,0x3a,0x06,0x45,0x54,0x3a,0x0b,0x40,0x70,0x69,0x74,0x63,0x68,0x69,0x69,0x3a,0x0c,0x40,0x76,0x6f,0x6c,0x75,0x6d,0x65,0x69,0x55))
  TeleportPlayer(0,476,16,43,0,0)
  0()



EVENT   3
 PAGE   1
  281(1)
  250(bytes(0x04,0x08,0x6f,0x3a,0x0c,0x52,0x50,0x47,0x3a,0x3a,0x53,0x45,0x08,0x3a,0x0a,0x40,0x6e,0x61,0x6d,0x65,0x49,0x22,0x09,0x4d,0x6f,0x76,0x65,0x06,0x3a,0x06,0x45,0x54,0x3a,0x0b,0x40,0x70,0x69,0x74,0x63,0x68,0x69,0x69,0x3a,0x0c,0x40,0x76,0x6f,0x6c,0x75,0x6d,0x65,0x69,0x55))
  TeleportPlayer(0,476,23,72,0,0)
  0()



EVENT   5
 PAGE   1
  281(1)
  250(bytes(0x04,0x08,0x6f,0x3a,0x0c,0x52,0x50,0x47,0x3a,0x3a,0x53,0x45,0x08,0x3a,0x0a,0x40,0x6e,0x61,0x6d,0x65,0x49,0x22,0x09,0x4d,0x6f,0x76,0x65,0x06,0x3a,0x06,0x45,0x54,0x3a,0x0b,0x40,0x70,0x69,0x74,0x63,0x68,0x69,0x69,0x3a,0x0c,0x40,0x76,0x6f,0x6c,0x75,0x6d,0x65,0x69,0x55))
  TeleportPlayer(0,476,47,70,0,0)
  0()



EVENT   2
 PAGE   1
  281(1)
  250(bytes(0x04,0x08,0x6f,0x3a,0x0c,0x52,0x50,0x47,0x3a,0x3a,0x53,0x45,0x08,0x3a,0x0a,0x40,0x6e,0x61,0x6d,0x65,0x49,0x22,0x09,0x4d,0x6f,0x76,0x65,0x06,0x3a,0x06,0x45,0x54,0x3a,0x0b,0x40,0x70,0x69,0x74,0x63,0x68,0x69,0x69,0x3a,0x0c,0x40,0x76,0x6f,0x6c,0x75,0x6d,0x65,0x69,0x55))
  TeleportPlayer(0,476,46,44,0,0)
  0()



EVENT   1
 PAGE   1
  281(1)
  250(bytes(0x04,0x08,0x6f,0x3a,0x0c,0x52,0x50,0x47,0x3a,0x3a,0x53,0x45,0x08,0x3a,0x0a,0x40,0x6e,0x61,0x6d,0x65,0x49,0x22,0x09,0x4d,0x6f,0x76,0x65,0x06,0x3a,0x06,0x45,0x54,0x3a,0x0b,0x40,0x70,0x69,0x74,0x63,0x68,0x69,0x69,0x3a,0x0c,0x40,0x76,0x6f,0x6c,0x75,0x6d,0x65,0x69,0x55))
  TeleportPlayer(0,476,65,44,0,0)
  0()



EVENT   7
 PAGE   1
  281(1)
  250(bytes(0x04,0x08,0x6f,0x3a,0x0c,0x52,0x50,0x47,0x3a,0x3a,0x53,0x45,0x08,0x3a,0x0a,0x40,0x6e,0x61,0x6d,0x65,0x49,0x22,0x09,0x4d,0x6f,0x76,0x65,0x06,0x3a,0x06,0x45,0x54,0x3a,0x0b,0x40,0x70,0x69,0x74,0x63,0x68,0x69,0x69,0x3a,0x0c,0x40,0x76,0x6f,0x6c,0x75,0x6d,0x65,0x69,0x55))
  TeleportPlayer(0,476,63,17,0,0)
  0()



EVENT   8
 PAGE   1
  281(1)
  250(bytes(0x04,0x08,0x6f,0x3a,0x0c,0x52,0x50,0x47,0x3a,0x3a,0x53,0x45,0x08,0x3a,0x0a,0x40,0x6e,0x61,0x6d,0x65,0x49,0x22,0x09,0x4d,0x6f,0x76,0x65,0x06,0x3a,0x06,0x45,0x54,0x3a,0x0b,0x40,0x70,0x69,0x74,0x63,0x68,0x69,0x69,0x3a,0x0c,0x40,0x76,0x6f,0x6c,0x75,0x6d,0x65,0x69,0x55))
  TeleportPlayer(0,476,37,19,0,0)
  0()



EVENT   9
 PAGE   1
  281(1)
  250(bytes(0x04,0x08,0x6f,0x3a,0x0c,0x52,0x50,0x47,0x3a,0x3a,0x53,0x45,0x08,0x3a,0x0a,0x40,0x6e,0x61,0x6d,0x65,0x49,0x22,0x09,0x4d,0x6f,0x76,0x65,0x06,0x3a,0x06,0x45,0x54,0x3a,0x0b,0x40,0x70,0x69,0x74,0x63,0x68,0x69,0x69,0x3a,0x0c,0x40,0x76,0x6f,0x6c,0x75,0x6d,0x65,0x69,0x55))
  TeleportPlayer(0,476,54,17,0,0)
  0()



EVENT   18
 PAGE   1
  If(6,-1,8)
   250(bytes(0x04,0x08,0x6f,0x3a,0x0c,0x52,0x50,0x47,0x3a,0x3a,0x53,0x45,0x08,0x3a,0x0a,0x40,0x6e,0x61,0x6d,0x65,0x49,0x22,0x09,0x4d,0x6f,0x76,0x65,0x06,0x3a,0x06,0x45,0x54,0x3a,0x0b,0x40,0x70,0x69,0x74,0x63,0x68,0x69,0x69,0x3a,0x0c,0x40,0x76,0x6f,0x6c,0x75,0x6d,0x65,0x69,0x55))
   TeleportPlayer(0,477,18,55,0,0)
   0()
  EndIf()
  0()



EVENT   19
 PAGE   1
  If(6,-1,8)
   250(bytes(0x04,0x08,0x6f,0x3a,0x0c,0x52,0x50,0x47,0x3a,0x3a,0x53,0x45,0x08,0x3a,0x0a,0x40,0x6e,0x61,0x6d,0x65,0x49,0x22,0x09,0x4d,0x6f,0x76,0x65,0x06,0x3a,0x06,0x45,0x54,0x3a,0x0b,0x40,0x70,0x69,0x74,0x63,0x68,0x69,0x69,0x3a,0x0c,0x40,0x76,0x6f,0x6c,0x75,0x6d,0x65,0x69,0x55))
   TeleportPlayer(0,477,18,55,0,0)
   0()
  EndIf()
  0()



EVENT   20
 PAGE   1
  If(6,-1,8)
   250(bytes(0x04,0x08,0x6f,0x3a,0x0c,0x52,0x50,0x47,0x3a,0x3a,0x53,0x45,0x08,0x3a,0x0a,0x40,0x6e,0x61,0x6d,0x65,0x49,0x22,0x09,0x4d,0x6f,0x76,0x65,0x06,0x3a,0x06,0x45,0x54,0x3a,0x0b,0x40,0x70,0x69,0x74,0x63,0x68,0x69,0x69,0x3a,0x0c,0x40,0x76,0x6f,0x6c,0x75,0x6d,0x65,0x69,0x55))
   TeleportPlayer(0,477,18,55,0,0)
   0()
  EndIf()
  0()



EVENT   10
 PAGE   1
  If(6,-1,2)
   250(bytes(0x04,0x08,0x6f,0x3a,0x0c,0x52,0x50,0x47,0x3a,0x3a,0x53,0x45,0x08,0x3a,0x0a,0x40,0x6e,0x61,0x6d,0x65,0x49,0x22,0x09,0x4d,0x6f,0x76,0x65,0x06,0x3a,0x06,0x45,0x54,0x3a,0x0b,0x40,0x70,0x69,0x74,0x63,0x68,0x69,0x69,0x3a,0x0c,0x40,0x76,0x6f,0x6c,0x75,0x6d,0x65,0x69,0x55))
   TeleportPlayer(0,477,28,87,0,0)
   0()
  EndIf()
  0()



EVENT   17
 PAGE   1
  If(6,-1,2)
   250(bytes(0x04,0x08,0x6f,0x3a,0x0c,0x52,0x50,0x47,0x3a,0x3a,0x53,0x45,0x08,0x3a,0x0a,0x40,0x6e,0x61,0x6d,0x65,0x49,0x22,0x09,0x4d,0x6f,0x76,0x65,0x06,0x3a,0x06,0x45,0x54,0x3a,0x0b,0x40,0x70,0x69,0x74,0x63,0x68,0x69,0x69,0x3a,0x0c,0x40,0x76,0x6f,0x6c,0x75,0x6d,0x65,0x69,0x55))
   TeleportPlayer(0,477,28,87,0,0)
   0()
  EndIf()
  0()



EVENT   21
 PAGE   1
  If(6,-1,8)
   250(bytes(0x04,0x08,0x6f,0x3a,0x0c,0x52,0x50,0x47,0x3a,0x3a,0x53,0x45,0x08,0x3a,0x0a,0x40,0x6e,0x61,0x6d,0x65,0x49,0x22,0x09,0x4d,0x6f,0x76,0x65,0x06,0x3a,0x06,0x45,0x54,0x3a,0x0b,0x40,0x70,0x69,0x74,0x63,0x68,0x69,0x69,0x3a,0x0c,0x40,0x76,0x6f,0x6c,0x75,0x6d,0x65,0x69,0x55))
   TeleportPlayer(0,477,144,56,0,0)
   0()
  EndIf()
  0()



EVENT   22
 PAGE   1
  If(6,-1,8)
   250(bytes(0x04,0x08,0x6f,0x3a,0x0c,0x52,0x50,0x47,0x3a,0x3a,0x53,0x45,0x08,0x3a,0x0a,0x40,0x6e,0x61,0x6d,0x65,0x49,0x22,0x09,0x4d,0x6f,0x76,0x65,0x06,0x3a,0x06,0x45,0x54,0x3a,0x0b,0x40,0x70,0x69,0x74,0x63,0x68,0x69,0x69,0x3a,0x0c,0x40,0x76,0x6f,0x6c,0x75,0x6d,0x65,0x69,0x55))
   TeleportPlayer(0,477,144,56,0,0)
   0()
  EndIf()
  0()



EVENT   23
 PAGE   1
  If(6,-1,8)
   250(bytes(0x04,0x08,0x6f,0x3a,0x0c,0x52,0x50,0x47,0x3a,0x3a,0x53,0x45,0x08,0x3a,0x0a,0x40,0x6e,0x61,0x6d,0x65,0x49,0x22,0x09,0x4d,0x6f,0x76,0x65,0x06,0x3a,0x06,0x45,0x54,0x3a,0x0b,0x40,0x70,0x69,0x74,0x63,0x68,0x69,0x69,0x3a,0x0c,0x40,0x76,0x6f,0x6c,0x75,0x6d,0x65,0x69,0x55))
   TeleportPlayer(0,477,144,56,0,0)
   0()
  EndIf()
  0()



EVENT   11
 PAGE   1
  If(6,-1,2)
   250(bytes(0x04,0x08,0x6f,0x3a,0x0c,0x52,0x50,0x47,0x3a,0x3a,0x53,0x45,0x08,0x3a,0x0a,0x40,0x6e,0x61,0x6d,0x65,0x49,0x22,0x09,0x4d,0x6f,0x76,0x65,0x06,0x3a,0x06,0x45,0x54,0x3a,0x0b,0x40,0x70,0x69,0x74,0x63,0x68,0x69,0x69,0x3a,0x0c,0x40,0x76,0x6f,0x6c,0x75,0x6d,0x65,0x69,0x55))
   TeleportPlayer(0,477,107,44,0,0)
   0()
  EndIf()
  0()



EVENT   12
 PAGE   1
  If(6,-1,2)
   250(bytes(0x04,0x08,0x6f,0x3a,0x0c,0x52,0x50,0x47,0x3a,0x3a,0x53,0x45,0x08,0x3a,0x0a,0x40,0x6e,0x61,0x6d,0x65,0x49,0x22,0x09,0x4d,0x6f,0x76,0x65,0x06,0x3a,0x06,0x45,0x54,0x3a,0x0b,0x40,0x70,0x69,0x74,0x63,0x68,0x69,0x69,0x3a,0x0c,0x40,0x76,0x6f,0x6c,0x75,0x6d,0x65,0x69,0x55))
   TeleportPlayer(0,477,107,44,0,0)
   0()
  EndIf()
  0()



EVENT   14
 PAGE   1
  250(bytes(0x04,0x08,0x6f,0x3a,0x0c,0x52,0x50,0x47,0x3a,0x3a,0x53,0x45,0x08,0x3a,0x0a,0x40,0x6e,0x61,0x6d,0x65,0x49,0x22,0x09,0x4d,0x6f,0x76,0x65,0x06,0x3a,0x06,0x45,0x54,0x3a,0x0b,0x40,0x70,0x69,0x74,0x63,0x68,0x69,0x69,0x3a,0x0c,0x40,0x76,0x6f,0x6c,0x75,0x6d,0x65,0x69,0x55))
  TeleportPlayer(0,477,133,86,0,0)
  0()



EVENT   15
 PAGE   1
  250(bytes(0x04,0x08,0x6f,0x3a,0x0c,0x52,0x50,0x47,0x3a,0x3a,0x53,0x45,0x08,0x3a,0x0a,0x40,0x6e,0x61,0x6d,0x65,0x49,0x22,0x09,0x4d,0x6f,0x76,0x65,0x06,0x3a,0x06,0x45,0x54,0x3a,0x0b,0x40,0x70,0x69,0x74,0x63,0x68,0x69,0x69,0x3a,0x0c,0x40,0x76,0x6f,0x6c,0x75,0x6d,0x65,0x69,0x55))
  TeleportPlayer(0,477,133,86,0,0)
  0()



EVENT   16
 PAGE   1
  250(bytes(0x04,0x08,0x6f,0x3a,0x0c,0x52,0x50,0x47,0x3a,0x3a,0x53,0x45,0x08,0x3a,0x0a,0x40,0x6e,0x61,0x6d,0x65,0x49,0x22,0x09,0x4d,0x6f,0x76,0x65,0x06,0x3a,0x06,0x45,0x54,0x3a,0x0b,0x40,0x70,0x69,0x74,0x63,0x68,0x69,0x69,0x3a,0x0c,0x40,0x76,0x6f,0x6c,0x75,0x6d,0x65,0x69,0x55))
  TeleportPlayer(0,477,133,86,0,0)
  0()



EVENT   24
 PAGE   1
  250(bytes(0x04,0x08,0x6f,0x3a,0x0c,0x52,0x50,0x47,0x3a,0x3a,0x53,0x45,0x08,0x3a,0x0a,0x40,0x6e,0x61,0x6d,0x65,0x49,0x22,0x09,0x4d,0x6f,0x76,0x65,0x06,0x3a,0x06,0x45,0x54,0x3a,0x0b,0x40,0x70,0x69,0x74,0x63,0x68,0x69,0x69,0x3a,0x0c,0x40,0x76,0x6f,0x6c,0x75,0x6d,0x65,0x69,0x55))
  TeleportPlayer(0,477,98,84,0,0)
  0()



EVENT   26
 PAGE   1
  250(bytes(0x04,0x08,0x6f,0x3a,0x0c,0x52,0x50,0x47,0x3a,0x3a,0x53,0x45,0x08,0x3a,0x0a,0x40,0x6e,0x61,0x6d,0x65,0x49,0x22,0x09,0x4d,0x6f,0x76,0x65,0x06,0x3a,0x06,0x45,0x54,0x3a,0x0b,0x40,0x70,0x69,0x74,0x63,0x68,0x69,0x69,0x3a,0x0c,0x40,0x76,0x6f,0x6c,0x75,0x6d,0x65,0x69,0x55))
  TeleportPlayer(0,477,98,84,0,0)
  0()



EVENT   27
 PAGE   1
  281(1)
  250(bytes(0x04,0x08,0x6f,0x3a,0x0c,0x52,0x50,0x47,0x3a,0x3a,0x53,0x45,0x08,0x3a,0x0a,0x40,0x6e,0x61,0x6d,0x65,0x49,0x22,0x09,0x4d,0x6f,0x76,0x65,0x06,0x3a,0x06,0x45,0x54,0x3a,0x0b,0x40,0x70,0x69,0x74,0x63,0x68,0x69,0x69,0x3a,0x0c,0x40,0x76,0x6f,0x6c,0x75,0x6d,0x65,0x69,0x55))
  TeleportPlayer(0,476,62,39,0,0)
  0()



EVENT   29
 PAGE   1
  ShowMessageFace("",0,0,2,1)
  ShowMessage("\\n<Storekeeper's Daughter>Welcome! How about an armor you can feel a safe in?")
  Shop(2,7,0,0,false)
  605(2,23,0,0)
  605(2,75,0,0)
  605(2,127,0,0)
  605(2,185,0,0)
  605(2,206,0,0)
  605(2,302,0,0)
  0()



EVENT   30
 PAGE   1
  ShowMessageFace("",0,0,2,1)
  ShowMessage("\\n<Blacksmith>Oh, little one... you've got goood eyes there. Now, what do you need from me?")
  355("call_synthesize(11)")
  0()



EVENT   32
 PAGE   1
  ChangeSwitch(2122,2122,0)
  ShowMessageFace("",0,0,2,1)
  ShowMessage("\\n<Merchant>On the desert, your stock of items decides either your life or death. Make sure to buy lots at our shop!")
  Shop(0,2,0,0,false)
  605(0,7,0,0)
  605(0,11,0,0)
  605(0,13,0,0)
  605(0,14,0,0)
  605(0,15,0,0)
  605(0,16,0,0)
  605(0,17,0,0)
  605(0,18,0,0)
  605(0,19,0,0)
  605(0,23,0,0)
  605(0,35,0,0)
  605(0,102,0,0)
  0()



EVENT   39
 PAGE   1
  If(1,1028,0,1,0)
   ChangeVariable(1028,1028,0,0,2)
   0()
  EndIf()
  If(1,1028,0,7,2)
   ShowMessageFace("",0,0,2,1)
   ShowMessage("\\n<Knight>The Assassin group's leader that the Queen had fired... There's a rumor that Salaan is plotting to assassinate the queen.")
   ShowMessageFace("",0,0,2,2)
   ShowMessage("\\n<Knight>But that's just a hoax Assassin group has served the Kings of Sabasa for generations, their loyalty is absolutely unmatched.")
   ShowMessageFace("",0,0,2,3)
   ShowMessage("\\n<Knight>However, they say that Salaan is investigating the circumstances around the Queen's sudden change. The rumors of assassination must have been twisted from that.")
   If(1,1028,0,2,0)
    If(0,4,0)
     ShowMessageFace("alice_fc5",0,0,2,4)
     ShowMessage("\\n<Alice>The Assassin group's leader, Salaan... That person might have information of use.")
     0()
    EndIf()
    If(0,5,0)
     ShowMessageFace("iriasu_fc4",0,0,2,5)
     ShowMessage("\\n<Ilias>The Assassin group's leader, Salaan... That person might have information we seek.")
     0()
    EndIf()
    0()
   EndIf()
   EndEventProcessing()
   0()
  EndIf()
  If(1,1028,0,8,0)
   ShowMessageFace("",0,0,2,6)
   ShowMessage("\\n<Knight>We have to praise Salaan's loyalty. Despite being accused, she continued to move in the shadows for the Queen's sake...")
   ShowMessageFace("",0,0,2,7)
   ShowMessage("\\n<Knight>Of course, you all are the biggest contributors. As one of Sabasa's citizens I thank you from the bottom of my heart.")
   EndEventProcessing()
   0()
  EndIf()
  0()



EVENT   28
 PAGE   1
  ShowMessageFace("",0,0,2,1)
  ShowMessage("\\n<Shopkeeper>Welcome, Sabasa's weapons are top-notch. Look as much as you like.")
  Shop(1,14,0,0,false)
  605(1,94,0,0)
  605(1,215,0,0)
  605(1,304,0,0)
  605(1,374,0,0)
  605(1,484,0,0)
  605(1,522,0,0)
  605(1,563,0,0)
  605(1,598,0,0)
  605(1,670,0,0)
  605(1,896,0,0)
  0()



EVENT   33
 PAGE   1
  ShowMessageFace("",0,0,2,1)
  ShowMessage("\\n<Shopkeeper's Wife>How about some accessories? Our accessories increase base stats.")
  Shop(2,1002,0,0,false)
  605(2,1007,0,0)
  605(2,1012,0,0)
  605(2,1017,0,0)
  605(2,1022,0,0)
  605(2,1027,0,0)
  605(2,1032,0,0)
  605(2,1037,0,0)
  605(2,1042,0,0)
  0()



EVENT   41
 PAGE   1
  ChangeSelfSwitch("A",0)
  If(0,6,0)
   ShowMessageFace("sonia_fc2",2,0,2,1)
   ShowMessage("\\n<Sonya>This is a quite simple... Or rather, a sloppy room. So that Salaan person is living in a place like this...")
   0()
  Else()
   ShowMessageFace("ruka_fc1",0,0,2,2)
   ShowMessage("\\n<Luka>It's a quite simple... Or more like, a sloppy room. So this Salaan person is living in a place like this...")
   0()
  EndIf()
  If(0,4,0)
   ShowMessageFace("alice_fc5",0,0,2,3)
   ShowMessage("\\n<Alice>Something might be here, let's investigate.")
   0()
  EndIf()
  If(0,5,0)
   ShowMessageFace("iriasu_fc4",0,0,2,4)
   ShowMessage("\\n<Ilias>There might be something in here, let's investigate.")
   0()
  EndIf()
  0()
 PAGE   2
  // condition: self-switch A is ON
  0()



EVENT   42
 PAGE   1
  ShowMessageFace("",0,0,2,1)
  ShowMessage("There were bundles of documents scattered around... Although there were notes on Queen's background, there were no new information in them.")
  If(1,1028,0,2,0)
   If(0,4,0)
    ShowMessageFace("alice_fc5",0,0,2,2)
    ShowMessage("\\n<Alice>The Queen's misdeeds and criticism... But it's all information we already know.")
    ShowMessageFace("alice_fc5",3,0,2,3)
    ShowMessage("\\n<Alice>Well... it's unthinkable she would leave useful information in here. It's best to ask her in person.")
    0()
   EndIf()
   If(0,5,0)
    ShowMessageFace("iriasu_fc4",2,0,2,4)
    ShowMessage("\\n<Ilias>It's about the Queen's misdeeds and the criticism... All of it is information we already know>")
    ShowMessageFace("iriasu_fc4",2,0,2,5)
    ShowMessage("\\n<Ilias>Of course, I do not think she would leave useful information in here. In the end, it's best to ask the person herself.")
    0()
   EndIf()
   ShowMessageFace("ruka_fc1",0,0,2,6)
   ShowMessage("\\n<Luka>Is there any clue as to where Salaan is...? I don't think that person would stay in the castle town.")
   If(0,4,0)
    ShowMessageFace("alice_fc5",0,0,2,7)
    ShowMessage("\\n<Alice>Mm, this map... Isn't the map of Oasis of Blessings?")
    0()
   EndIf()
   If(0,5,0)
    ShowMessageFace("iriasu_fc4",0,0,2,8)
    ShowMessage("\\n<Ilias>Oh my, this map... This is the map of Oasis of Blessings.")
    0()
   EndIf()
   If(0,6,0)
    ShowMessageFace("sonia_fc3",6,0,2,9)
    ShowMessage("\\n<Sonya>...Doesn't this mean she's lurking around in the Oasis of Blessings?")
    0()
   Else()
    ShowMessageFace("ruka_fc1",0,0,2,10)
    ShowMessage("\\n<Luka>If there's something like this here then... There's a high possibility she's lurking around in Oasis of Blessings.")
    0()
   EndIf()
   If(0,4,0)
    ShowMessageFace("alice_fc5",0,0,2,11)
    ShowMessage("\\n<Alice>Would someone from Assassin really leave a map behind themselves...? Well, there's high possibility this is a message to one of their comrades.")
    0()
   EndIf()
   If(0,5,0)
    ShowMessageFace("iriasu_fc4",2,0,2,12)
    ShowMessage("\\n<Ilias>It makes me wonder whether someone from Assassin would really leave a map behind themselves... Well, it's highly possible this is a message to one of their comrades.。")
    0()
   EndIf()
   0()
  EndIf()
  ChangeVariable(1028,1028,0,0,3)
  ShowMessageFace("ruka_fc1",0,0,2,13)
  ShowMessage("\\n<Luka>All right, let's go take a look in the Oasis of Blessings!")
  If(4,118,0)
   ShowMessageFace("meia_fc1",2,0,2,14)
   ShowMessage("\\n<Meia>Ufufu, it's been a while since I went on a picnic... I should go make lunch boxes.")
   0()
  EndIf()
  ShowMessageFace("",0,0,2,15)
  ShowMessage("The location of Oasis of Blessings is in the Northward direction of Sabasa Castle... After running into a big river, we have to head to the East.。")
  0()
 PAGE   2
  // condition: variable 1028 >= 4
  0()



EVENT   43
 PAGE   1
  If(1,1028,0,1,0)
   ChangeVariable(1028,1028,0,0,2)
   0()
  EndIf()
  If(1,1028,0,7,2)
   ShowMessageFace("",0,0,2,1)
   ShowMessage("\\n<Guard>The Assassin's leader, Salaan, was it... is investigating Queen Sara's affairs.")
   ShowMessageFace("",0,0,2,2)
   ShowMessage("\\n<Guard>It seems like she found some important information... But she's already gone from Sabasa.")
   ShowMessageFace("",0,0,2,3)
   ShowMessage("\\n<Guard>Where did she go...? I have no clue, but it's certain she's not in Sabasa.")
   ShowMessageFace("",0,0,2,4)
   ShowMessage("\\n<Guard>If you want Salaan's house, it's North of this town, up the stairs and to the left. To be precise, it's more like a hideout rather than house.")
   If(1,1028,0,2,0)
    If(0,4,0)
     ShowMessageFace("alice_fc5",0,0,2,5)
     ShowMessage("\\n<Alice>The Assassin group's leader, Salaan... That person might have information of use.")
     0()
    EndIf()
    If(0,5,0)
     ShowMessageFace("iriasu_fc4",0,0,2,6)
     ShowMessage("\\n<Ilias>The Assassin group's leader, Salaan... That person might have information we seek.")
     0()
    EndIf()
    0()
   EndIf()
   EndEventProcessing()
   0()
  EndIf()
  If(1,1028,0,8,0)
   ShowMessageFace("",0,0,2,7)
   ShowMessage("\\n<Guard>For this one case we soldiers were unable to do anything... despite the fact Sabasa's army is called number one in the world, how pathetic.")
   EndEventProcessing()
   0()
  EndIf()
  0()



EVENT   48
 PAGE   1
  ShowMessageFace("",0,0,2,1)
  ShowMessage("\\n<Priest>This church is stocking supplies for an emergency. It's the instruction of the previous King of Sabasa, he was a truly intelligent person thinking about the people.")
  ShowMessageFace("",0,0,2,2)
  ShowMessage("\\n<Priest>Before the previous King ascended to the throne they said he's too much of a warrior and is not fit to be the King, but... His reign will definitely remain in Sabasa's history.")
  ShowMessageFace("",0,0,2,3)
  ShowMessage("\\n<Priest>For that person... to die in such way... It was too soon and it will be a real challenge to entire Sabasa.")
  0()



EVENT   49
 PAGE   1
  ShowMessageFace("",0,0,2,1)
  ShowMessage("\\n<Royal Guard>You ask whether it's fine for the Queen's personal guard to ditch work in a place like this...? No problem, the Queen is helluva strong.")
  ShowMessageFace("",0,0,2,2)
  ShowMessage("\\n<Royal Guard>The talk about the Queen's identity being a succubus is true. I've seen it myself...")
  ShowMessageFace("",0,0,2,3)
  ShowMessage("\\n<Royal Guard>That's why she doesn't really need guards. We are no more than decoration.")
  0()
 PAGE   2
  // condition: variable 1028 >= 8
  ShowMessageFace("",0,0,2,1)
  ShowMessage("\\n<Former Royal Guard>The Queen's sanity has returned and we thugs were quickly kicked out. I don't hold any grudge over that, I didn't expect it to last for long in the first place.")
  ShowMessageFace("",0,0,2,2)
  ShowMessage("\\n<Former Royal Guard>During my era as a guard I tasted lots of tasty soup... If that continued for too long it would have rebound on me.")
  ShowMessageFace("",0,0,2,3)
  ShowMessage("\\n<Former Royal Guard>Well... it's what you call high time. That's the way thugs look at it.")
  355("actor_label_jump")
  EndEventProcessing()
  DefineLabel("171")
  ShowMessageFace("lizardboss_fc1",0,0,2,4)
  ShowMessage("\\n<Miranda>A good villain knows when to quit. A third-rate who tries to drag it out ends up in ropes.")
  EndEventProcessing()
  0()



EVENT   50
 PAGE   1
  ShowMessageFace("",0,0,2,1)
  ShowMessage("\\n<Royal Guard>Old man, hurry up bring me some liquor!")
  0()
 PAGE   2
  // condition: variable 1028 >= 8
  ShowMessageFace("",0,0,2,1)
  ShowMessage("\\n<Former Royal Guard>Great evil perishes might perish all over the world, but small villains are tenacious...")
  355("actor_label_jump")
  EndEventProcessing()
  DefineLabel("80")
  ShowMessageFace("orc_fc1",0,0,2,2)
  ShowMessage("\\n<Hip>That sounds amazing, I admire them...")
  EndEventProcessing()
  0()



EVENT   51
 PAGE   1
  If(1,1028,0,7,2)
   ShowMessageFace("",0,0,2,1)
   ShowMessage("\\n<Poet>This tavern too, has turned for worse... It used to be a good and calm place.")
   EndEventProcessing()
   0()
  EndIf()
  If(1,1028,0,8,0)
   ShowMessageFace("",0,0,2,2)
   ShowMessage("\\n<Poet>This tavern too, will return to be a calm place. I will definitely sing plenty about your actions.")
   EndEventProcessing()
   0()
  EndIf()
  0()



EVENT   52
 PAGE   1
  ShowMessageFace("",0,0,2,1)
  ShowMessage("\\n<Samon>We have been removed from the key positions now but... A time will come when our strength will the necessary!")
  ShowMessageFace("",0,0,2,2)
  ShowMessage("\\n<Samon>For the sake of that day we must single-mindedly polish our skill! Oryahh!")
  355("actor_label_jump")
  EndEventProcessing()
  DefineLabel("93")
  ShowMessageFace("liot_fc1",0,0,2,3)
  ShowMessage("\\n<Riot>That's some spirit... He must be one of this country's bravest warriors.")
  EndEventProcessing()
  DefineLabel("95")
  ShowMessageFace("delh_a_fc1",0,0,2,4)
  ShowMessage("\\n<Lona>He's an excellent warrior. They must be blind to fire soldiers like him...")
  EndEventProcessing()
  0()
 PAGE   2
  // condition: variable 1028 >= 8
  ShowMessageFace("",0,0,2,1)
  ShowMessage("\\n<Youth>I have volunteered for the next expeditionary force! I have to train my body while I can!")
  0()



EVENT   40
 PAGE   1
  If(1,1028,0,1,0)
   ChangeVariable(1028,1028,0,0,2)
   0()
  EndIf()
  If(1,1028,0,7,2)
   ShowMessageFace("",0,0,2,1)
   ShowMessage("\\n<Knight>Did you know about Salaan? The Assassin's boss kicked out by the new regime.")
   ShowMessageFace("",0,0,2,2)
   ShowMessage("\\n<Knight>Still, Salaan seems to have felt there was something suspicious about the Queen's sudden change. Now Salaan is investigating the Queen's surroundings and gathers information.")
   ShowMessageFace("",0,0,2,3)
   ShowMessage("\\n<Knight>Even I think the sudden change in the Queen after the coronation was unnatural. I'm cheering on Salaan's actions from the shadows.")
   ShowMessageFace("",0,0,2,4)
   ShowMessage("\\n<Knight>Salaan's house? North of the tavern up the stairs, on the left.")
   If(1,1028,0,2,0)
    If(0,4,0)
     ShowMessageFace("alice_fc5",0,0,2,5)
     ShowMessage("\\n<Alice>The Assassin group's leader, Salaan... That person might have information of use.")
     0()
    EndIf()
    If(0,5,0)
     ShowMessageFace("iriasu_fc4",0,0,2,6)
     ShowMessage("\\n<Ilias>The Assassin group's leader, Salaan... That person might have information we seek.")
     0()
    EndIf()
    0()
   EndIf()
   EndEventProcessing()
   0()
  EndIf()
  If(1,1028,0,8,0)
   ShowMessageFace("",0,0,2,7)
   ShowMessage("\\n<Knight>As I thought, Queen Sara was deprived of reason. This time's incident was caused by youmas who tried to damage Sabasa.")
   ShowMessageFace("",0,0,2,8)
   ShowMessage("\\n<Knight>...the Grangold's aggression is also unnatural. It's possible that those youmas are behind that as well...")
   EndEventProcessing()
   0()
  EndIf()
  0()



EVENT   53
 PAGE   1
  If(1,1028,0,7,2)
   ShowMessageFace("",0,0,2,1)
   ShowMessage("\\n<Guard>Originally this was just the blacksmith store... but those who grieve the country started to gather here and cultivate their talents.")
   ShowMessageFace("",0,0,2,2)
   ShowMessage("\\n<Guard>Of course, we aren't planning any rebellion like the rumors say. Our loyalty to Sabasa and the royal family is unshaken.")
   EndEventProcessing()
   0()
  EndIf()
  If(1,1028,0,8,0)
   ShowMessageFace("",0,0,2,3)
   ShowMessage("\\n<Guard>Ever since then, this turned into something like a place for drills in the castle town. Young people wishing to train their body and mind also started to visit, so it's very crowded.")
   EndEventProcessing()
   0()
  EndIf()
  0()



EVENT   54
 PAGE   1
  ShowMessageFace("",0,0,2,1)
  ShowMessage("\\n<Guard>At any time I focus on honing my skills... TERYAHH!")
  355("actor_label_jump")
  EndEventProcessing()
  DefineLabel("93")
  ShowMessageFace("liot_fc1",0,0,2,2)
  ShowMessage("\\n<Riot>Single-mindedly striving for one thing... splendid effort.")
  EndEventProcessing()
  DefineLabel("94")
  ShowMessageFace("luksl_fc1",0,0,2,3)
  ShowMessage("\\n<Look Through>How filthy...")
  EndEventProcessing()
  0()



EVENT   55
 PAGE   1
  If(1,1028,0,7,2)
   ShowMessageFace("",0,0,2,1)
   ShowMessage("\\n<Guard>Since we have left the alliance, Grand Noah's defeat is inevitable... ...Which means the Grandgold's next target will be Sabasa!")
   ShowMessageFace("",0,0,2,2)
   ShowMessage("\\n<Guard>When that happens it'll be our job to defend our homeland! For the sake of that day I need to become as strong as possible...!")
   EndEventProcessing()
   0()
  EndIf()
  If(1,1028,0,8,0)
   ShowMessageFace("",0,0,2,3)
   ShowMessage("\\n<Guard>Our country is returning to normal but... the Grangold's threat is unshaken.")
   ShowMessageFace("",0,0,2,4)
   ShowMessage("\\n<Guard>It's our job to protect our homeland in case something happens! For the sake of that day I need to become as strong as possible...!")
   EndEventProcessing()
   0()
  EndIf()
  0()



EVENT   35
 PAGE   1
  ShowMessageFace("",0,0,2,1)
  ShowMessage("\\n<Master>It turned really rowdy... Well, drink up!")
  Shop(0,428,0,0,true)
  605(0,431,0,0)
  605(0,427,0,0)
  0()



EVENT   56
 PAGE   1
  If(1,1028,0,7,2)
   ShowMessageFace("",0,0,2,1)
   ShowMessage("\\n<Man>Is it really fine to pull back the expeditionary force while the war is still continuing...? There's no way we can stay uninvolved as Grangold's threat approaches, right?")
   ShowMessageFace("",0,0,2,2)
   ShowMessage("\\n<Man>I wonder if the Queen even thinks about that... the Grand Noah's plight is right on the opposite shore.")
   ShowMessageFace("",0,0,2,3)
   ShowMessage("\\n<Middle-Aged Man>There's no way that Queen Sara would think about it. She couldn't care less about what happens in the future...")
   ShowMessageFace("",0,0,2,4)
   ShowMessage("\\n<Man>Good grief... What's going to happen to this country? I need to prepare to evacuate just in case.")
   0()
  EndIf()
  If(1,1028,0,8,0)
   ShowMessageFace("",0,0,2,5)
   ShowMessage("\\n<Man>It appears our rejoining the allied forces has been decided. They say the expeditionary force is also being reorganised and will soon head out...")
   ShowMessageFace("",0,0,2,6)
   ShowMessage("\\n<Middle-Aged Man>If we left it be it would surely turn into even more disastrous war in the future. It's best to cooperate to beat the invading army while Grand Noah is still safe.")
   ShowMessageFace("",0,0,2,7)
   ShowMessage("\\n<Man>But the war seems like it'll continue for a while... The improvement of our country's situation is something to celebrate, but we can't rejoice yet.")
   0()
  EndIf()
  0()



EVENT   57
 PAGE   1
  If(1,1028,0,7,2)
   ShowMessageFace("",0,0,2,1)
   ShowMessage("\\n<Man>Is it really fine to pull back the expeditionary force while the war is still continuing...? There's no way we can stay uninvolved as Grangold's threat approaches, right?")
   ShowMessageFace("",0,0,2,2)
   ShowMessage("\\n<Man>I wonder if the Queen even thinks about that... the Grand Noah's plight is right on the opposite shore.")
   ShowMessageFace("",0,0,2,3)
   ShowMessage("\\n<Middle-Aged Man>There's no way that Queen Sara would think about it. She couldn't care less about what happens in the future...")
   ShowMessageFace("",0,0,2,4)
   ShowMessage("\\n<Man>Good grief... What's going to happen to this country? I need to prepare to evacuate just in case.")
   0()
  EndIf()
  If(1,1028,0,8,0)
   ShowMessageFace("",0,0,2,5)
   ShowMessage("\\n<Man>It appears our rejoining the allied forces has been decided. They say the expeditionary force is also being reorganised and will soon head out...")
   ShowMessageFace("",0,0,2,6)
   ShowMessage("\\n<Middle-Aged Man>If we left it be it would surely turn into even more disastrous war in the future. It's best to cooperate to beat the invading army while Grand Noah is still safe.")
   ShowMessageFace("",0,0,2,7)
   ShowMessage("\\n<Man>But the war seems like it'll continue for a while... The improvement of our country's situation is something to celebrate, but we can't rejoice yet.")
   0()
  EndIf()
  0()



EVENT   59
 PAGE   1
  ShowMessageFace("",0,0,2,1)
  ShowMessage("\\n<Traveling Warrior>On the way here I stopped at Rubiana but... a village without any residents felt really bizarre.")
  ShowMessageFace("",0,0,2,2)
  ShowMessage("\\n<Traveling Warrior>Where on earth have they disappeared to... Even if it was a mass suicide, it's too strange that we can't find their corpses.")
  ShowMessageFace("",0,0,2,3)
  ShowMessage("\\n<Traveling Warrior>If they are alive somewhere, it would be even stranger. They disappear leaving just a single, unclear note, that's so creepy...")
  0()



EVENT   60
 PAGE   1
  ShowMessageFace("",0,0,2,1)
  ShowMessage("\\n<Female Soldier>Apparently a person in black clothing was seen in the Oasis of Blessings... I wonder if it's the rumored Assassin.")
  ShowMessageFace("",0,0,2,2)
  ShowMessage("\\n<Female Soldier>The location of Oasis of Blessings? First head straight North from here.")
  ShowMessageFace("",0,0,2,3)
  ShowMessage("\\n<Female Soldier>And when you reach the river, go East along it. You'll find the oasis right by the mountains.")
  0()



EVENT   61
 PAGE   1
  ShowMessageFace("",0,0,2,1)
  ShowMessage("\\n<Noble Tourist>I went to the Pyramid to the West today. Of course, since I'm not an adventurer I didn't go inside.")
  ShowMessageFace("",0,0,2,2)
  ShowMessage("\\n<Noble Tourist>Tomorrow afternoon I plan to sightsee the Oasis of Blessings and at night I will go to Grandeur. I'm excited at the thought of going to the Grand Theater...")
  355("actor_label_jump")
  EndEventProcessing()
  DefineLabel("120")
  ShowMessageFace("page257_fc1",0,0,2,3)
  ShowMessage("\\n<Yoko>Oh, how wonderful... You're such a lucky person.")
  EndEventProcessing()
  DefineLabel("143")
  ShowMessageFace("eva_fc1",2,0,2,4)
  ShowMessage("\\n<Eva>Hmph... Nobles going on pleasure jaunts sure have it easy.")
  EndEventProcessing()
  0()



EVENT   62
 PAGE   1
  ShowMessageFace("",0,0,2,1)
  ShowMessage("\\n<Noblewoman>Of course, we will use a horse-drawn carriage for tourists. We will not do something as savage as fighting the monsters...")
  355("actor_label_jump")
  EndEventProcessing()
  DefineLabel("66")
  ShowMessageFace("vgirl_fc1",2,0,2,2)
  ShowMessage("\\n<Vanilla>Horse-drawn carriages cost money... ...Normal adventurers hardly ever use them.")
  EndEventProcessing()
  DefineLabel("101")
  ShowMessageFace("cent2_fc1",0,0,2,3)
  ShowMessage("\\n<Lihitinu>Carriages are needless to me since I have these legs of mine!")
  EndEventProcessing()
  0()



EVENT   63
 PAGE   1
  ShowMessageFace("",0,0,2,1)
  ShowMessage("\\n<Noble's Daughter>The desert is boooring! I want to quickly go to Grandeur's theeater!")
  355("actor_label_jump")
  EndEventProcessing()
  DefineLabel("59")
  ShowMessageFace("mdg_fc1",0,0,2,2)
  ShowMessage("\\n<Ragora>I want to go to the Grand Theater as well. Even once is fine, I'd like to sing on that stage...")
  EndEventProcessing()
  DefineLabel("143")
  ShowMessageFace("eva_fc1",2,0,2,3)
  ShowMessage("\\n<Eva>I'm not interested in theaters. Neither songs nor dance will fill my stomach...")
  EndEventProcessing()
  0()



EVENT   64
 PAGE   1
  ShowMessageFace("",0,0,2,1)
  ShowMessage("\\n<Old Man>I'm interested in the legends from all over the world and have been investigating the Pyramid. The Pyramid has its lord called Sphinx.")
  ShowMessageFace("",0,0,2,2)
  ShowMessage("\\n<Old Man>She exists for over a thousand years now and has tremendous magic. Apparently this powerful monster is overseeing some trial.")
  ShowMessageFace("",0,0,2,3)
  ShowMessage("\\n<Old Man>The Pyramid's location is straight West of the Sabasa Castle... but since there are monsters there, it's best not to go there unless you need to.")
  0()



EVENT   66
 PAGE   1
  ShowMessageFace("",0,0,2,1)
  ShowMessage("\\n<Nun>Magistea Village is also known as Witch Hunt Village. In the past sorcery was oppressed there and witches were captured and executed.")
  ShowMessageFace("",0,0,2,2)
  ShowMessage("\\n<Nun>But as the Renaissance progressed, a sorcerer has dominated the village. Her tyranny continues and she oppresses innocent even now...")
  ShowMessageFace("",0,0,2,3)
  ShowMessage("\\n<Nun>There is a rebel faction who opposes that situation but... the two factions confrontation had resulted in an armed conflict, turning into further mess.")
  If(1,1028,0,7,2)
   ShowMessageFace("ruka_fc1",0,0,2,4)
   ShowMessage("\\n<Luka>Sounds horrible...")
   ShowMessageFace("",0,0,2,5)
   ShowMessage("I want to do something about that, but there are things we need to give priority to. The Witch Hunt Village, Magistea... let's remember about it.")
   0()
  EndIf()
  0()
 PAGE   2
  // condition: variable 1029 >= 6
  0()



EVENT   67
 PAGE   1
  ShowMessageFace("",0,0,2,1)
  ShowMessage("\\n<Youth>Don't go to Magistea Village... A witch has taken it over...!")
  0()
 PAGE   2
  // condition: variable 1029 >= 6
  0()



EVENT   68
 PAGE   1
  If(1,1029,0,5,2)
   ShowMessageFace("",0,0,2,1)
   ShowMessage("\\n<Priest>There were many people exiled from the Magistea Village... We are trying to accept as many of them even in this church.")
   ShowMessageFace("",0,0,2,2)
   ShowMessage("\\n<Priest>You shouldn't get any close to it either. The regime and rebel sides are heated up now, it's very dangerous.")
   0()
  EndIf()
  If(1,1029,0,6,1)
   ShowMessageFace("",0,0,2,3)
   ShowMessage("\\n<Priest>It appears the conflict in Magistea Village is over. It would be great if peace had come that village but...")
   355("actor_label_jump")
   EndEventProcessing()
   DefineLabel("163")
   ShowMessageFace("lily_fc1",3,0,2,4)
   ShowMessage("\\n<Lily>It's all right now. Nothing will disturb that village's peace any more...")
   EndEventProcessing()
   DefineLabel("167")
   ShowMessageFace("lusia_fc1",0,0,2,5)
   ShowMessage("\\n<Lucia>There's no need to worry, the fruitless fighting is over...")
   EndEventProcessing()
   0()
  EndIf()
  0()



EVENT   69
 PAGE   1
  ShowMessageFace("",0,0,2,1)
  ShowMessage("\\n<Nun>While checking the stock, I found old supplies for consumption. Everything has to be ready for the time of need.")
  355("actor_label_jump")
  EndEventProcessing()
  DefineLabel("5")
  ShowMessageFace("alice_fc5",7,0,2,2)
  ShowMessage("\\n<Alice>Consumption of food, is it. I'll help you out...")
  EndEventProcessing()
  DefineLabel("70")
  ShowMessageFace("nezumi_fc1",1,0,2,3)
  ShowMessage("\\n<Ratty>There's cheese! *nom**nom*...")
  ShowMessageFace("",0,0,2,4)
  ShowMessage("Ratty started snitching food...")
  EndEventProcessing()
  DefineLabel("143")
  ShowMessageFace("eva_fc1",0,0,2,5)
  ShowMessage("\\n<Eva>If you want old food to be consumed, I'll help you out. Now, which one of these can I eat...?")
  EndEventProcessing()
  0()



EVENT   71
 PAGE   1
  ShowMessageFace("",0,0,2,1)
  ShowMessage("\\n<Mermaid>Welcome to the Mermaid Pub♪!")
  ShowMessageFace("",0,0,2,2)
  ShowMessage("\\n<Mermaid>Is it fine for a shop with monsters to be here, you ask...? We have acquired a license from the King that allows us to operate.")
  ShowMessageFace("",0,0,2,3)
  ShowMessage("\\n<Mermaid>Currently we only have our pubs in Port Natalia and Sabasa but... eventually, we want Mermaid Pubs to spread all over the world.")
  Shop(0,428,0,0,true)
  605(0,431,0,0)
  605(0,427,0,0)
  0()



EVENT   72
 PAGE   1
  ShowMessageFace("",0,0,2,1)
  ShowMessage("\\n<Mermaid>Is it fine for a shop with monsters to be here, you ask...? We have acquired a license from the King that allows us to operate.")
  ShowMessageFace("",0,0,2,2)
  ShowMessage("\\n<Mermaid>Currently we only have our pubs in Port Natalia and Sabasa but... eventually, we want Mermaid Pubs to spread all over the world.")
  0()



EVENT   73
 PAGE   1
  ShowMessageFace("ankou_fc1",0,0,2,1)
  ShowMessage("\\n<Anglerfish Girl>Part-time job...")
  355("actor_label_jump")
  EndEventProcessing()
  DefineLabel("115")
  ShowMessageFace("kurage_fc1",0,0,2,2)
  ShowMessage("\\n<Kurage>Maybe I should work as well...?")
  If(0,6,0)
   ShowMessageFace("sonia_fc4",0,0,2,3)
   ShowMessage("\\n<Sonya>Don't. The customers would panic...")
   0()
  EndIf()
  EndEventProcessing()
  DefineLabel("117")
  ShowMessageFace("ankou_fc1",0,0,2,4)
  ShowMessage("\\n<Anko>Do your best...")
  EndEventProcessing()
  0()



EVENT   74
 PAGE   1
  ShowMessageFace("",0,0,2,1)
  ShowMessage("\\n<Man>Hey hey, isn't that an anglerfish...?!")
  355("actor_label_jump")
  EndEventProcessing()
  DefineLabel("116")
  ShowMessageFace("iso_fc1",2,0,2,2)
  ShowMessage("\\n<Isabelle>Hey, who called me...")
  EndEventProcessing()
  DefineLabel("117")
  ShowMessageFace("ankou_fc1",0,0,2,3)
  ShowMessage("\\n<Anko>Really? Where...?")
  ShowMessageFace("",0,0,2,4)
  ShowMessage("\\n<Man>Woah, another one!!")
  EndEventProcessing()
  0()



EVENT   75
 PAGE   1
  ShowMessageFace("",0,0,2,1)
  ShowMessage("\\n<Mage>The desert monsters are weak to water element... but be careful since they are resistant to earth element against them.")
  355("actor_label_jump")
  EndEventProcessing()
  DefineLabel("98")
  ShowMessageFace("minikani_fc1",0,0,2,2)
  ShowMessage("\\n<Amy>If they're weak against water, I'll beat them allll!")
  EndEventProcessing()
  DefineLabel("118")
  ShowMessageFace("meia_fc1",0,0,2,3)
  ShowMessage("\\n<Meia>Leave the enemies weak to water to me...")
  EndEventProcessing()
  0()



EVENT   76
 PAGE   1
  ShowMessageFace("",0,0,2,1)
  ShowMessage("\\n<Thief>Not only the Pyramid is a labyrinth but the monsters that come out are also strong... The treasures inside sounds attractive, but it's not a place you should go in lightly.")
  355("actor_label_jump")
  EndEventProcessing()
  DefineLabel("151")
  ShowMessageFace("kobura_fc1",1,0,2,2)
  ShowMessage("\\n<Lila>Naturally, it would be troubling if you have... Please challenge it after preparing yourself.")
  EndEventProcessing()
  DefineLabel("152")
  ShowMessageFace("lamias_fc2",4,0,2,3)
  ShowMessage("\\n<Nefertiti Lamias>Don't mind it, just come in... We'll entertain you.")
  EndEventProcessing()
  0()



EVENT   77
 PAGE   1
  ShowMessageFace("",0,0,2,1)
  ShowMessage("\\n<Old Woman>Good grief, that Grandpa. He does that every day...")
  ShowMessageFace("",0,0,2,2)
  ShowMessage("\\n<Old Woman>You can't talk about anything having academic value unless there's rigorous criticism of it. It's the thorough verification that makes sure the history is true.")
  355("actor_label_jump")
  EndEventProcessing()
  DefineLabel("41")
  ShowMessageFace("stein_fc2",0,0,2,3)
  ShowMessage("\\n<Promestein>The main point of academics is going through objective verification. The history that fails verification is merely a personal delusion.")
  EndEventProcessing()
  0()



EVENT   78
 PAGE   1
  ShowMessageFace("",0,0,2,1)
  ShowMessage("\\n<Scholar>North of Grandeur there are Safar Ruins. They are ancient ruins buried in sand.")
  ShowMessageFace("",0,0,2,2)
  ShowMessage("\\n<Scholar>In it, there are traces of faith in Gnome, it appears to be a place with connections to earth spirits. Although it might be lies, there are testimonies of witnessing Gnome there.")
  ShowMessageFace("",0,0,2,3)
  ShowMessage("\\n<Scholar>The location is further North of Grandeur that's North of here. It's a dangerous place the most dangerous monsters on the continent live in.")
  If(1,1001,0,17,0)
   If(0,4,0)
    ShowMessageFace("alice_fc5",0,0,2,4)
    ShowMessage("\\n<Alice>We can't neglect the preparations beforehand. We shouldn't go in there with half-assed skills and equipment...")
    0()
   EndIf()
   If(0,5,0)
    ShowMessageFace("iriasu_fc4",0,0,2,5)
    ShowMessage("\\n<Ilias>It appears that first, we have to make our preparations perfect. With half-hearted skills and equipment we'll be inevitably defeated.")
    0()
   EndIf()
   If(1,1028,0,7,2)
    If(0,4,0)
     ShowMessageFace("alice_fc5",3,0,2,6)
     ShowMessage("\\n<Alice>Moreover... We have things we need to prioritize now. We can meet Gnome after we put this area in order.")
     0()
    EndIf()
    If(0,5,0)
     ShowMessageFace("iriasu_fc4",2,0,2,7)
     ShowMessage("\\n<Ilias>Also... There are things we should prioritize now. Before we catch Gnome, we should first finish our errands in the region first.")
     0()
    EndIf()
    0()
   EndIf()
   0()
  EndIf()
  0()



EVENT   79
 PAGE   1
  ShowMessageFace("",0,0,2,1)
  ShowMessage("\\n<Thief>In the Sabasa region, the most difficult place are the Safar Ruins. The monsters in there are much stronger than the ones in the surrounding areas.")
  ShowMessageFace("",0,0,2,2)
  ShowMessage("\\n<Thief>It's said that the ruins are the place Gnome lives in and there's many treasures in it... but honestly, it's not a place you can easily enter.")
  If(1,1001,0,17,0)
   If(0,4,0)
    ShowMessageFace("alice_fc5",0,0,2,3)
    ShowMessage("\\n<Alice>We can't neglect the preparations beforehand. We shouldn't go in there with half-assed skills and equipment...")
    0()
   EndIf()
   If(0,5,0)
    ShowMessageFace("iriasu_fc4",0,0,2,4)
    ShowMessage("\\n<Ilias>It appears that first, we have to make our preparations perfect. With half-hearted skills and equipment we'll be inevitably defeated.")
    0()
   EndIf()
   If(1,1028,0,7,2)
    If(0,4,0)
     ShowMessageFace("alice_fc5",3,0,2,5)
     ShowMessage("\\n<Alice>Moreover... We have things we need to prioritize now. We can meet Gnome after we put this area in order.")
     0()
    EndIf()
    If(0,5,0)
     ShowMessageFace("iriasu_fc4",2,0,2,6)
     ShowMessage("\\n<Ilias>Also... There are things we should prioritize now. Before we catch Gnome, we should first finish our errands in the region first.")
     0()
    EndIf()
    0()
   EndIf()
   0()
  EndIf()
  0()



EVENT   81
 PAGE   1
  ShowMessageFace("",0,0,2,1)
  ShowMessage("\\n<Traveling Entertainer>Right now I should have had my debut in Grandeur's Grand Theaterrr! They canceled it saying the stage can't be used, c'moon!")
  355("actor_label_jump")
  EndEventProcessing()
  DefineLabel("155")
  ShowMessageFace("saki_fc1",3,0,2,2)
  ShowMessage("\\n<Saki>Sorry about that☆.")
  EndEventProcessing()
  0()



EVENT   82
 PAGE   1
  ShowMessageFace("",0,0,2,1)
  ShowMessage("\\n<Manager>Saki-chan, haa, haaa...")
  355("actor_label_jump")
  ShowMessageFace("",0,0,2,2)
  ShowMessage("\\n<Manager>...no, don't mind it.")
  EndEventProcessing()
  DefineLabel("155")
  ShowMessageFace("saki_fc1",3,0,2,3)
  ShowMessage("\\n<Saki>Thanks for your support☆.")
  EndEventProcessing()
  0()



EVENT   83
 PAGE   1
  ShowMessageFace("",0,0,2,1)
  ShowMessage("\\n<Traveling Entertainer>To think our stage would be collapse like this... Damn you, you succubus!")
  355("actor_label_jump")
  EndEventProcessing()
  DefineLabel("155")
  ShowMessageFace("saki_fc1",3,0,2,2)
  ShowMessage("\\n<Saki>The stage is now open, use it as you please☆.")
  EndEventProcessing()
  0()



EVENT   85
 PAGE   1
  If(1,1028,0,7,2)
   ShowMessageFace("",0,0,2,1)
   ShowMessage("\\n<Woman>As I thought, the King's death must have been a shock to her. I wonder why such a wonderful Princess turn into such a Queen...")
   ShowMessageFace("",0,0,2,2)
   ShowMessage("\\n<Woman>It's unthinkable that she could have such personality in the first place. Previously, I often heard she had a slightly masculine personality.")
   0()
  EndIf()
  If(1,1028,0,8,0)
   ShowMessageFace("",0,0,2,3)
   ShowMessage("\\n<Woman>To think she was being manipulated by youmas... and she immediately abdicated, she truly is gallant.")
   ShowMessageFace("",0,0,2,4)
   ShowMessage("\\n<Woman>...In the end, won't she be chosen the country's representative anyways? Even now there are many people who look up lady Sara.")
   0()
  EndIf()
  0()



EVENT   86
 PAGE   1
  If(1,1028,0,7,2)
   ShowMessageFace("",0,0,2,1)
   ShowMessage("\\n<Young Woman>Maybe the current queen isn't lady Sara...? There's a whispered rumors that a succubus is impersonating her.")
   ShowMessageFace("",0,0,2,2)
   ShowMessage("\\n<Young Woman>But if that's the case, it's unthinkable the real one would be still alive... I hope from the bottom of my heart that my hunch is wrong.")
   0()
  EndIf()
  If(1,1028,0,8,0)
   ShowMessageFace("",0,0,2,3)
   ShowMessage("\\n<Young Woman>I was wrong about the Queen being a fake. I'm really glad that she's safe.")
   ShowMessageFace("",0,0,2,4)
   ShowMessage("\\n<Young Woman>When I think of her... Ahh, I'm...")
   355("actor_label_jump")
   EndEventProcessing()
   DefineLabel("529")
   ShowMessageFace("sara_fc3",2,0,2,5)
   ShowMessage("\\n<Sara>Fufu, what a cute girl...♪")
   EndEventProcessing()
   0()
  EndIf()
  0()



EVENT   87
 PAGE   1
  ShowMessageFace("",0,0,2,1)
  ShowMessage("\\n<Cat>Meow!")
  355("actor_label_jump")
  EndEventProcessing()
  DefineLabel("70")
  ShowMessageFace("nezumi_fc1",2,0,2,2)
  ShowMessage("\\n<Ratty>Hyaa!")
  EndEventProcessing()
  0()



EVENT   88
 PAGE   1
  If(1,1028,0,7,2)
   ShowMessageFace("",0,0,2,1)
   ShowMessage("\\n<Young Man>Queen Sara had that personality in the first place. How she was during the previous King's era was just a façade.")
   ShowMessageFace("",0,0,2,2)
   ShowMessage("\\n<Young Man>After all, all women are like that...")
   0()
  EndIf()
  If(1,1028,0,8,0)
   ShowMessageFace("",0,0,2,3)
   ShowMessage("\\n<Young Man>So Queen Sara was manipulated by a youma... And here I thought all women are bitches.")
   ShowMessageFace("",0,0,2,4)
   ShowMessage("\\n<Young Man>In that case, the girl I loved before who was a total bitch...might have been manipulated by someone...")
   ShowMessageFace("",0,0,2,5)
   ShowMessage("\\n<Young Man>...thinking about that I got really excited!")
   0()
  EndIf()
  0()



EVENT   89
 PAGE   1
  If(1,1028,0,7,2)
   ShowMessageFace("",0,0,2,1)
   ShowMessage("\\n<Boy>Lady Sara is being manipulated by a bad witch! Once hero defeats the witch she will go back to normal!")
   0()
  EndIf()
  If(1,1028,0,8,0)
   ShowMessageFace("",0,0,2,2)
   ShowMessage("\\n<Boy>I knew it, lady Sara was manipulated by a bad witch! A hero defeated the witch and she returned back to normal!")
   0()
  EndIf()
  0()



EVENT   90
 PAGE   1
  If(1,1028,0,7,2)
   ShowMessageFace("",0,0,2,1)
   ShowMessage("\\n<Girl>Lady Sara turned into a succubus! Her lewd instincts awakened!")
   0()
  EndIf()
  If(1,1028,0,8,0)
   ShowMessageFace("",0,0,2,2)
   ShowMessage("\\n<Girl>I thought the Queen turned into a succubus... I won't acknowledge my mistake...!")
   0()
  EndIf()
  0()



EVENT   91
 PAGE   1
  ShowMessageFace("",0,0,2,1)
  ShowMessage("\\n<Dancer>Dancing in Grandeur's Grand Theater is my dreaam♪.")
  355("actor_label_jump")
  EndEventProcessing()
  DefineLabel("59")
  ShowMessageFace("mdg_fc1",0,0,2,2)
  ShowMessage("\\n<Ragora>I also look up to it...")
  EndEventProcessing()
  DefineLabel("114")
  ShowMessageFace("wakame_fc1",0,0,2,3)
  ShowMessage("\\n<Wakame>Seaweed, sways sway... seaweed also dance, on Grand Theater...")
  EndEventProcessing()
  0()



EVENT   92
 PAGE   1
  ShowMessageFace("",0,0,2,1)
  ShowMessage("\\n<Dancer>I'll go big one day...!")
  355("actor_label_jump")
  EndEventProcessing()
  DefineLabel("143")
  ShowMessageFace("eva_fc1",0,0,2,2)
  ShowMessage("\\n<Eva>Me too, I'll go big...!")
  EndEventProcessing()
  DefineLabel("155")
  ShowMessageFace("saki_fc1",0,0,2,3)
  ShowMessage("\\n<Saki>Do your best, I too was on the bottom of the ladder once...")
  EndEventProcessing()
  0()



EVENT   93
 PAGE   1
  If(1,1028,0,7,2)
   ShowMessageFace("",0,0,2,1)
   ShowMessage("\\n<Former Minister>There are people from the personal guard in tavern, in broad daylight... well, I'm no different though. ")
   EndEventProcessing()
   0()
  EndIf()
  If(1,1028,0,8,0)
   ShowMessageFace("",0,0,2,2)
   ShowMessage("\\n<Minister>Now that lady Sara's sanity returned I was also able to return to my work. ...then why am I in the tavern?")
   ShowMessageFace("",0,0,2,3)
   ShowMessage("\\n<Minister>I can no longer progress with work unless I'm in here...")
   355("actor_label_jump")
   EndEventProcessing()
   DefineLabel("75")
   ShowMessageFace("hituzi_fc1",3,0,2,4)
   ShowMessage("\\n<Mary>Taverns are optimal for doing work. That's why I'm hanging around in those...")
   If(4,74,0)
    ShowMessageFace("usagi_fc1",4,0,2,5)
    ShowMessage("\\n<Barnny>You aren't doing any work, are you...?")
    0()
   EndIf()
   EndEventProcessing()
   DefineLabel("529")
   ShowMessageFace("sara_fc3",3,0,2,6)
   ShowMessage("\\n<Sara>I should reprimand him, but thinking of the cause...")
   EndEventProcessing()
   0()
  EndIf()
  0()



EVENT   45
 PAGE   1
  ShowMessageFace("",0,0,2,1)
  ShowMessage("\\n<Knight>The King of Sabasa is definitely alive... There's no way that person would die so easily.")
  355("actor_label_jump")
  EndEventProcessing()
  DefineLabel("529")
  ShowMessageFace("sara_fc3",3,0,2,2)
  ShowMessage("\\n<Sara>Even now I see dreams of Father returning... Of course, I'm aware that's impossible.")
  EndEventProcessing()
  0()



EVENT   94
 PAGE   1
  If(1,1028,0,7,2)
   ShowMessageFace("",0,0,2,1)
   ShowMessage("\\n<Knight>After lady Sara has become the Queen all personal guards were fired. Instead, she recruited a bunch that's no better than thugs.")
   ShowMessageFace("",0,0,2,2)
   ShowMessage("\\n<Knight>They disparage the quality of Sabasa's military... or even Sabasa itself. Isn't there something I can do...?")
   EndEventProcessing()
   0()
  EndIf()
  If(1,1028,0,8,0)
   ShowMessageFace("",0,0,2,3)
   ShowMessage("\\n<Knight>Suddenly the personal guards were all fired. There have been fears whether they will cause social unrest after losing their jobs but...")
   ShowMessageFace("",0,0,2,4)
   ShowMessage("\\n<Knight>That bunch of small-time villains is quite far-sighted. It seems like there's no need to worry.")
   EndEventProcessing()
   0()
  EndIf()
  0()



EVENT   37
 PAGE   1
  ShowMessageFace("",0,0,2,1)
  ShowMessage("\\n<Middle-Aged Man>There's a rumor that the Grand Theater in Grandeur was taken over by a monster... Apparently an odd succubus is concerting there.")
  ShowMessageFace("",0,0,2,2)
  ShowMessage("\\n<Middle-Aged Man>She's unexpectedly popular so... it seems like she's becoming something like a new specialty of theirs.")
  355("actor_label_jump")
  EndEventProcessing()
  DefineLabel("143")
  ShowMessageFace("eva_fc1",0,0,2,3)
  ShowMessage("\\n<Eva>If I tried seriously I could do that much myself. Well, I won't be going serious though...")
  EndEventProcessing()
  DefineLabel("155")
  ShowMessageFace("saki_fc1",0,0,2,4)
  ShowMessage("\\n<Saki>Unfortunately, I don't do it any mooore♪.")
  EndEventProcessing()
  0()



EVENT   65
 PAGE   1
  ShowMessageFace("",0,0,2,1)
  ShowMessage("\\n<Gruff Man>It seems like you can undertake the 'Trial of Dragon Seal. ...But, these days it doesn't give you much fame.")
  ShowMessageFace("",0,0,2,2)
  ShowMessage("\\n<Gruff Man>We're in the middle of magic revolution and Machina technology is flourishing. The only ones who appreciate old rituals are old people.")
  355("actor_label_jump")
  EndEventProcessing()
  DefineLabel("150")
  ShowMessageFace("mummy_fc1",2,0,2,3)
  ShowMessage("\\n<Patra>The times change regardless of us... if this goes on, the reason behind the Pyramid's existence will be...")
  EndEventProcessing()
  DefineLabel("151")
  ShowMessageFace("kobura_fc1",0,0,2,4)
  ShowMessage("\\n<Lila>It'll be troubling if no one comes to take the trial. Who will I wound around then...")
  EndEventProcessing()
  0()



EVENT   70
 PAGE   1
  ShowMessageFace("",0,0,2,1)
  ShowMessage("\\n<Traveling Warrior>Monsters in these parts sure are strong... And if I go North they will become even stronger, making the journey even harsher.")
  ShowMessageFace("",0,0,2,2)
  ShowMessage("\\n<Traveling Warrior>I think about giving up here and staying in this castle town for a bit.")
  355("actor_label_jump")
  EndEventProcessing()
  DefineLabel("111")
  ShowMessageFace("suika_fc1",0,0,2,3)
  ShowMessage("\\n<Melon>...Well, eat some watermelon and hold up your head high.")
  EndEventProcessing()
  DefineLabel("144")
  ShowMessageFace("saboresu_fc1",0,0,2,4)
  ShowMessage("\\n<Sunny>I look forward towards the trip to the Nooorth♪.")
  EndEventProcessing()
  0()



EVENT   95
 PAGE   1
  ShowMessageFace("",0,0,2,1)
  ShowMessage("\\n<Royal Guard>Hey, what are ya lookin' at?!")
  0()
 PAGE   2
  // condition: variable 1028 >= 8
  ShowMessageFace("",0,0,2,1)
  ShowMessage("\\n<Former Royal Guard>It was short... but oh well. It's better than being involved in a revolution and lose my head.")
  355("actor_label_jump")
  EndEventProcessing()
  DefineLabel("88")
  ShowMessageFace("jack_fc1",0,0,2,2)
  ShowMessage("\\n<Pumpkin>You might lose your head? How scary... but my head is a pumpkin so I'm all right...")
  EndEventProcessing()
  DefineLabel("95")
  ShowMessageFace("delh_a_fc1",0,0,2,3)
  ShowMessage("\\n<Lona>If I lost my head I could debut as a dullahan.")
  EndEventProcessing()
  0()



EVENT   96
 PAGE   1
  ShowMessageFace("",0,0,2,1)
  ShowMessage("\\n<Royal Guard>Being a personal guard is a piss easy job. I just have to let a man alone pass to the Queen's room and that's all...")
  ShowMessageFace("",0,0,2,2)
  ShowMessage("\\n<Royal Guard>Eh? What does the man we let pass do with the Queen? Obviously 'that' right...?")
  0()
 PAGE   2
  // condition: variable 1028 >= 8
  ShowMessageFace("",0,0,2,1)
  ShowMessage("\\n<Former Royal Guard>It might have been the best timing to quit. We have garnered the resentment from the general public and there were sneak attack incidents here and there...")
  ShowMessageFace("",0,0,2,2)
  ShowMessage("\\n<Former Royal Guard>The bigger the crime the bigger the risk. It's best to just tag along.")
  355("actor_label_jump")
  EndEventProcessing()
  DefineLabel("142")
  ShowMessageFace("bander_fc1",0,0,2,3)
  ShowMessage("\\n<Banachi>What a prideless bunch... they truly are worthless.")
  EndEventProcessing()
  0()



EVENT   46
 PAGE   1
  If(1,1028,0,7,2)
   ShowMessageFace("",0,0,2,1)
   ShowMessage("\\n<Sleazy Youth>Did you meet the Queen yet? If you didn't, you should.")
   ShowMessageFace("",0,0,2,2)
   ShowMessage("\\n<Sleazy Youth>She'll suck everything out with that mouth of hers... it's awesome...")
   ShowMessageFace("",0,0,2,3)
   ShowMessage("\\n<Sleazy Youth>I wanted to endure it somehow and fuck her pussy but... I couldn't withstand her mouth technique.")
   EndEventProcessing()
   0()
  EndIf()
  If(1,1028,0,8,0)
   ShowMessageFace("",0,0,2,4)
   ShowMessage("\\n<Sleazy Youth>I won't forget that blowjob, sticking dick so hard... I guess she won't do it for me again...	")
   DefineLabel("529")
   ShowMessageFace("sara_fc3",3,0,2,5)
   ShowMessage("\\n<Sara>......")
   EndEventProcessing()
   0()
  EndIf()
  0()



EVENT   97
 PAGE   1
  If(1,1028,0,7,2)
   ShowMessageFace("",0,0,2,1)
   ShowMessage("\\n<Youth>I-I got aroused...! Maybe I should go as well...")
   ShowMessageFace("",0,0,2,2)
   ShowMessage("\\n<Youth>Ah, but I'm too aroused... I'm so hard and can't stand...")
   EndEventProcessing()
   0()
  EndIf()
  If(1,1028,0,8,0)
   ShowMessageFace("",0,0,2,3)
   ShowMessage("\\n<Youth>Ahh... In the end I missed the opportunity... Every day I was too thrilled and put it off for another day...")
   DefineLabel("529")
   ShowMessageFace("sara_fc3",3,0,2,4)
   ShowMessage("\\n<Sara>......")
   EndEventProcessing()
   0()
  EndIf()
  0()



EVENT   98
 PAGE   1
  ShowMessageFace("",0,0,2,1)
  ShowMessage("\\n<Girl>Grandpa loves the Pyramid. He says he's gonna make a book about his research.")
  ShowMessageFace("",0,0,2,2)
  ShowMessage("\\n<Girl>But it's not good to go there! It's full of scary monsters!")
  355("actor_label_jump")
  EndEventProcessing()
  DefineLabel("119")
  ShowMessageFace("page17_fc1",0,0,2,3)
  ShowMessage("\\n<Annie>I see, that sounds like an interesting book...")
  EndEventProcessing()
  DefineLabel("151")
  ShowMessageFace("kobura_fc1",1,0,2,4)
  ShowMessage("\\n<Lila>You're right, it's better not to get close to it... Fufufu...")
  EndEventProcessing()
  0()



EVENT   99
 PAGE   1
  ShowMessageFace("",0,0,2,1)
  ShowMessage("\\n<Young Girl>W-what is it...?! No... come out...?")
  355("actor_label_jump")
  EndEventProcessing()
  DefineLabel("529")
  ShowMessageFace("sara_fc3",2,0,2,2)
  ShowMessage("\\n<Sara>It's all right, there's no need to be scared...")
  ShowMessageFace("",0,0,2,3)
  ShowMessage("\\n<Young Girl>Y-you are...no way...how wonderful...")
  EndEventProcessing()
  0()



EVENT   100
 PAGE   1
  ShowMessageFace("",0,0,2,1)
  ShowMessage("\\n<Bishop>Weelcome to Sabasa's church. What can I do for you?")
  ShowChoices(strings("Pray","Never mind"),2)
  IfPlayerPicksChoice(0,null)
   ChangeVariable(1002,1002,0,0,15)
   ShowMessageFace("",0,0,2,2)
   ShowMessage("\\n<Bishop>Very well. Now let us pray to Ilias. ...there, you should feel a bond drawing you to this place.")
   ShowMessageFace("",0,0,2,3)
   ShowMessage("\\n<Bishop>If something were to happen to you on your journey, the bond should lead you back here. May Ilias watch over you...")
   0()
  IfPlayerPicksChoice(1,null)
   ShowMessageFace("",0,0,2,4)
   ShowMessage("\\n<Bishop>May Ilias watch over you...")
   0()
  404()
  0()



EVENT   58
 PAGE   1
  If(1,1028,0,7,2)
   ShowMessageFace("",0,0,2,1)
   ShowMessage("\\n<Nun>The expeditionary force was pulled back, but I agree with that. We shouldn't shed any more blood for foreign countries...")
   EndEventProcessing()
   0()
  EndIf()
  If(1,1028,0,8,0)
   ShowMessageFace("",0,0,2,2)
   ShowMessage("\\n<Nun>It was decided we send an expeditionary force again. We shouldn't shed any more blood for foreign countries...")
   EndEventProcessing()
   0()
  EndIf()
  0()



EVENT   47
 PAGE   1
  If(1,1028,0,7,2)
   ShowMessageFace("",0,0,2,1)
   ShowMessage("\\n<Religious Young Man>I will pray to the Goddess so that her Majesty regains sanity. Right now I can only consider her Majesty possessed by the devil...")
   EndEventProcessing()
   0()
  EndIf()
  If(1,1028,0,8,0)
   ShowMessageFace("",0,0,2,2)
   ShowMessage("\\n<Religious Young Man>The prayer appears to have reached the heavens. Although lady Sara has abdicated, she regained sanity.")
   EndEventProcessing()
   0()
  EndIf()
  0()



EVENT   36
 PAGE   1
  ShowMessageFace("",0,0,2,1)
  ShowMessage("\\n<Man>My son went to work in Rubiana, and, just like that he was involved in the disappearance incident...")
  ShowMessageFace("",0,0,2,2)
  ShowMessage("\\n<Man>They say there's a high possibility they left the village our of their own will. But he, who was very attached to his parents wouldn't leave without telling us anything...")
  355("actor_label_jump")
  EndEventProcessing()
  DefineLabel("98")
  ShowMessageFace("minikani_fc1",0,0,2,3)
  ShowMessage("\\n<Amy>He'll come back safely, I'll pray for that as well. In exchange, pray that I meet my Mom as well♪.")
  EndEventProcessing()
  0()



EVENT   102
 PAGE   1
  ShowMessageFace("sisterlamia_fc1",3,0,2,1)
  ShowMessage("\\n<Sister Lamia>Both human society and monster society... go through great hardships. This is a trial given to us by the Goddess, let's overcome it with our strong will.")
  355("actor_label_jump")
  EndEventProcessing()
  DefineLabel("122")
  ShowMessageFace("sisterlamia_fc1",0,0,2,2)
  ShowMessage("\\n<Sofia>Yes... let's do our best, both of us.")
  EndEventProcessing()
  DefineLabel("123")
  ShowMessageFace("sisccubus_fc1",2,0,2,3)
  ShowMessage("\\n<Christie>That sounds very exaggerated...")
  EndEventProcessing()
  0()



EVENT   103
 PAGE   1
  ShowMessageFace("",0,0,2,1)
  ShowMessage("\\n<Boy>I wish my entire family lives happily!")
  355("actor_label_jump")
  EndEventProcessing()
  DefineLabel("118")
  ShowMessageFace("meia_fc1",2,0,2,2)
  ShowMessage("\\n<Meia>It would be good if that wish reached the heavens...")
  EndEventProcessing()
  0()



EVENT   104
 PAGE   1
  If(1,1028,0,7,2)
   ShowMessageFace("",0,0,2,1)
   ShowMessage("\\n<Old Man>Bad things continue to happen... Recently, I've started coming to the church every day together with my grandchildren.")
   EndEventProcessing()
   0()
  EndIf()
  If(1,1028,0,8,0)
   ShowMessageFace("",0,0,2,2)
   ShowMessage("\\n<Old Man>I feel that the world is gradually turning for better. From here on as well, I'm going to come to the church with my grandchildren every day.")
   EndEventProcessing()
   0()
  EndIf()
  0()



EVENT   105
 PAGE   1
  ShowMessageFace("",0,0,2,1)
  ShowMessage("\\n<Woman>My husband is on expedition... I can only pray that he returns home safely.")
  355("actor_label_jump")
  EndEventProcessing()
  DefineLabel("41")
  ShowMessageFace("stein_fc2",0,0,2,2)
  ShowMessage("\\n<Promestein>Prayers are futile.")
  EndEventProcessing()
  DefineLabel("86")
  ShowMessageFace("name_s_fc1",0,0,2,3)
  ShowMessage("\\n<Rosary>Let's pray sincerely. And then, surely...")
  EndEventProcessing()
  DefineLabel("122")
  ShowMessageFace("sisterlamia_fc1",0,0,2,4)
  ShowMessage("\\n<Sofia>I'll pray together with you. ...I wish your husband return safely...")
  EndEventProcessing()
  0()



EVENT   106
 PAGE   1
  If(1,1028,0,7,2)
   ShowMessageFace("",0,0,2,1)
   ShowMessage("\\n<Woman>Recently the soldiers turned horrible... during the previous King's era they were very strong and kind.")
   0()
  EndIf()
  If(1,1028,0,8,0)
   ShowMessageFace("",0,0,2,2)
   ShowMessage("\\n<Woman>Apparently those thug-like soldiers were all fired. I hope they won't do anything bad now...")
   355("actor_label_jump")
   EndEventProcessing()
   DefineLabel("529")
   ShowMessageFace("sara_fc3",0,0,2,3)
   ShowMessage("\\n<Sara>Of course, we took measures to fight unemployment. The demand for construction will be increased, which will be enough to accept them.")
   EndEventProcessing()
   0()
  EndIf()
  0()



EVENT   107
 PAGE   1
  ShowMessageFace("",0,0,2,1)
  ShowMessage("\\n<Merchant>Disaster, war, famine... Well prepared means no worries in time of need. Even in case the bordering villages fall into food shortage we can deal with it immediately.")
  355("actor_label_jump")
  EndEventProcessing()
  DefineLabel("5")
  ShowMessageFace("alice_fc5",2,0,2,2)
  ShowMessage("\\n<Alice>This is bad! My stomach fell into food shortage!")
  EndEventProcessing()
  DefineLabel("102")
  ShowMessageFace("youko_fc1",0,0,2,3)
  ShowMessage("\\n<Kitsu>Can I eat a little...? I guess not...")
  EndEventProcessing()
  0()



EVENT   108
 PAGE   1
  ShowMessageFace("",0,0,2,1)
  ShowMessage("\\n<Mermaid>On the floor above there's a Mermaaaid Pub♪.")
  0()



EVENT   109
 PAGE   1
  ShowMessageFace("",0,0,2,1)
  ShowMessage("\\n<Mermaid>Geez... make sure to look at me.")
  355("actor_label_jump")
  EndEventProcessing()
  DefineLabel("74")
  ShowMessageFace("usagi_fc1",2,0,2,2)
  ShowMessage("\\n<Barnny>To look away from the person you are with... what a troublesome person.")
  EndEventProcessing()
  0()



EVENT   112
 PAGE   1
  ShowMessageFace("",0,0,2,1)
  ShowMessage("\\n<Mermaid>Then how about taking it off? Ufufufu...")
  355("actor_label_jump")
  EndEventProcessing()
  DefineLabel("116")
  ShowMessageFace("iso_fc1",0,0,2,2)
  ShowMessage("\\n<Isabelle>It's easier to eat them that way...")
  EndEventProcessing()
  0()



EVENT   110
 PAGE   1
  ShowMessageFace("",0,0,2,1)
  ShowMessage("\\n<Gruff Man>This pub is the oasis of my heart... but it's troubling when my clothes get wet.")
  355("actor_label_jump")
  EndEventProcessing()
  DefineLabel("99")
  ShowMessageFace("namazu_fc1",0,0,2,2)
  ShowMessage("\\n<Gigi>There are many mermaids inexperienced in moving on land in this pub. Should I teach them a little...?")
  EndEventProcessing()
  DefineLabel("118")
  ShowMessageFace("meia_fc1",0,0,2,3)
  ShowMessage("\\n<Meia>It looks like there are many mermaids inexperienced at moving on land in here.")
  EndEventProcessing()
  0()



EVENT   113
 PAGE   1
  ShowMessageFace("",0,0,2,1)
  ShowMessage("\\n<Mermaid>Welcome!! This is the second Mermaid Pub♪.")
  355("actor_label_jump")
  EndEventProcessing()
  DefineLabel("118")
  ShowMessageFace("meia_fc1",0,0,2,2)
  ShowMessage("\\n<Meia>Oh my, so Sabasa also had a Mermaid Pub.")
  EndEventProcessing()
  DefineLabel("103")
  ShowMessageFace("kamuro_fc1",2,0,2,3)
  ShowMessage("\\n<Kamuro>I-I think this kind of place... i-is no good.")
  EndEventProcessing()
  DefineLabel("116")
  ShowMessageFace("iso_fc1",0,0,2,4)
  ShowMessage("\\n<Isabelle>I actually got a little hungry, maybe I should eat a mermaid... ...Just joking.")
  EndEventProcessing()
  0()



EVENT   114
 PAGE   1
  ShowMessageFace("",0,0,2,1)
  ShowMessage("\\n<Man>Y'know, the golden pattern here is... drink a little then rush in to the second floor's Mermaid Pub, kinda.")
  355("actor_label_jump")
  EndEventProcessing()
  DefineLabel("66")
  ShowMessageFace("vgirl_fc1",0,0,2,2)
  ShowMessage("\\n<Vanilla>In that case, to counter the Mermaid Pub I should make a vampire pub... but I guess that would be just a rip-off.")
  EndEventProcessing()
  DefineLabel("81")
  ShowMessageFace("mitubati_fc1",0,0,2,3)
  ShowMessage("\\n<Honey>For some reason mermaids are really popular with humans, aren't they. In the end, I'm just a disgusting insect-type...")
  EndEventProcessing()
  0()



EVENT   115
 PAGE   1
  ShowMessageFace("",0,0,2,1)
  ShowMessage("\\n<Mermaid>These are really harsh times... but try to forget it all at least in here.")
  355("actor_label_jump")
  EndEventProcessing()
  DefineLabel("121")
  ShowMessageFace("page65537_fc1",0,0,2,2)
  ShowMessage("\\n<Cornelia>We don't have time to avert our eyes from reality.")
  EndEventProcessing()
  DefineLabel("129")
  ShowMessageFace("brunhild_fc1",0,0,2,3)
  ShowMessage("\\n<Hild>Hild won't forget... because at this rate, the world will perish...")
  EndEventProcessing()
  0()



EVENT   116
 PAGE   1
  ShowMessageFace("",0,0,2,1)
  ShowMessage("\\n<Knight>Sabasa's knight should not disturb himself in places like this...! Yes, but mermaid's boobs are...! Also their buttss!")
  355("actor_label_jump")
  EndEventProcessing()
  DefineLabel("95")
  ShowMessageFace("delh_a_fc1",0,0,2,2)
  ShowMessage("\\n<Lona>It looks like he still lacks training...")
  EndEventProcessing()
  DefineLabel("96")
  ShowMessageFace("delh_b_fc1",0,0,2,3)
  ShowMessage("\\n<Marion>It's fine, don't resist it and fall...")
  EndEventProcessing()
  0()



EVENT   117
 PAGE   1
  ShowMessageFace("",0,0,2,1)
  ShowMessage("\\n<Mermaid>This kind of thing is against the pub's rules♪, but if I drink lots I might lose about the rules...")
  355("actor_label_jump")
  EndEventProcessing()
  DefineLabel("74")
  ShowMessageFace("usagi_fc1",2,0,2,2)
  ShowMessage("\\n<Barnny>Oh my, I'm not too impressed by that kind of thing...")
  EndEventProcessing()
  DefineLabel("78")
  ShowMessageFace("syesta_fc1",0,0,2,3)
  ShowMessage("\\n<Shesta>You forget once you drink lots? Then what if I drank lots as well...?")
  EndEventProcessing()
  0()



EVENT   118
 PAGE   1
  ShowMessageFace("",0,0,2,1)
  ShowMessage("\\n<Middle-Aged Man>Miho-chan, how about tonight?")
  0()



EVENT   119
 PAGE   1
  ShowMessageFace("okami_fc1",0,0,2,1)
  ShowMessage("\\n<Wolf Girl>Ugrawrr! There isn't much equipment beast-types can equip so I'll compensate that with accessories!")
  355("actor_label_jump")
  EndEventProcessing()
  DefineLabel("124")
  ShowMessageFace("arikui_fc1",0,0,2,2)
  ShowMessage("\\n<Kyona>'Cause we get injured often, don't we...")
  EndEventProcessing()
  DefineLabel("125")
  ShowMessageFace("grizzly_fc1",0,0,2,3)
  ShowMessage("\\n<Aisha>BEAAAR it! We sure have it tough!")
  EndEventProcessing()
  0()



EVENT   120
 PAGE   1
  ShowMessageFace("",0,0,2,1)
  ShowMessage("\\n<Traveling Warrior>Dragon Killer... truly something a warrior yearns to be. But since I'm still just a Warrior, I can't equip Knight Swords yet...")
  0()



EVENT   121
 PAGE   1
  ShowMessageFace("",0,0,2,1)
  ShowMessage("\\n<Female Hunter>Avis are large bird-beast type monsters. They use claws and fangs as weapons, they are apparition birds who spit fire.")
  ShowMessageFace("",0,0,2,2)
  ShowMessage("\\n<Female Hunter>That's why, Avis Killer seems like it would only have effect on the apparition birds... but in fact, it's strong against all bird monsters and not just Avis.")
  355("actor_label_jump")
  EndEventProcessing()
  DefineLabel("83")
  ShowMessageFace("hapy_a_fc1",0,0,2,3)
  ShowMessage("\\n<Reina>But don't Avis live in places far from human territories? Actually, I haven't seen any myself either...")
  EndEventProcessing()
  0()



EVENT   122
 PAGE   1
  ShowMessageFace("",0,0,2,1)
  ShowMessage("\\n<Mage>The Black Robe has an effect of increasing Black Magic's power. It's part of equipment a Black Mage shouldn't part with...")
  0()



EVENT   123
 PAGE   1
  If(1,1028,0,7,2)
   ShowMessageFace("",0,0,2,1)
   ShowMessage("\\n<Traveling Warrior>I thought I could calm myself a bit in Sabasa but... the atmosphere is worse than I expected.")
   ShowMessageFace("",0,0,2,2)
   ShowMessage("\\n<Traveling Warrior>While I planned to stay here for a while, this is really depressing.")
   0()
  EndIf()
  If(1,1028,0,8,0)
   ShowMessageFace("",0,0,2,3)
   ShowMessage("\\n<Traveling Warrior>Ever since Queen had regained her sanity, the atmosphere in the city had improved visibly. I feel like it's the first time I see real Sabasa.")
   0()
  EndIf()
  0()



EVENT   124
 PAGE   1
  ShowMessageFace("",0,0,2,1)
  ShowMessage("\\n<Receptionist>Welcome, would you like to stay? It'll cost you 10G.\\$")
  ShowChoices(strings("Yes","No"),2)
  IfPlayerPicksChoice(0,null)
   If(7,10,0)
    125(1,0,10)
    221()
    249(bytes(0x04,0x08,0x6f,0x3a,0x0c,0x52,0x50,0x47,0x3a,0x3a,0x4d,0x45,0x08,0x3a,0x0a,0x40,0x6e,0x61,0x6d,0x65,0x49,0x22,0x08,0x49,0x6e,0x6e,0x06,0x3a,0x06,0x45,0x54,0x3a,0x0b,0x40,0x70,0x69,0x74,0x63,0x68,0x69,0x69,0x3a,0x0c,0x40,0x76,0x6f,0x6c,0x75,0x6d,0x65,0x69,0x69))
    Wait(150)
    314(0,0)
    222()
    0()
   Else()
    ShowMessageFace("",0,0,2,2)
    ShowMessage("\\n<Receptionist>It appears you don't have enough money...")
    0()
   EndIf()
   0()
  IfPlayerPicksChoice(1,null)
   0()
  404()
  0()



EVENT   126
 PAGE   1
  ShowMessageFace("",0,0,2,1)
  ShowMessage("\\n<Adventurer>I plan long-term stay here in order to look for Pyramid's hidden treasures. Still, the monsters there really are tough...")
  355("actor_label_jump")
  EndEventProcessing()
  DefineLabel("150")
  ShowMessageFace("mummy_fc1",0,0,2,2)
  ShowMessage("\\n<Patra>You look familiar... If I'm not wrong, you're the man who ran away at full speed upon seeing me...")
  ShowMessageFace("",0,0,2,3)
  ShowMessage("\\n<Adventurer>Hyaa! She chased me all this way?!")
  EndEventProcessing()
  DefineLabel("151")
  ShowMessageFace("kobura_fc1",1,0,2,4)
  ShowMessage("\\n<Lila>If I meet you in the Pyramid, I'll squeeze around you plenty...")
  EndEventProcessing()
  0()



EVENT   125
 PAGE   1
  0()



EVENT   127
 PAGE   1
  ShowMessageFace("",0,0,2,1)
  ShowMessage("\\n<Receptionist>Welcome, would you like to stay? It'll cost you 10G.\\$")
  ShowChoices(strings("Yes","No"),2)
  IfPlayerPicksChoice(0,null)
   If(7,10,0)
    125(1,0,10)
    221()
    249(bytes(0x04,0x08,0x6f,0x3a,0x0c,0x52,0x50,0x47,0x3a,0x3a,0x4d,0x45,0x08,0x3a,0x0a,0x40,0x6e,0x61,0x6d,0x65,0x49,0x22,0x08,0x49,0x6e,0x6e,0x06,0x3a,0x06,0x45,0x54,0x3a,0x0b,0x40,0x70,0x69,0x74,0x63,0x68,0x69,0x69,0x3a,0x0c,0x40,0x76,0x6f,0x6c,0x75,0x6d,0x65,0x69,0x69))
    Wait(150)
    314(0,0)
    222()
    0()
   Else()
    ShowMessageFace("",0,0,2,2)
    ShowMessage("\\n<Receptionist>It appears you don't have enough money...")
    0()
   EndIf()
   0()
  IfPlayerPicksChoice(1,null)
   0()
  404()
  0()



EVENT   128
 PAGE   1
  ShowMessageFace("",0,0,2,1)
  ShowMessage("\\n<Rural Youth>What a large inn... it's completely different from my village's one.")
  355("actor_label_jump")
  EndEventProcessing()
  DefineLabel("90")
  ShowMessageFace("meda_fc1",0,0,2,2)
  ShowMessage("\\n<Meru Meru>I hate large places... *rustle**rustle*, *squirm**squirm*...")
  EndEventProcessing()
  DefineLabel("113")
  ShowMessageFace("lamia_fc1",0,0,2,3)
  ShowMessage("\\n<Anastasia>Not just the inn, all the buildings here are large... I guess it's because there's a lot of land to use?")
  EndEventProcessing()
  0()



EVENT   130
 PAGE   1
  ShowMessageFace("",0,0,2,1)
  ShowMessage("\\n<Bat>*flap* *flap*...")
  0()



EVENT   131
 PAGE   1
  ShowMessageFace("",0,0,2,1)
  ShowMessage("\\n<Bat>*flap* *flap*...")
  0()



EVENT   132
 PAGE   1
  ShowMessageFace("",0,0,2,1)
  ShowMessage("\\n<Bat>*flap* *flap*...")
  0()



EVENT   133
 PAGE   1
  ShowMessageFace("",0,0,2,1)
  ShowMessage("\\n<Bat>......")
  ShowMessageFace("",0,0,2,2)
  ShowMessage("Calm music is laying in the background...")
  0()



EVENT   38
 PAGE   1
  ShowMessageFace("",0,0,2,1)
  ShowMessage("\\n<Soldier>There are many abilities that exert their effect when on verge of death. When you have low HP the Critical Rate or Evasion Rate goes up, for example...")
  ShowMessageFace("",0,0,2,2)
  ShowMessage("\\n<Soldier>Equipping every of those abilities I have available... and, fighting while on verge of death on purpose...")
  ShowMessageFace("",0,0,2,3)
  ShowMessage("\\n<Soldier>That is my strategy I risk my life with! The one drawback is that I die if I make one mistake, but...")
  355("actor_label_jump")
  EndEventProcessing()
  DefineLabel("82")
  ShowMessageFace("suzume_fc1",3,0,2,4)
  ShowMessage("\\n<Chirp>That's a scary strategy... without high Evasion Rate you'd die right away.")
  EndEventProcessing()
  DefineLabel("99")
  ShowMessageFace("namazu_fc1",0,0,2,5)
  ShowMessage("\\n<Gigi>That fighting style sounds like gambling...")
  EndEventProcessing()
  0()



EVENT   134
 PAGE   1
  ShowMessageFace("alraune_fc1",0,0,2,1)
  ShowMessage("\\n<Alraune>Most of healing skills such as Cure don't heal special statuses such as Zombie or Minimum.")
  ShowMessageFace("alraune_fc1",0,0,2,2)
  ShowMessage("\\n<Alraune>But if it's the Healing Honey skill plant-type mobs use, it can heal aaaany status♪.")
  355("actor_label_jump")
  EndEventProcessing()
  DefineLabel("59")
  ShowMessageFace("mdg_fc1",0,0,2,3)
  ShowMessage("\\n<Ragora>That's how it is, so it's fine to rely on me. Even I aren't only good for sleeping in the ground and shouting...")
  EndEventProcessing()
  DefineLabel("111")
  ShowMessageFace("suika_fc1",1,0,2,4)
  ShowMessage("\\n<Melon>I'll heal you with my watermelon♪.")
  EndEventProcessing()
  DefineLabel("112")
  ShowMessageFace("utubo_fc1",2,0,2,5)
  ShowMessage("\\n<Kazura>I'm not good with healing... could you ask for something else?")
  EndEventProcessing()
  0()



EVENT   135
 PAGE   1
  250(bytes(0x04,0x08,0x6f,0x3a,0x0c,0x52,0x50,0x47,0x3a,0x3a,0x53,0x45,0x08,0x3a,0x0a,0x40,0x6e,0x61,0x6d,0x65,0x49,0x22,0x0a,0x49,0x74,0x65,0x6d,0x31,0x06,0x3a,0x06,0x45,0x54,0x3a,0x0b,0x40,0x70,0x69,0x74,0x63,0x68,0x69,0x69,0x3a,0x0c,0x40,0x76,0x6f,0x6c,0x75,0x6d,0x65,0x69,0x55))
  ChangeSelfSwitch("A",0)
  ChangeInventory_Item(427,0,0,1)
  0()
 PAGE   2
  // condition: self-switch A is ON
  0()



EVENT   136
 PAGE   1
  250(bytes(0x04,0x08,0x6f,0x3a,0x0c,0x52,0x50,0x47,0x3a,0x3a,0x53,0x45,0x08,0x3a,0x0a,0x40,0x6e,0x61,0x6d,0x65,0x49,0x22,0x0a,0x49,0x74,0x65,0x6d,0x31,0x06,0x3a,0x06,0x45,0x54,0x3a,0x0b,0x40,0x70,0x69,0x74,0x63,0x68,0x69,0x69,0x3a,0x0c,0x40,0x76,0x6f,0x6c,0x75,0x6d,0x65,0x69,0x55))
  ChangeSelfSwitch("A",0)
  ChangeInventory_Item(30,0,0,1)
  0()
 PAGE   2
  // condition: self-switch A is ON
  0()



EVENT   137
 PAGE   1
  250(bytes(0x04,0x08,0x6f,0x3a,0x0c,0x52,0x50,0x47,0x3a,0x3a,0x53,0x45,0x08,0x3a,0x0a,0x40,0x6e,0x61,0x6d,0x65,0x49,0x22,0x0a,0x49,0x74,0x65,0x6d,0x31,0x06,0x3a,0x06,0x45,0x54,0x3a,0x0b,0x40,0x70,0x69,0x74,0x63,0x68,0x69,0x69,0x3a,0x0c,0x40,0x76,0x6f,0x6c,0x75,0x6d,0x65,0x69,0x55))
  ChangeSelfSwitch("A",0)
  ChangeInventory_Item(315,0,0,1)
  0()
 PAGE   2
  // condition: self-switch A is ON
  0()



EVENT   138
 PAGE   1
  250(bytes(0x04,0x08,0x6f,0x3a,0x0c,0x52,0x50,0x47,0x3a,0x3a,0x53,0x45,0x08,0x3a,0x0a,0x40,0x6e,0x61,0x6d,0x65,0x49,0x22,0x0a,0x49,0x74,0x65,0x6d,0x31,0x06,0x3a,0x06,0x45,0x54,0x3a,0x0b,0x40,0x70,0x69,0x74,0x63,0x68,0x69,0x69,0x3a,0x0c,0x40,0x76,0x6f,0x6c,0x75,0x6d,0x65,0x69,0x55))
  ChangeSelfSwitch("A",0)
  ChangeInventory_Item(444,0,0,1)
  0()
 PAGE   2
  // condition: self-switch A is ON
  0()



EVENT   139
 PAGE   1
  250(bytes(0x04,0x08,0x6f,0x3a,0x0c,0x52,0x50,0x47,0x3a,0x3a,0x53,0x45,0x08,0x3a,0x0a,0x40,0x6e,0x61,0x6d,0x65,0x49,0x22,0x0a,0x49,0x74,0x65,0x6d,0x31,0x06,0x3a,0x06,0x45,0x54,0x3a,0x0b,0x40,0x70,0x69,0x74,0x63,0x68,0x69,0x69,0x3a,0x0c,0x40,0x76,0x6f,0x6c,0x75,0x6d,0x65,0x69,0x55))
  ChangeSelfSwitch("A",0)
  ChangeInventoryArmor(164,0,0,1,false)
  0()
 PAGE   2
  // condition: self-switch A is ON
  0()



EVENT   140
 PAGE   1
  250(bytes(0x04,0x08,0x6f,0x3a,0x0c,0x52,0x50,0x47,0x3a,0x3a,0x53,0x45,0x08,0x3a,0x0a,0x40,0x6e,0x61,0x6d,0x65,0x49,0x22,0x0a,0x49,0x74,0x65,0x6d,0x31,0x06,0x3a,0x06,0x45,0x54,0x3a,0x0b,0x40,0x70,0x69,0x74,0x63,0x68,0x69,0x69,0x3a,0x0c,0x40,0x76,0x6f,0x6c,0x75,0x6d,0x65,0x69,0x55))
  ChangeSelfSwitch("A",0)
  ChangeInventory_Item(176,0,0,1)
  0()
 PAGE   2
  // condition: self-switch A is ON
  0()



EVENT   141
 PAGE   1
  250(bytes(0x04,0x08,0x6f,0x3a,0x0c,0x52,0x50,0x47,0x3a,0x3a,0x53,0x45,0x08,0x3a,0x0a,0x40,0x6e,0x61,0x6d,0x65,0x49,0x22,0x0a,0x49,0x74,0x65,0x6d,0x31,0x06,0x3a,0x06,0x45,0x54,0x3a,0x0b,0x40,0x70,0x69,0x74,0x63,0x68,0x69,0x69,0x3a,0x0c,0x40,0x76,0x6f,0x6c,0x75,0x6d,0x65,0x69,0x55))
  ChangeSelfSwitch("A",0)
  ChangeInventory_Item(192,0,0,1)
  0()
 PAGE   2
  // condition: self-switch A is ON
  0()



EVENT   142
 PAGE   1
  250(bytes(0x04,0x08,0x6f,0x3a,0x0c,0x52,0x50,0x47,0x3a,0x3a,0x53,0x45,0x08,0x3a,0x0a,0x40,0x6e,0x61,0x6d,0x65,0x49,0x22,0x0a,0x49,0x74,0x65,0x6d,0x31,0x06,0x3a,0x06,0x45,0x54,0x3a,0x0b,0x40,0x70,0x69,0x74,0x63,0x68,0x69,0x69,0x3a,0x0c,0x40,0x76,0x6f,0x6c,0x75,0x6d,0x65,0x69,0x55))
  ChangeSelfSwitch("A",0)
  ChangeInventory_Item(414,0,0,1)
  0()
 PAGE   2
  // condition: self-switch A is ON
  0()



EVENT   143
 PAGE   1
  250(bytes(0x04,0x08,0x6f,0x3a,0x0c,0x52,0x50,0x47,0x3a,0x3a,0x53,0x45,0x08,0x3a,0x0a,0x40,0x6e,0x61,0x6d,0x65,0x49,0x22,0x0a,0x49,0x74,0x65,0x6d,0x31,0x06,0x3a,0x06,0x45,0x54,0x3a,0x0b,0x40,0x70,0x69,0x74,0x63,0x68,0x69,0x69,0x3a,0x0c,0x40,0x76,0x6f,0x6c,0x75,0x6d,0x65,0x69,0x55))
  ChangeSelfSwitch("A",0)
  ChangeInventory_Item(427,0,0,1)
  0()
 PAGE   2
  // condition: self-switch A is ON
  0()



EVENT   144
 PAGE   1
  // condition: switch 31 is ON
  0()



EVENT   111
 PAGE   1
  ShowMessageFace("",0,0,2,1)
  ShowMessage("\\n<Youth>Haa, haaa... I want to live here forever...")
  355("actor_label_jump")
  EndEventProcessing()
  DefineLabel("72")
  ShowMessageFace("phoenix_fc1",3,0,2,2)
  ShowMessage("\\n<Mini>Is that so? You're a strange one...")
  EndEventProcessing()
  0()



EVENT   129
 PAGE   1
  If(1,1030,0,1,2)
   ShowMessageFace("vampire_fc1",0,0,2,1)
   ShowMessage("\\n<Vampire>For the Grand Theater to be taken over by a lowly succubus... Hey adventurer, go send her to oblivion.")
   ShowMessageFace("vampire_fc1",0,0,2,2)
   ShowMessage("\\n<Vampire>I should do it myself? Because of all the illumination there I can't find any strength...")
   0()
  EndIf()
  If(1,1030,0,2,1)
   If(2,"A",1)
    ChangeSelfSwitch("A",0)
    ShowMessageFace("vampire_fc1",0,0,2,3)
    ShowMessage("\\n<Vampire>So you freed the Grand Theater from the succubus' hands... here, I'll give you this.")
    250(bytes(0x04,0x08,0x6f,0x3a,0x0c,0x52,0x50,0x47,0x3a,0x3a,0x53,0x45,0x08,0x3a,0x0a,0x40,0x6e,0x61,0x6d,0x65,0x49,0x22,0x0a,0x49,0x74,0x65,0x6d,0x31,0x06,0x3a,0x06,0x45,0x54,0x3a,0x0b,0x40,0x70,0x69,0x74,0x63,0x68,0x69,0x69,0x3a,0x0c,0x40,0x76,0x6f,0x6c,0x75,0x6d,0x65,0x69,0x55))
    ChangeInventory_Item(32,0,0,1)
    0()
   EndIf()
   ShowMessageFace("vampire_fc1",0,0,2,4)
   ShowMessage("\\n<Vampire>Well then, let's go to the Grand Theater. I've slept well over here for the last few days...")
   0()
  EndIf()
  0()



EVENT   80
 PAGE   1
  ShowMessageFace("",0,0,2,1)
  ShowMessage("\\n<Traveling Entertainer>The Grandeur's stage isn't available any more and it's been canceled they say... Well, I don't mind since they're going to pay me penalty for contract breach.")
  ShowMessageFace("",0,0,2,2)
  ShowMessage("\\n<Traveling Entertainer>But I hear that the stage has been hijacked by a succubus... moreover, apparently she's really popular.")
  0()



EVENT   84
 PAGE   1
  If(1,1028,0,7,2)
   ShowMessageFace("",0,0,2,1)
   ShowMessage("\\n<Rich-Looking Man>Still, this country turned really horrible... At this rate I'll have to consider fleeing from the country.")
   ShowMessageFace("",0,0,2,2)
   ShowMessage("\\n<Rich-Looking Man>Saloon, or maybe San Ilia... speaking of security, it might be good to consider Iliasberg despite all the distance.")
   ShowMessageFace("",0,0,2,3)
   ShowMessage("\\n<Rich-Looking Man>I feel awkward about abandoning my homeland... but I need to think about my family.")
   0()
  EndIf()
  If(1,1028,0,8,0)
   ShowMessageFace("",0,0,2,4)
   ShowMessage("\\n<Rich-Looking Man>I no longer have to abandon the country. ...is what I thought, but the youmas behind all this are still a mystery, right?")
   ShowMessageFace("",0,0,2,5)
   ShowMessage("\\n<Rich-Looking Man>If they're still around they might target Sabasa gain... Ahh, I don't feel safe at all!")
   0()
  EndIf()
  0()



EVENT   31
 PAGE   1
  // condition: switch 1074 is ON
  // condition: switch 1075 is ON
  If(2,"A",1)
   ChangeSelfSwitch("A",0)
   ChangeVariable(1037,1037,1,0,1)
   0()
  EndIf()
  ShowMessageFace("hituzi_fc1",3,0,2,1)
  ShowMessage("\\n<Mary>I could drink alcohol without end... *gulp* *gulp*...")
  ShowMessageFace("",0,0,2,2)
  ShowMessage("That's our sheep...")
  ShowMessageFace("hituzi_fc1",3,0,2,3)
  ShowMessage("\\n<Mary>Uehehehe...")
  ShowMessageFace("hituzi_fc1",7,0,2,4)
  ShowMessage("\\n<Mary>*gulp* *gulp* *gulp*ぐ...")
  ShowMessageFace("hituzi_fc1",3,0,2,5)
  ShowMessage("\\n<Mary>Uehehehe...")
  250(bytes(0x04,0x08,0x6f,0x3a,0x0c,0x52,0x50,0x47,0x3a,0x3a,0x53,0x45,0x08,0x3a,0x0a,0x40,0x6e,0x61,0x6d,0x65,0x49,0x22,0x09,0x4d,0x6f,0x76,0x65,0x06,0x3a,0x06,0x45,0x54,0x3a,0x0b,0x40,0x70,0x69,0x74,0x63,0x68,0x69,0x69,0x3a,0x0c,0x40,0x76,0x6f,0x6c,0x75,0x6d,0x65,0x69,0x55))
  ChangeSwitch(31,31,0)
  If(6,-1,8)
   205(-1,bytes(0x04,0x08,0x6f,0x3a,0x13,0x52,0x50,0x47,0x3a,0x3a,0x4d,0x6f,0x76,0x65,0x52,0x6f,0x75,0x74,0x65,0x09,0x3a,0x0c,0x40,0x72,0x65,0x70,0x65,0x61,0x74,0x46,0x3a,0x0f,0x40,0x73,0x6b,0x69,0x70,0x70,0x61,0x62,0x6c,0x65,0x46,0x3a,0x0a,0x40,0x77,0x61,0x69,0x74,0x46,0x3a,0x0a,0x40,0x6c,0x69,0x73,0x74,0x5b,0x08,0x6f,0x3a,0x15,0x52,0x50,0x47,0x3a,0x3a,0x4d,0x6f,0x76,0x65,0x43,0x6f,0x6d,0x6d,0x61,0x6e,0x64,0x07,0x3a,0x0a,0x40,0x63,0x6f,0x64,0x65,0x69,0x08,0x3a,0x10,0x40,0x70,0x61,0x72,0x61,0x6d,0x65,0x74,0x65,0x72,0x73,0x5b,0x00,0x6f,0x3b,0x0a,0x07,0x3b,0x0b,0x69,0x16,0x3b,0x0c,0x5b,0x00,0x6f,0x3b,0x0a,0x07,0x3b,0x0b,0x69,0x00,0x3b,0x0c,0x5b,0x00))
   0()
  EndIf()
  217()
  205(144,bytes(0x04,0x08,0x6f,0x3a,0x13,0x52,0x50,0x47,0x3a,0x3a,0x4d,0x6f,0x76,0x65,0x52,0x6f,0x75,0x74,0x65,0x09,0x3a,0x0c,0x40,0x72,0x65,0x70,0x65,0x61,0x74,0x46,0x3a,0x0f,0x40,0x73,0x6b,0x69,0x70,0x70,0x61,0x62,0x6c,0x65,0x46,0x3a,0x0a,0x40,0x77,0x61,0x69,0x74,0x54,0x3a,0x0a,0x40,0x6c,0x69,0x73,0x74,0x5b,0x0b,0x6f,0x3a,0x15,0x52,0x50,0x47,0x3a,0x3a,0x4d,0x6f,0x76,0x65,0x43,0x6f,0x6d,0x6d,0x61,0x6e,0x64,0x07,0x3a,0x0a,0x40,0x63,0x6f,0x64,0x65,0x69,0x2a,0x3a,0x10,0x40,0x70,0x61,0x72,0x61,0x6d,0x65,0x74,0x65,0x72,0x73,0x5b,0x00,0x6f,0x3b,0x0a,0x07,0x3b,0x0b,0x69,0x09,0x3b,0x0c,0x5b,0x00,0x6f,0x3b,0x0a,0x07,0x3b,0x0b,0x69,0x09,0x3b,0x0c,0x5b,0x00,0x6f,0x3b,0x0a,0x07,0x3b,0x0b,0x69,0x09,0x3b,0x0c,0x5b,0x00,0x6f,0x3b,0x0a,0x07,0x3b,0x0b,0x69,0x09,0x3b,0x0c,0x5b,0x00,0x6f,0x3b,0x0a,0x07,0x3b,0x0b,0x69,0x00,0x3b,0x0c,0x5b,0x00))
  205(0,bytes(0x04,0x08,0x6f,0x3a,0x13,0x52,0x50,0x47,0x3a,0x3a,0x4d,0x6f,0x76,0x65,0x52,0x6f,0x75,0x74,0x65,0x09,0x3a,0x0c,0x40,0x72,0x65,0x70,0x65,0x61,0x74,0x46,0x3a,0x0f,0x40,0x73,0x6b,0x69,0x70,0x70,0x61,0x62,0x6c,0x65,0x46,0x3a,0x0a,0x40,0x77,0x61,0x69,0x74,0x54,0x3a,0x0a,0x40,0x6c,0x69,0x73,0x74,0x5b,0x08,0x6f,0x3a,0x15,0x52,0x50,0x47,0x3a,0x3a,0x4d,0x6f,0x76,0x65,0x43,0x6f,0x6d,0x6d,0x61,0x6e,0x64,0x07,0x3a,0x0a,0x40,0x63,0x6f,0x64,0x65,0x69,0x29,0x3a,0x10,0x40,0x70,0x61,0x72,0x61,0x6d,0x65,0x74,0x65,0x72,0x73,0x5b,0x00,0x6f,0x3b,0x0a,0x07,0x3b,0x0b,0x69,0x15,0x3b,0x0c,0x5b,0x00,0x6f,0x3b,0x0a,0x07,0x3b,0x0b,0x69,0x00,0x3b,0x0c,0x5b,0x00))
  RunCommonEvent(312)
  205(144,bytes(0x04,0x08,0x6f,0x3a,0x13,0x52,0x50,0x47,0x3a,0x3a,0x4d,0x6f,0x76,0x65,0x52,0x6f,0x75,0x74,0x65,0x09,0x3a,0x0c,0x40,0x72,0x65,0x70,0x65,0x61,0x74,0x46,0x3a,0x0f,0x40,0x73,0x6b,0x69,0x70,0x70,0x61,0x62,0x6c,0x65,0x46,0x3a,0x0a,0x40,0x77,0x61,0x69,0x74,0x46,0x3a,0x0a,0x40,0x6c,0x69,0x73,0x74,0x5b,0x0d,0x6f,0x3a,0x15,0x52,0x50,0x47,0x3a,0x3a,0x4d,0x6f,0x76,0x65,0x43,0x6f,0x6d,0x6d,0x61,0x6e,0x64,0x07,0x3a,0x0a,0x40,0x63,0x6f,0x64,0x65,0x69,0x06,0x3a,0x10,0x40,0x70,0x61,0x72,0x61,0x6d,0x65,0x74,0x65,0x72,0x73,0x5b,0x00,0x6f,0x3b,0x0a,0x07,0x3b,0x0b,0x69,0x06,0x3b,0x0c,0x5b,0x00,0x6f,0x3b,0x0a,0x07,0x3b,0x0b,0x69,0x06,0x3b,0x0c,0x5b,0x00,0x6f,0x3b,0x0a,0x07,0x3b,0x0b,0x69,0x06,0x3b,0x0c,0x5b,0x00,0x6f,0x3b,0x0a,0x07,0x3b,0x0b,0x69,0x06,0x3b,0x0c,0x5b,0x00,0x6f,0x3b,0x0a,0x07,0x3b,0x0b,0x69,0x31,0x3b,0x0c,0x5b,0x06,0x6f,0x3a,0x0c,0x52,0x50,0x47,0x3a,0x3a,0x53,0x45,0x08,0x3a,0x0a,0x40,0x6e,0x61,0x6d,0x65,0x49,0x22,0x09,0x4d,0x6f,0x76,0x65,0x06,0x3a,0x06,0x45,0x54,0x3a,0x0b,0x40,0x70,0x69,0x74,0x63,0x68,0x69,0x69,0x3a,0x0c,0x40,0x76,0x6f,0x6c,0x75,0x6d,0x65,0x69,0x55,0x6f,0x3b,0x0a,0x07,0x3b,0x0b,0x69,0x21,0x3b,0x0c,0x5b,0x06,0x69,0x24,0x6f,0x3b,0x0a,0x07,0x3b,0x0b,0x69,0x00,0x3b,0x0c,0x5b,0x00))
  205(0,bytes(0x04,0x08,0x6f,0x3a,0x13,0x52,0x50,0x47,0x3a,0x3a,0x4d,0x6f,0x76,0x65,0x52,0x6f,0x75,0x74,0x65,0x09,0x3a,0x0c,0x40,0x72,0x65,0x70,0x65,0x61,0x74,0x46,0x3a,0x0f,0x40,0x73,0x6b,0x69,0x70,0x70,0x61,0x62,0x6c,0x65,0x46,0x3a,0x0a,0x40,0x77,0x61,0x69,0x74,0x46,0x3a,0x0a,0x40,0x6c,0x69,0x73,0x74,0x5b,0x0e,0x6f,0x3a,0x15,0x52,0x50,0x47,0x3a,0x3a,0x4d,0x6f,0x76,0x65,0x43,0x6f,0x6d,0x6d,0x61,0x6e,0x64,0x07,0x3a,0x0a,0x40,0x63,0x6f,0x64,0x65,0x69,0x2a,0x3a,0x10,0x40,0x70,0x61,0x72,0x61,0x6d,0x65,0x74,0x65,0x72,0x73,0x5b,0x00,0x6f,0x3b,0x0a,0x07,0x3b,0x0b,0x69,0x06,0x3b,0x0c,0x5b,0x00,0x6f,0x3b,0x0a,0x07,0x3b,0x0b,0x69,0x06,0x3b,0x0c,0x5b,0x00,0x6f,0x3b,0x0a,0x07,0x3b,0x0b,0x69,0x06,0x3b,0x0c,0x5b,0x00,0x6f,0x3b,0x0a,0x07,0x3b,0x0b,0x69,0x06,0x3b,0x0c,0x5b,0x00,0x6f,0x3b,0x0a,0x07,0x3b,0x0b,0x69,0x06,0x3b,0x0c,0x5b,0x00,0x6f,0x3b,0x0a,0x07,0x3b,0x0b,0x69,0x06,0x3b,0x0c,0x5b,0x00,0x6f,0x3b,0x0a,0x07,0x3b,0x0b,0x69,0x2c,0x3b,0x0c,0x5b,0x00,0x6f,0x3b,0x0a,0x07,0x3b,0x0b,0x69,0x00,0x3b,0x0c,0x5b,0x00))
  RunCommonEvent(313)
  0()
 PAGE   2
  // condition: party contains actor #74
  0()
 PAGE   3
  // condition: party contains actor #75
  0()



EVENT   44
 PAGE   1
  // condition: variable 1028 >= 8
  If(1,817,0,2,1)
   If(0,1559,1)
    ShowMessageFace("mob_assasin1_fc1",1,0,2,1)
    ShowMessage("\\n<Salaan>I don't have enough strength to chase after the masterminds alone... Could you allow me to accompany you in your adventure?")
    ShowChoices(strings("Let her join","Decline for now"),0)
    IfPlayerPicksChoice(0,null)
     ShowMessageFace("mob_assasin1_fc1",1,0,2,2)
     ShowMessage("\\n<Salaan>My shadow blade shall be your strength...")
     PictureClear(5)
     205(0,bytes(0x04,0x08,0x6f,0x3a,0x13,0x52,0x50,0x47,0x3a,0x3a,0x4d,0x6f,0x76,0x65,0x52,0x6f,0x75,0x74,0x65,0x09,0x3a,0x0c,0x40,0x72,0x65,0x70,0x65,0x61,0x74,0x46,0x3a,0x0f,0x40,0x73,0x6b,0x69,0x70,0x70,0x61,0x62,0x6c,0x65,0x46,0x3a,0x0a,0x40,0x77,0x61,0x69,0x74,0x54,0x3a,0x0a,0x40,0x6c,0x69,0x73,0x74,0x5b,0x09,0x6f,0x3a,0x15,0x52,0x50,0x47,0x3a,0x3a,0x4d,0x6f,0x76,0x65,0x43,0x6f,0x6d,0x6d,0x61,0x6e,0x64,0x07,0x3a,0x0a,0x40,0x63,0x6f,0x64,0x65,0x69,0x2a,0x3a,0x10,0x40,0x70,0x61,0x72,0x61,0x6d,0x65,0x74,0x65,0x72,0x73,0x5b,0x00,0x6f,0x3b,0x0a,0x07,0x3b,0x0b,0x69,0x0f,0x3b,0x0c,0x5b,0x00,0x6f,0x3b,0x0a,0x07,0x3b,0x0b,0x69,0x2c,0x3b,0x0c,0x5b,0x00,0x6f,0x3b,0x0a,0x07,0x3b,0x0b,0x69,0x00,0x3b,0x0c,0x5b,0x00))
     355("add_actor_ex(559)")
     249(bytes(0x04,0x08,0x6f,0x3a,0x0c,0x52,0x50,0x47,0x3a,0x3a,0x4d,0x45,0x08,0x3a,0x0a,0x40,0x6e,0x61,0x6d,0x65,0x49,0x22,0x0c,0x66,0x61,0x6e,0x66,0x61,0x6c,0x65,0x06,0x3a,0x06,0x45,0x54,0x3a,0x0b,0x40,0x70,0x69,0x74,0x63,0x68,0x69,0x69,0x3a,0x0c,0x40,0x76,0x6f,0x6c,0x75,0x6d,0x65,0x69,0x69))
     ShowMessageFace("",0,0,2,3)
     ShowMessage("Salaan has joined the party!")
     Wait(60)
     EndEventProcessing()
     0()
    IfPlayerPicksChoice(1,null)
     ShowMessageFace("mob_assasin1_fc1",1,0,2,4)
     ShowMessage("\\n<Saran>That is fine by me...")
     0()
    404()
    0()
   EndIf()
   0()
  EndIf()
  RunCommonEvent(7161)
  0()
 PAGE   2
  // condition: party contains actor #559
  0()



EVENT   101
 PAGE   1
  ShowMessageFace("",0,0,2,1)
  ShowMessage("\\n<Young Girl>Please, make peace descend upon the world...")
  355("actor_label_jump")
  EndEventProcessing()
  DefineLabel("26")
  ShowMessageFace("iriasu_fc4",2,0,2,2)
  ShowMessage("\\n<Ilias>I have to make sure this prayer's wish is fulfilled...")
  EndEventProcessing()
  0()
